<?xml version="1.0" encoding="UTF-8" standalone="no"?>
<!-- Created with Inkscape (http://www.inkscape.org/) -->
<svg
    xmlns:inkscape="http://www.inkscape.org/namespaces/inkscape"
    xmlns:rdf="http://www.w3.org/1999/02/22-rdf-syntax-ns#"
    xmlns="http://www.w3.org/2000/svg"
    xmlns:sodipodi="http://sodipodi.sourceforge.net/DTD/sodipodi-0.dtd"
    xmlns:cc="http://creativecommons.org/ns#"
    xmlns:xlink="http://www.w3.org/1999/xlink"
    xmlns:dc="http://purl.org/dc/elements/1.1/"
    xmlns:svg="http://www.w3.org/2000/svg"
    xmlns:ns1="http://sozi.baierouge.fr"
    id="svg2"
    sodipodi:docname="calculator.svg"
    viewBox="0 0 744.09 1052.4"
    version="1.1"
    inkscape:version="0.47 r22583"
  >
  <defs
      id="defs4"
    >
    <linearGradient
        id="linearGradient5649"
        y2="492.86"
        gradientUnits="userSpaceOnUse"
        y1="286.15"
        gradientTransform="matrix(1.0006 0 0 .57157 -11.664 74.296)"
        x2="589.07"
        x1="196.64"
        inkscape:collect="always"
      >
      <stop
          id="stop3594-8"
          style="stop-color:#ffce00;stop-opacity:.33333"
          offset="0"
      />
      <stop
          id="stop3600-3"
          style="stop-color:#f5ffff;stop-opacity:.33333"
          offset=".5"
      />
      <stop
          id="stop3596-5"
          style="stop-color:#ffce00;stop-opacity:.33333"
          offset="1"
      />
    </linearGradient
    >
  </defs
  >
  <sodipodi:namedview
      id="base"
      bordercolor="#666666"
      inkscape:pageshadow="2"
      inkscape:window-y="28"
      pagecolor="#ffffff"
      inkscape:window-height="690"
      inkscape:window-maximized="1"
      inkscape:zoom="0.5"
      inkscape:window-x="0"
      showgrid="false"
      borderopacity="1.0"
      inkscape:current-layer="layer1"
      inkscape:cx="650.80742"
      inkscape:cy="495.24556"
      inkscape:window-width="1366"
      inkscape:pageopacity="0.0"
      inkscape:document-units="px"
  />
  <g
      id="layer1"
      inkscape:label="Layer 1"
      inkscape:groupmode="layer"
    >
    <path
        id="rect2816"
        style="fill:#999999"
        d="m137.14 195.22h488.57v697.14h-488.57v-697.14z"
    />
    <path
        id="rect2818"
        style="stroke:#000000;stroke-width:.75625;fill:#decd87"
        d="m185.6 238.14h391.66v117.58h-391.66v-117.58z"
    />
    <path
        id="rect3602"
        style="fill-opacity:.53589;fill:#ffffff"
        d="m138.03 195.56 8.5625 7.5h471.22l0.0312-0.0312v677.84l7.5 10.75v-696.06h-487.31z"
    />
    <path
        id="rect3602-1"
        sodipodi:nodetypes="ccccccccc"
        style="fill-opacity:.32057;fill:#000000"
        d="m623.37 890.22-5.3805-7.5h-471.22l-0.0312 0.031v-678.37l-7.5-6.6841v692.53h487.31l-3.182 0.0002z"
    />
    <g
        id="g3902"
        transform="translate(0 -.0000076294)"
      >
      <path
          id="rect3652-8"
          style="fill:#1a1a1a"
          transform="rotate(90)"
          d="m528.82-261.58h33.798c8.4615 0 15.274 6.812 15.274 15.274v45.821c0 8.4615-6.812 15.274-15.274 15.274h-33.798c-8.4615 0-15.274-6.812-15.274-15.274v-45.821c0-8.4615 6.812-15.274 15.274-15.274z"
      />
      <g
          id="g3870"
        >
        <path
            id="rect3652-8-35"
            style="fill-opacity:.41627;fill:#ffffff"
            d="m200.11 513.91c-2.3849 0-4.649 0.53332-6.6562 1.5h51.75c8.0698 0 14.562 6.4927 14.562 14.562v39.406c0.90291-1.9526 1.4375-4.1063 1.4375-6.4062v-33.812c0-8.4615-6.8197-15.25-15.281-15.25h-45.812z"
        />
        <path
            id="rect3652-8-35-4"
            style="fill-opacity:.77033;fill:#000000"
            d="m246.86 577.43c2.3849 0 4.649-0.53332 6.6562-1.5h-51.75c-8.0698 0-14.562-6.4927-14.562-14.562v-39.406c-0.90291 1.9526-1.4375 4.1063-1.4375 6.4062v33.812c0 8.4615 6.8197 15.25 15.281 15.25h45.812z"
        />
      </g
      >
    </g
    >
    <g
        id="g3902-7"
        transform="translate(0 251.72)"
      >
      <path
          id="rect3652-8-39"
          style="fill:#1a1a1a"
          transform="rotate(90)"
          d="m528.82-261.58h33.798c8.4615 0 15.274 6.812 15.274 15.274v45.821c0 8.4615-6.812 15.274-15.274 15.274h-33.798c-8.4615 0-15.274-6.812-15.274-15.274v-45.821c0-8.4615 6.812-15.274 15.274-15.274z"
      />
      <g
          id="g3870-8"
        >
        <path
            id="rect3652-8-35-3"
            style="fill-opacity:.41627;fill:#ffffff"
            d="m200.11 513.91c-2.3849 0-4.649 0.53332-6.6562 1.5h51.75c8.0698 0 14.562 6.4927 14.562 14.562v39.406c0.90291-1.9526 1.4375-4.1063 1.4375-6.4062v-33.812c0-8.4615-6.8197-15.25-15.281-15.25h-45.812z"
        />
        <path
            id="rect3652-8-35-4-0"
            style="fill-opacity:.77033;fill:#000000"
            d="m246.86 577.43c2.3849 0 4.649-0.53332 6.6562-1.5h-51.75c-8.0698 0-14.562-6.4927-14.562-14.562v-39.406c-0.90291 1.9526-1.4375 4.1063-1.4375 6.4062v33.812c0 8.4615 6.8197 15.25 15.281 15.25h45.812z"
        />
      </g
      >
    </g
    >
    <g
        id="g3902-5"
        transform="translate(0 167.81)"
      >
      <path
          id="rect3652-8-4"
          style="fill:#1a1a1a"
          transform="rotate(90)"
          d="m528.82-261.58h33.798c8.4615 0 15.274 6.812 15.274 15.274v45.821c0 8.4615-6.812 15.274-15.274 15.274h-33.798c-8.4615 0-15.274-6.812-15.274-15.274v-45.821c0-8.4615 6.812-15.274 15.274-15.274z"
      />
      <g
          id="g3870-3"
        >
        <path
            id="rect3652-8-35-2"
            style="fill-opacity:.41627;fill:#ffffff"
            d="m200.11 513.91c-2.3849 0-4.649 0.53332-6.6562 1.5h51.75c8.0698 0 14.562 6.4927 14.562 14.562v39.406c0.90291-1.9526 1.4375-4.1063 1.4375-6.4062v-33.812c0-8.4615-6.8197-15.25-15.281-15.25h-45.812z"
        />
        <path
            id="rect3652-8-35-4-1"
            style="fill-opacity:.77033;fill:#000000"
            d="m246.86 577.43c2.3849 0 4.649-0.53332 6.6562-1.5h-51.75c-8.0698 0-14.562-6.4927-14.562-14.562v-39.406c-0.90291 1.9526-1.4375 4.1063-1.4375 6.4062v33.812c0 8.4615 6.8197 15.25 15.281 15.25h45.812z"
        />
      </g
      >
    </g
    >
    <g
        id="g3902-50"
        transform="translate(0 83.905)"
      >
      <path
          id="rect3652-8-0"
          style="fill:#1a1a1a"
          transform="rotate(90)"
          d="m528.82-261.58h33.798c8.4615 0 15.274 6.812 15.274 15.274v45.821c0 8.4615-6.812 15.274-15.274 15.274h-33.798c-8.4615 0-15.274-6.812-15.274-15.274v-45.821c0-8.4615 6.812-15.274 15.274-15.274z"
      />
      <g
          id="g3870-5"
        >
        <path
            id="rect3652-8-35-6"
            style="fill-opacity:.41627;fill:#ffffff"
            d="m200.11 513.91c-2.3849 0-4.649 0.53332-6.6562 1.5h51.75c8.0698 0 14.562 6.4927 14.562 14.562v39.406c0.90291-1.9526 1.4375-4.1063 1.4375-6.4062v-33.812c0-8.4615-6.8197-15.25-15.281-15.25h-45.812z"
        />
        <path
            id="rect3652-8-35-4-3"
            style="fill-opacity:.77033;fill:#000000"
            d="m246.86 577.43c2.3849 0 4.649-0.53332 6.6562-1.5h-51.75c-8.0698 0-14.562-6.4927-14.562-14.562v-39.406c-0.90291 1.9526-1.4375 4.1063-1.4375 6.4062v33.812c0 8.4615 6.8197 15.25 15.281 15.25h45.812z"
        />
      </g
      >
    </g
    >
    <g
        id="g3902-8"
        transform="translate(316.06102,2e-6)"
      >
      <path
          id="rect3652-8-6"
          style="fill:#1a1a1a"
          transform="rotate(90)"
          d="m528.82-261.58h33.798c8.4615 0 15.274 6.812 15.274 15.274v45.821c0 8.4615-6.812 15.274-15.274 15.274h-33.798c-8.4615 0-15.274-6.812-15.274-15.274v-45.821c0-8.4615 6.812-15.274 15.274-15.274z"
      />
      <g
          id="g3870-4"
        >
        <path
            id="rect3652-8-35-29"
            style="fill-opacity:.41627;fill:#ffffff"
            d="m200.11 513.91c-2.3849 0-4.649 0.53332-6.6562 1.5h51.75c8.0698 0 14.562 6.4927 14.562 14.562v39.406c0.90291-1.9526 1.4375-4.1063 1.4375-6.4062v-33.812c0-8.4615-6.8197-15.25-15.281-15.25h-45.812z"
        />
        <path
            id="rect3652-8-35-4-6"
            style="fill-opacity:.77033;fill:#000000"
            d="m246.86 577.43c2.3849 0 4.649-0.53332 6.6562-1.5h-51.75c-8.0698 0-14.562-6.4927-14.562-14.562v-39.406c-0.90291 1.9526-1.4375 4.1063-1.4375 6.4062v33.812c0 8.4615 6.8197 15.25 15.281 15.25h45.812z"
        />
      </g
      >
    </g
    >
    <g
        id="g3902-7-9"
        transform="translate(316.06 251.72)"
      >
      <path
          id="rect3652-8-39-9"
          style="fill:#1a1a1a"
          transform="rotate(90)"
          d="m528.82-261.58h33.798c8.4615 0 15.274 6.812 15.274 15.274v45.821c0 8.4615-6.812 15.274-15.274 15.274h-33.798c-8.4615 0-15.274-6.812-15.274-15.274v-45.821c0-8.4615 6.812-15.274 15.274-15.274z"
      />
      <g
          id="g3870-8-9"
        >
        <path
            id="rect3652-8-35-3-2"
            style="fill-opacity:.41627;fill:#ffffff"
            d="m200.11 513.91c-2.3849 0-4.649 0.53332-6.6562 1.5h51.75c8.0698 0 14.562 6.4927 14.562 14.562v39.406c0.90291-1.9526 1.4375-4.1063 1.4375-6.4062v-33.812c0-8.4615-6.8197-15.25-15.281-15.25h-45.812z"
        />
        <path
            id="rect3652-8-35-4-0-9"
            style="fill-opacity:.77033;fill:#000000"
            d="m246.86 577.43c2.3849 0 4.649-0.53332 6.6562-1.5h-51.75c-8.0698 0-14.562-6.4927-14.562-14.562v-39.406c-0.90291 1.9526-1.4375 4.1063-1.4375 6.4062v33.812c0 8.4615 6.8197 15.25 15.281 15.25h45.812z"
        />
      </g
      >
    </g
    >
    <g
        id="g3902-5-2"
        transform="translate(316.06 167.81)"
      >
      <path
          id="rect3652-8-4-0"
          style="fill:#1a1a1a"
          transform="rotate(90)"
          d="m528.82-261.58h33.798c8.4615 0 15.274 6.812 15.274 15.274v45.821c0 8.4615-6.812 15.274-15.274 15.274h-33.798c-8.4615 0-15.274-6.812-15.274-15.274v-45.821c0-8.4615 6.812-15.274 15.274-15.274z"
      />
      <g
          id="g3870-3-4"
        >
        <path
            id="rect3652-8-35-2-4"
            style="fill-opacity:.41627;fill:#ffffff"
            d="m200.11 513.91c-2.3849 0-4.649 0.53332-6.6562 1.5h51.75c8.0698 0 14.562 6.4927 14.562 14.562v39.406c0.90291-1.9526 1.4375-4.1063 1.4375-6.4062v-33.812c0-8.4615-6.8197-15.25-15.281-15.25h-45.812z"
        />
        <path
            id="rect3652-8-35-4-1-8"
            style="fill-opacity:.77033;fill:#000000"
            d="m246.86 577.43c2.3849 0 4.649-0.53332 6.6562-1.5h-51.75c-8.0698 0-14.562-6.4927-14.562-14.562v-39.406c-0.90291 1.9526-1.4375 4.1063-1.4375 6.4062v33.812c0 8.4615 6.8197 15.25 15.281 15.25h45.812z"
        />
      </g
      >
    </g
    >
    <g
        id="g3902-50-5"
        transform="translate(316.06 83.905)"
      >
      <path
          id="rect3652-8-0-4"
          style="fill:#1a1a1a"
          transform="rotate(90)"
          d="m528.82-261.58h33.798c8.4615 0 15.274 6.812 15.274 15.274v45.821c0 8.4615-6.812 15.274-15.274 15.274h-33.798c-8.4615 0-15.274-6.812-15.274-15.274v-45.821c0-8.4615 6.812-15.274 15.274-15.274z"
      />
      <g
          id="g3870-5-5"
        >
        <path
            id="rect3652-8-35-6-7"
            style="fill-opacity:.41627;fill:#ffffff"
            d="m200.11 513.91c-2.3849 0-4.649 0.53332-6.6562 1.5h51.75c8.0698 0 14.562 6.4927 14.562 14.562v39.406c0.90291-1.9526 1.4375-4.1063 1.4375-6.4062v-33.812c0-8.4615-6.8197-15.25-15.281-15.25h-45.812z"
        />
        <path
            id="rect3652-8-35-4-3-5"
            style="fill-opacity:.77033;fill:#000000"
            d="m246.86 577.43c2.3849 0 4.649-0.53332 6.6562-1.5h-51.75c-8.0698 0-14.562-6.4927-14.562-14.562v-39.406c-0.90291 1.9526-1.4375 4.1063-1.4375 6.4062v33.812c0 8.4615 6.8197 15.25 15.281 15.25h45.812z"
        />
      </g
      >
    </g
    >
    <g
        id="g3902-8-6"
        transform="translate(210.70735,2e-6)"
      >
      <path
          id="rect3652-8-6-9"
          style="fill:#1a1a1a"
          transform="rotate(90)"
          d="m528.82-261.58h33.798c8.4615 0 15.274 6.812 15.274 15.274v45.821c0 8.4615-6.812 15.274-15.274 15.274h-33.798c-8.4615 0-15.274-6.812-15.274-15.274v-45.821c0-8.4615 6.812-15.274 15.274-15.274z"
      />
      <g
          id="g3870-4-6"
        >
        <path
            id="rect3652-8-35-29-3"
            style="fill-opacity:.41627;fill:#ffffff"
            d="m200.11 513.91c-2.3849 0-4.649 0.53332-6.6562 1.5h51.75c8.0698 0 14.562 6.4927 14.562 14.562v39.406c0.90291-1.9526 1.4375-4.1063 1.4375-6.4062v-33.812c0-8.4615-6.8197-15.25-15.281-15.25h-45.812z"
        />
        <path
            id="rect3652-8-35-4-6-9"
            style="fill-opacity:.77033;fill:#000000"
            d="m246.86 577.43c2.3849 0 4.649-0.53332 6.6562-1.5h-51.75c-8.0698 0-14.562-6.4927-14.562-14.562v-39.406c-0.90291 1.9526-1.4375 4.1063-1.4375 6.4062v33.812c0 8.4615 6.8197 15.25 15.281 15.25h45.812z"
        />
      </g
      >
    </g
    >
    <g
        id="g3902-7-9-5"
        transform="translate(210.71 251.72)"
      >
      <path
          id="rect3652-8-39-9-8"
          style="fill:#1a1a1a"
          transform="rotate(90)"
          d="m528.82-261.58h33.798c8.4615 0 15.274 6.812 15.274 15.274v45.821c0 8.4615-6.812 15.274-15.274 15.274h-33.798c-8.4615 0-15.274-6.812-15.274-15.274v-45.821c0-8.4615 6.812-15.274 15.274-15.274z"
      />
      <g
          id="g3870-8-9-2"
        >
        <path
            id="rect3652-8-35-3-2-0"
            style="fill-opacity:.41627;fill:#ffffff"
            d="m200.11 513.91c-2.3849 0-4.649 0.53332-6.6562 1.5h51.75c8.0698 0 14.562 6.4927 14.562 14.562v39.406c0.90291-1.9526 1.4375-4.1063 1.4375-6.4062v-33.812c0-8.4615-6.8197-15.25-15.281-15.25h-45.812z"
        />
        <path
            id="rect3652-8-35-4-0-9-5"
            style="fill-opacity:.77033;fill:#000000"
            d="m246.86 577.43c2.3849 0 4.649-0.53332 6.6562-1.5h-51.75c-8.0698 0-14.562-6.4927-14.562-14.562v-39.406c-0.90291 1.9526-1.4375 4.1063-1.4375 6.4062v33.812c0 8.4615 6.8197 15.25 15.281 15.25h45.812z"
        />
      </g
      >
    </g
    >
    <g
        id="g3902-5-2-5"
        transform="translate(210.71 167.81)"
      >
      <path
          id="rect3652-8-4-0-5"
          style="fill:#1a1a1a"
          transform="rotate(90)"
          d="m528.82-261.58h33.798c8.4615 0 15.274 6.812 15.274 15.274v45.821c0 8.4615-6.812 15.274-15.274 15.274h-33.798c-8.4615 0-15.274-6.812-15.274-15.274v-45.821c0-8.4615 6.812-15.274 15.274-15.274z"
      />
      <g
          id="g3870-3-4-6"
        >
        <path
            id="rect3652-8-35-2-4-9"
            style="fill-opacity:.41627;fill:#ffffff"
            d="m200.11 513.91c-2.3849 0-4.649 0.53332-6.6562 1.5h51.75c8.0698 0 14.562 6.4927 14.562 14.562v39.406c0.90291-1.9526 1.4375-4.1063 1.4375-6.4062v-33.812c0-8.4615-6.8197-15.25-15.281-15.25h-45.812z"
        />
        <path
            id="rect3652-8-35-4-1-8-3"
            style="fill-opacity:.77033;fill:#000000"
            d="m246.86 577.43c2.3849 0 4.649-0.53332 6.6562-1.5h-51.75c-8.0698 0-14.562-6.4927-14.562-14.562v-39.406c-0.90291 1.9526-1.4375 4.1063-1.4375 6.4062v33.812c0 8.4615 6.8197 15.25 15.281 15.25h45.812z"
        />
      </g
      >
    </g
    >
    <g
        id="g3902-50-5-0"
        transform="translate(210.71 83.905)"
      >
      <path
          id="rect3652-8-0-4-4"
          style="fill:#1a1a1a"
          transform="rotate(90)"
          d="m528.82-261.58h33.798c8.4615 0 15.274 6.812 15.274 15.274v45.821c0 8.4615-6.812 15.274-15.274 15.274h-33.798c-8.4615 0-15.274-6.812-15.274-15.274v-45.821c0-8.4615 6.812-15.274 15.274-15.274z"
      />
      <g
          id="g3870-5-5-2"
        >
        <path
            id="rect3652-8-35-6-7-0"
            style="fill-opacity:.41627;fill:#ffffff"
            d="m200.11 513.91c-2.3849 0-4.649 0.53332-6.6562 1.5h51.75c8.0698 0 14.562 6.4927 14.562 14.562v39.406c0.90291-1.9526 1.4375-4.1063 1.4375-6.4062v-33.812c0-8.4615-6.8197-15.25-15.281-15.25h-45.812z"
        />
        <path
            id="rect3652-8-35-4-3-5-2"
            style="fill-opacity:.77033;fill:#000000"
            d="m246.86 577.43c2.3849 0 4.649-0.53332 6.6562-1.5h-51.75c-8.0698 0-14.562-6.4927-14.562-14.562v-39.406c-0.90291 1.9526-1.4375 4.1063-1.4375 6.4062v33.812c0 8.4615 6.8197 15.25 15.281 15.25h45.812z"
        />
      </g
      >
    </g
    >
    <g
        id="g3902-8-7"
        transform="translate(105.35369,2e-6)"
      >
      <path
          id="rect3652-8-6-3"
          style="fill:#1a1a1a"
          transform="rotate(90)"
          d="m528.82-261.58h33.798c8.4615 0 15.274 6.812 15.274 15.274v45.821c0 8.4615-6.812 15.274-15.274 15.274h-33.798c-8.4615 0-15.274-6.812-15.274-15.274v-45.821c0-8.4615 6.812-15.274 15.274-15.274z"
      />
      <g
          id="g3870-4-7"
        >
        <path
            id="rect3652-8-35-29-5"
            style="fill-opacity:.41627;fill:#ffffff"
            d="m200.11 513.91c-2.3849 0-4.649 0.53332-6.6562 1.5h51.75c8.0698 0 14.562 6.4927 14.562 14.562v39.406c0.90291-1.9526 1.4375-4.1063 1.4375-6.4062v-33.812c0-8.4615-6.8197-15.25-15.281-15.25h-45.812z"
        />
        <path
            id="rect3652-8-35-4-6-3"
            style="fill-opacity:.77033;fill:#000000"
            d="m246.86 577.43c2.3849 0 4.649-0.53332 6.6562-1.5h-51.75c-8.0698 0-14.562-6.4927-14.562-14.562v-39.406c-0.90291 1.9526-1.4375 4.1063-1.4375 6.4062v33.812c0 8.4615 6.8197 15.25 15.281 15.25h45.812z"
        />
      </g
      >
    </g
    >
    <g
        id="g3902-7-9-8"
        transform="translate(105.35 251.72)"
      >
      <path
          id="rect3652-8-39-9-88"
          style="fill:#1a1a1a"
          transform="rotate(90)"
          d="m528.82-261.58h33.798c8.4615 0 15.274 6.812 15.274 15.274v45.821c0 8.4615-6.812 15.274-15.274 15.274h-33.798c-8.4615 0-15.274-6.812-15.274-15.274v-45.821c0-8.4615 6.812-15.274 15.274-15.274z"
      />
      <g
          id="g3870-8-9-5"
        >
        <path
            id="rect3652-8-35-3-2-6"
            style="fill-opacity:.41627;fill:#ffffff"
            d="m200.11 513.91c-2.3849 0-4.649 0.53332-6.6562 1.5h51.75c8.0698 0 14.562 6.4927 14.562 14.562v39.406c0.90291-1.9526 1.4375-4.1063 1.4375-6.4062v-33.812c0-8.4615-6.8197-15.25-15.281-15.25h-45.812z"
        />
        <path
            id="rect3652-8-35-4-0-9-9"
            style="fill-opacity:.77033;fill:#000000"
            d="m246.86 577.43c2.3849 0 4.649-0.53332 6.6562-1.5h-51.75c-8.0698 0-14.562-6.4927-14.562-14.562v-39.406c-0.90291 1.9526-1.4375 4.1063-1.4375 6.4062v33.812c0 8.4615 6.8197 15.25 15.281 15.25h45.812z"
        />
      </g
      >
    </g
    >
    <g
        id="g3902-5-2-4"
        transform="translate(105.35 167.81)"
      >
      <path
          id="rect3652-8-4-0-9"
          style="fill:#1a1a1a"
          transform="rotate(90)"
          d="m528.82-261.58h33.798c8.4615 0 15.274 6.812 15.274 15.274v45.821c0 8.4615-6.812 15.274-15.274 15.274h-33.798c-8.4615 0-15.274-6.812-15.274-15.274v-45.821c0-8.4615 6.812-15.274 15.274-15.274z"
      />
      <g
          id="g3870-3-4-8"
        >
        <path
            id="rect3652-8-35-2-4-97"
            style="fill-opacity:.41627;fill:#ffffff"
            d="m200.11 513.91c-2.3849 0-4.649 0.53332-6.6562 1.5h51.75c8.0698 0 14.562 6.4927 14.562 14.562v39.406c0.90291-1.9526 1.4375-4.1063 1.4375-6.4062v-33.812c0-8.4615-6.8197-15.25-15.281-15.25h-45.812z"
        />
        <path
            id="rect3652-8-35-4-1-8-31"
            style="fill-opacity:.77033;fill:#000000"
            d="m246.86 577.43c2.3849 0 4.649-0.53332 6.6562-1.5h-51.75c-8.0698 0-14.562-6.4927-14.562-14.562v-39.406c-0.90291 1.9526-1.4375 4.1063-1.4375 6.4062v33.812c0 8.4615 6.8197 15.25 15.281 15.25h45.812z"
        />
      </g
      >
    </g
    >
    <g
        id="g3902-50-5-4"
        transform="translate(105.35 83.905)"
      >
      <path
          id="rect3652-8-0-4-8"
          style="fill:#1a1a1a"
          transform="rotate(90)"
          d="m528.82-261.58h33.798c8.4615 0 15.274 6.812 15.274 15.274v45.821c0 8.4615-6.812 15.274-15.274 15.274h-33.798c-8.4615 0-15.274-6.812-15.274-15.274v-45.821c0-8.4615 6.812-15.274 15.274-15.274z"
      />
      <g
          id="g3870-5-5-6"
        >
        <path
            id="rect3652-8-35-6-7-3"
            style="fill-opacity:.41627;fill:#ffffff"
            d="m200.11 513.91c-2.3849 0-4.649 0.53332-6.6562 1.5h51.75c8.0698 0 14.562 6.4927 14.562 14.562v39.406c0.90291-1.9526 1.4375-4.1063 1.4375-6.4062v-33.812c0-8.4615-6.8197-15.25-15.281-15.25h-45.812z"
        />
        <path
            id="rect3652-8-35-4-3-5-9"
            style="fill-opacity:.77033;fill:#000000"
            d="m246.86 577.43c2.3849 0 4.649-0.53332 6.6562-1.5h-51.75c-8.0698 0-14.562-6.4927-14.562-14.562v-39.406c-0.90291 1.9526-1.4375 4.1063-1.4375 6.4062v33.812c0 8.4615 6.8197 15.25 15.281 15.25h45.812z"
        />
      </g
      >
    </g
    >
    <path
        id="rect3602-1-9"
        sodipodi:nodetypes="cccccccc"
        style="fill-opacity:.32057;fill:#000000"
        d="m178.01 233.77 7.5063 4.2868h391.55l0.0312-0.0177v117.71l7.5045 4.4733v-126.46l-406.59-0.00011z"
    />
    <path
        id="rect3602-8"
        sodipodi:nodetypes="cccccccc"
        style="fill-opacity:.53589;fill:#ffffff"
        d="m585.05 360.22-6.9757-4.1858h-392.97l-0.0312 0.0178v-118.06l-7.5045-4.3257v126.66l407.48-0.10101z"
    />
    <g
        id="flowRoot4252"
        style="fill:#ffffff"
        transform="translate(-650.23 388.17)"
      >
      <path
          id="path5809"
          style=""
          d="m878.9 339.74h-3.5156v-22.402c-0.84637 0.80732-1.9596 1.6146-3.3398 2.4219-1.3672 0.80731-2.5977 1.4128-3.6914 1.8164v-3.3984c1.9661-0.92446 3.6849-2.0442 5.1562-3.3594 1.4713-1.3151 2.513-2.5911 3.125-3.8281h2.2656v28.75"
      />
    </g
    >
    <g
        id="flowRoot4252-5"
        style="fill:#ffffff"
        transform="translate(-545.9 388.17)"
      >
      <path
          id="path5806"
          style=""
          d="m884.14 336.36v3.3789h-18.926c-0.0261-0.84636 0.11067-1.6602 0.41015-2.4414 0.48177-1.2891 1.25-2.5586 2.3047-3.8086 1.0677-1.25 2.6042-2.6953 4.6094-4.3359 3.112-2.5521 5.2148-4.5703 6.3086-6.0547 1.0937-1.4974 1.6406-2.9101 1.6406-4.2383-0.00001-1.3932-0.50131-2.5651-1.5039-3.5156-0.9896-0.96352-2.2852-1.4453-3.8867-1.4453-1.6927 0.00003-3.0469 0.50784-4.0625 1.5234s-1.53 2.4219-1.543 4.2188l-3.6133-0.37109c0.24739-2.6953 1.1784-4.7461 2.793-6.1524 1.6146-1.4192 3.7825-2.1289 6.5039-2.1289 2.7474 0.00003 4.9219 0.76174 6.5234 2.2852 1.6016 1.5235 2.4023 3.4115 2.4024 5.6641-0.00002 1.1458-0.2344 2.2722-0.70313 3.3789-0.46877 1.1068-1.25 2.2722-2.3438 3.4961-1.0807 1.224-2.8841 2.9036-5.4102 5.0391-2.1094 1.7708-3.4635 2.9753-4.0625 3.6133-0.59896 0.625-1.0938 1.2565-1.4844 1.8945h14.043"
      />
    </g
    >
    <g
        id="flowRoot4252-1"
        style="fill:#ffffff"
        transform="translate(-440.95 387.91)"
      >
      <path
          id="path5803"
          style=""
          d="m865.68 332.18 3.5156-0.46875c0.40364 1.9922 1.0872 3.431 2.0508 4.3164 0.97656 0.8724 2.1614 1.3086 3.5547 1.3086 1.6536 0.00001 3.0469-0.57291 4.1797-1.7188 1.1458-1.1458 1.7187-2.5651 1.7188-4.2578-0.00002-1.6146-0.52736-2.9427-1.582-3.9844-1.0547-1.0547-2.3958-1.582-4.0234-1.582-0.66407 0.00002-1.4909 0.13023-2.4805 0.39063l0.39063-3.0859c0.23436 0.0261 0.42316 0.0391 0.5664 0.0391 1.4974 0.00002 2.845-0.3906 4.043-1.1719 1.1979-0.78123 1.7969-1.9857 1.7969-3.6133-0.00002-1.289-0.43622-2.3568-1.3086-3.2031-0.87241-0.84633-1.9987-1.2695-3.3789-1.2695-1.3672 0.00003-2.5065 0.42972-3.418 1.2891-0.91147 0.8594-1.4974 2.1485-1.7578 3.8672l-3.5156-0.625c0.42969-2.3567 1.4062-4.1797 2.9297-5.4688 1.5234-1.302 3.418-1.9531 5.6836-1.9531 1.5625 0.00003 3.0013 0.33857 4.3164 1.0156 1.3151 0.66409 2.3177 1.5756 3.0078 2.7344 0.70311 1.1589 1.0547 2.3893 1.0547 3.6914-0.00002 1.237-0.33205 2.3633-0.9961 3.3789-0.66408 1.0156-1.6472 1.8229-2.9492 2.4219 1.6927 0.39064 3.0078 1.2044 3.9453 2.4414 0.93748 1.224 1.4062 2.7604 1.4062 4.6094-0.00002 2.5-0.91148 4.6224-2.7344 6.3672-1.8229 1.7318-4.1276 2.5977-6.9141 2.5977-2.513 0-4.6029-0.7487-6.2695-2.2461-1.6536-1.4974-2.5977-3.4375-2.832-5.8203"
      />
    </g
    >
    <g
        id="flowRoot4252-9"
        style="fill:#ffffff"
        transform="translate(-334.54 384.16)"
      >
      <path
          id="path5800"
          style=""
          d="m864.29 339.74 7.5781-10.781-7.0117-9.9609h4.3945l3.1836 4.8633c0.59895 0.9245 1.0807 1.6992 1.4453 2.3242 0.57291-0.85936 1.1002-1.6211 1.582-2.2852l3.4961-4.9023h4.1992l-7.168 9.7656 7.7148 10.977h-4.3164l-4.2578-6.4453-1.1328-1.7383-5.4492 8.1836h-4.2578"
      />
    </g
    >
    <g
        id="flowRoot4252-0"
        style="fill:#ffffff"
        transform="matrix(1.6365 0 0 1.0707 -885.36 276.96)"
      >
      <path
          id="path5797"
          style=""
          d="m865.27 331.14v-3.5352h10.801v3.5352h-10.801"
      />
    </g
    >
    <g
        id="flowRoot4252-11"
        style="fill:#ffffff"
        transform="translate(-440.17 304.02)"
      >
      <path
          id="path5794"
          style=""
          d="m883.9 318.12-3.4961 0.27344c-0.31252-1.3802-0.75522-2.3828-1.3281-3.0078-0.95053-1.0026-2.1224-1.5039-3.5156-1.5039-1.1198 0.00003-2.1029 0.31253-2.9492 0.9375-1.1068 0.80732-1.9792 1.9857-2.6172 3.5352-0.63802 1.5495-0.97005 3.7565-0.99609 6.6211 0.84635-1.289 1.8815-2.2461 3.1055-2.8711 1.224-0.62498 2.5065-0.93748 3.8476-0.9375 2.3437 0.00002 4.3359 0.8659 5.9766 2.5976 1.6536 1.7188 2.4804 3.9453 2.4805 6.6797-0.00002 1.7969-0.39065 3.4701-1.1719 5.0195-0.76825 1.5365-1.8294 2.7148-3.1836 3.5352-1.3542 0.82031-2.8906 1.2305-4.6094 1.2305-2.9297 0-5.319-1.0742-7.168-3.2227-1.849-2.1614-2.7734-5.7161-2.7734-10.664-0.00001-5.5338 1.0221-9.5573 3.0664-12.07 1.7838-2.1875 4.1862-3.2812 7.207-3.2812 2.2526 0.00003 4.095 0.63154 5.5274 1.8945 1.4453 1.263 2.3112 3.0078 2.5976 5.2344m-14.355 12.344c0 1.211 0.25391 2.3698 0.76172 3.4766 0.52083 1.1068 1.2435 1.9531 2.168 2.5391 0.92447 0.57292 1.8945 0.85938 2.9102 0.85937 1.4844 0.00001 2.7604-0.59895 3.8281-1.7969 1.0677-1.1979 1.6016-2.8255 1.6016-4.8828-0.00002-1.9792-0.52736-3.5352-1.582-4.668-1.0547-1.1458-2.3828-1.7187-3.9844-1.7188-1.5886 0.00001-2.9362 0.57293-4.043 1.7188-1.1068 1.1328-1.6602 2.6237-1.6602 4.4726"
      />
    </g
    >
    <g
        id="flowRoot4252-56"
        style="fill:#ffffff"
        transform="translate(-546.4 303.76)"
      >
      <path
          id="path5791"
          style=""
          d="m865.66 332.24 3.6914-0.3125c0.27343 1.7969 0.90494 3.151 1.8945 4.0625 1.0026 0.89844 2.207 1.3477 3.6133 1.3476 1.6927 0.00001 3.125-0.63801 4.2969-1.9141 1.1719-1.276 1.7578-2.9687 1.7578-5.0781-0.00001-2.0052-0.56642-3.5872-1.6992-4.7461-1.1198-1.1588-2.5912-1.7383-4.4141-1.7383-1.1328 0.00002-2.155 0.26043-3.0664 0.78125-0.91146 0.50783-1.6276 1.1719-2.1484 1.9922l-3.3008-0.42969 2.7734-14.707h14.238v3.3594h-11.426l-1.543 7.6953c1.7188-1.1979 3.5221-1.7969 5.4102-1.7969 2.5 0.00002 4.6094 0.86591 6.3281 2.5977s2.5781 3.9583 2.5781 6.6797c-0.00002 2.5912-0.75523 4.8307-2.2656 6.7188-1.836 2.3177-4.3425 3.4766-7.5195 3.4766-2.6042 0-4.7331-0.72917-6.3867-2.1875-1.6406-1.4583-2.5781-3.3919-2.8125-5.8008"
      />
    </g
    >
    <g
        id="flowRoot4252-92"
        style="fill:#ffffff"
        transform="translate(-653.72 304.2)"
      >
      <path
          id="path5788"
          style=""
          d="m876.93 339.74v-6.8555h-12.422v-3.2227l13.066-18.555h2.8711v18.555h3.8672v3.2227h-3.8672v6.8555h-3.5156m0-10.078v-12.91l-8.9648 12.91h8.9648"
      />
    </g
    >
    <g
        id="flowRoot4252-3"
        style="fill:#ffffff"
        transform="translate(-651.76 220.11)"
      >
      <path
          id="path5785"
          style=""
          d="m865.89 314.86v-3.3789h18.535v2.7344c-1.8229 1.9401-3.6328 4.5182-5.4297 7.7344-1.7839 3.2162-3.1641 6.5234-4.1406 9.9219-0.70313 2.3958-1.1524 5.0195-1.3476 7.8711h-3.6133c0.039-2.2526 0.48176-4.974 1.3281-8.1641 0.84635-3.1901 2.0573-6.263 3.6328-9.2188 1.5885-2.9687 3.2747-5.4687 5.0586-7.5h-14.023"
      />
    </g
    >
    <g
        id="flowRoot4252-38"
        style="fill:#ffffff"
        transform="translate(-546.3 220.11)"
      >
      <path
          id="path5782"
          style=""
          d="m871.07 324.21c-1.4583-0.53383-2.5391-1.2956-3.2422-2.2852-0.70312-0.98957-1.0547-2.1745-1.0547-3.5547-0.00001-2.0833 0.74869-3.8346 2.2461-5.2539 1.4974-1.4192 3.4896-2.1289 5.9766-2.1289 2.5 0.00003 4.5117 0.72919 6.0352 2.1875 1.5234 1.4453 2.2851 3.2097 2.2852 5.293-0.00002 1.3281-0.35159 2.487-1.0547 3.4766-0.69012 0.97658-1.7448 1.7318-3.1641 2.2656 1.7578 0.57294 3.0924 1.4974 4.0039 2.7734 0.92446 1.276 1.3867 2.7995 1.3867 4.5703-0.00002 2.4479-0.8659 4.5052-2.5977 6.1719s-4.0104 2.5-6.8359 2.5-5.1042-0.83333-6.8359-2.5c-1.7318-1.6797-2.5977-3.7695-2.5977-6.2695 0-1.862 0.46875-3.418 1.4062-4.668 0.95052-1.263 2.2982-2.1224 4.043-2.5781m-0.70312-5.957c-0.00001 1.3542 0.43619 2.461 1.3086 3.3203 0.87239 0.8594 2.0052 1.2891 3.3984 1.2891 1.3542 0.00001 2.4609-0.42316 3.3203-1.2695 0.87238-0.85936 1.3086-1.9075 1.3086-3.1445-0.00001-1.289-0.44923-2.3698-1.3476-3.2422-0.88543-0.88539-1.9922-1.3281-3.3203-1.3281-1.3412 0.00003-2.4544 0.42972-3.3398 1.2891-0.88542 0.8594-1.3281 1.888-1.3281 3.0859m-1.1328 13.223c0 1.0026 0.23437 1.9727 0.70313 2.9102 0.48176 0.93751 1.1914 1.6667 2.1289 2.1875 0.93749 0.50782 1.9466 0.76173 3.0273 0.76172 1.6797 0.00001 3.0664-0.54036 4.1602-1.6211 1.0937-1.0807 1.6406-2.4544 1.6406-4.1211-0.00002-1.6927-0.56642-3.0924-1.6992-4.1992-1.1198-1.1068-2.526-1.6601-4.2188-1.6602-1.6536 0.00002-3.0274 0.54689-4.1211 1.6406-1.0807 1.0938-1.6211 2.4609-1.6211 4.1016"
      />
    </g
    >
    <g
        id="flowRoot4252-6"
        style="fill:#ffffff"
        transform="translate(-440.97 220.11)"
      >
      <path
          id="path5779"
          style=""
          d="m866.19 333.12 3.3789-0.3125c0.28645 1.5886 0.83332 2.7409 1.6406 3.457 0.80728 0.71615 1.8424 1.0742 3.1055 1.0742 1.0807 0.00001 2.0247-0.24739 2.832-0.74218 0.8203-0.49479 1.4909-1.1523 2.0117-1.9727 0.52082-0.83333 0.95702-1.9531 1.3086-3.3594 0.35155-1.4062 0.52733-2.8385 0.52735-4.2969-0.00002-0.15624-0.007-0.39061-0.0195-0.70313-0.70315 1.1198-1.6667 2.0313-2.8906 2.7344-1.211 0.69011-2.526 1.0352-3.9453 1.0352-2.3698 0.00001-4.375-0.85937-6.0156-2.5781s-2.4609-3.9844-2.4609-6.7969c-0.00001-2.9036 0.85286-5.2409 2.5586-7.0117 1.7187-1.7708 3.8672-2.6562 6.4453-2.6562 1.862 0.00003 3.5612 0.50133 5.0977 1.5039 1.5495 1.0026 2.7213 2.4349 3.5156 4.2969 0.80728 1.849 1.2109 4.5313 1.2109 8.0469-0.00002 3.6589-0.39715 6.5755-1.1914 8.75-0.79428 2.1615-1.9792 3.8086-3.5547 4.9414-1.5625 1.1328-3.3984 1.6992-5.5078 1.6992-2.2396 0-4.069-0.61849-5.4883-1.8555-1.4193-1.25-2.2721-3.0013-2.5586-5.2539m14.395-12.637c-0.00002-2.0182-0.54038-3.6198-1.6211-4.8047-1.0677-1.1849-2.3568-1.7773-3.8672-1.7774-1.5625 0.00003-2.9232 0.63805-4.082 1.9141-1.1589 1.2761-1.7383 2.9297-1.7383 4.9609-0.00001 1.8229 0.54687 3.3073 1.6406 4.4531 1.1068 1.1328 2.4674 1.6992 4.082 1.6992 1.6276 0.00001 2.9622-0.5664 4.0039-1.6992 1.0547-1.1458 1.582-2.7278 1.582-4.7461"
      />
    </g
    >
    <g
        id="flowRoot4252-2"
        style="fill:#ffffff"
        transform="translate(-336.22 220.07)"
      >
      <path
          id="path5776"
          style=""
          d="m874.02 335.11v-7.8516h-7.793v-3.2812h7.793v-7.793h3.3203v7.793h7.793v3.2812h-7.793v7.8516h-3.3203"
      />
    </g
    >
    <g
        id="flowRoot4252-4"
        style="fill:#ffffff"
        transform="translate(-441.57 471.83)"
      >
      <path
          id="path5773"
          style=""
          d="m885.13 322.9h-18.906v-3.2812h18.906v3.2812m0 8.6914h-18.906v-3.2812h18.906v3.2812"
      />
    </g
    >
    <g
        id="flowRoot4252-7"
        style="fill:#ffffff"
        transform="translate(-540.88 469.61)"
      >
      <path
          id="path5770"
          style=""
          d="m867.63 339.74v-4.0039h4.0039v4.0039h-4.0039"
      />
    </g
    >
    <g
        id="flowRoot4252-77"
        style="fill:#ffffff"
        transform="translate(-651.6 471.83)"
      >
      <path
          id="path5767"
          style=""
          d="m865.66 325.62c-0.00001-3.3854 0.34505-6.1068 1.0352-8.1641 0.70312-2.0703 1.7383-3.6653 3.1055-4.7852 1.3802-1.1198 3.112-1.6796 5.1953-1.6797 1.5364 0.00003 2.8841 0.31253 4.043 0.9375 1.1588 0.612 2.1159 1.5039 2.8711 2.6758 0.75519 1.1589 1.3476 2.5782 1.7773 4.2578 0.42967 1.6667 0.64451 3.9193 0.64453 6.7578-0.00002 3.3594-0.34507 6.0742-1.0352 8.1445-0.69012 2.0573-1.7253 3.6524-3.1055 4.7852-1.3672 1.1198-3.099 1.6797-5.1953 1.6797-2.7604 0-4.9284-0.98958-6.5039-2.9688-1.888-2.3828-2.832-6.263-2.832-11.641m3.6133 0c-0.00001 4.7005 0.54687 7.832 1.6406 9.3945 1.1068 1.5495 2.4674 2.3242 4.082 2.3242 1.6146 0.00001 2.9687-0.78124 4.0625-2.3438 1.1068-1.5625 1.6601-4.6875 1.6602-9.375-0.00002-4.7135-0.5534-7.845-1.6602-9.3945-1.0938-1.5494-2.461-2.3242-4.1016-2.3242-1.6146 0.00003-2.9036 0.68362-3.8672 2.0508-1.2109 1.7448-1.8164 4.9675-1.8164 9.668"
      />
    </g
    >
    <g
        id="g4530"
        transform="translate(.99546 3.7859)"
      >
      <g
          id="flowRoot4252-65"
          style="fill:#ffffff"
          transform="translate(-336.58 447.23)"
        >
        <path
            id="path4502"
            d="m863.39 347.69v-2.5391h23.301v2.5391h-23.301"
        />
      </g
      >
      <path
          id="path4506"
          style="fill:#ffffff"
          transform="matrix(.71875 0 0 .71875 151.44 219.51)"
          d="m544.12 786.14c0 3.1242-2.5327 5.6569-5.6569 5.6569s-5.6568-2.5327-5.6568-5.6569 2.5327-5.6568 5.6568-5.6568c3.1242 0 5.6569 2.5327 5.6569 5.6568z"
      />
      <path
          id="path4506-4"
          style="fill:#ffffff"
          transform="matrix(.71875 0 0 .71875 151.44 237.72)"
          d="m544.12 786.14c0 3.1242-2.5327 5.6569-5.6569 5.6569s-5.6568-2.5327-5.6568-5.6569 2.5327-5.6568 5.6568-5.6568c3.1242 0 5.6569 2.5327 5.6569 5.6568z"
      />
    </g
    >
    <path
        id="rect3652-8-3"
        style="fill:#ff0000"
        transform="rotate(90)"
        d="m442.91-261.58h33.798c8.4615 0 15.274 6.812 15.274 15.274v45.821c0 8.4615-6.812 15.274-15.274 15.274h-33.798c-8.4615 0-15.274-6.812-15.274-15.274v-45.821c0-8.4615 6.812-15.274 15.274-15.274z"
    />
    <g
        id="g3870-2"
        transform="translate(0 -85.913)"
      >
      <path
          id="rect3652-8-35-47"
          style="fill-opacity:.41627;fill:#ffffff"
          d="m200.11 513.91c-2.3849 0-4.649 0.53332-6.6562 1.5h51.75c8.0698 0 14.562 6.4927 14.562 14.562v39.406c0.90291-1.9526 1.4375-4.1063 1.4375-6.4062v-33.812c0-8.4615-6.8197-15.25-15.281-15.25h-45.812z"
      />
      <path
          id="rect3652-8-35-4-7"
          style="fill-opacity:.77033;fill:#000000"
          d="m246.86 577.43c2.3849 0 4.649-0.53332 6.6562-1.5h-51.75c-8.0698 0-14.562-6.4927-14.562-14.562v-39.406c-0.90291 1.9526-1.4375 4.1063-1.4375 6.4062v33.812c0 8.4615 6.8197 15.25 15.281 15.25h45.812z"
      />
    </g
    >
    <g
        id="g3902-8-4"
        transform="translate(316.06 -85.913)"
      >
      <path
          id="rect3652-8-6-2"
          style="fill:#1a1a1a"
          transform="rotate(90)"
          d="m528.82-261.58h33.798c8.4615 0 15.274 6.812 15.274 15.274v45.821c0 8.4615-6.812 15.274-15.274 15.274h-33.798c-8.4615 0-15.274-6.812-15.274-15.274v-45.821c0-8.4615 6.812-15.274 15.274-15.274z"
      />
      <g
          id="g3870-4-72"
        >
        <path
            id="rect3652-8-35-29-7"
            style="fill-opacity:.41627;fill:#ffffff"
            d="m200.11 513.91c-2.3849 0-4.649 0.53332-6.6562 1.5h51.75c8.0698 0 14.562 6.4927 14.562 14.562v39.406c0.90291-1.9526 1.4375-4.1063 1.4375-6.4062v-33.812c0-8.4615-6.8197-15.25-15.281-15.25h-45.812z"
        />
        <path
            id="rect3652-8-35-4-6-0"
            style="fill-opacity:.77033;fill:#000000"
            d="m246.86 577.43c2.3849 0 4.649-0.53332 6.6562-1.5h-51.75c-8.0698 0-14.562-6.4927-14.562-14.562v-39.406c-0.90291 1.9526-1.4375 4.1063-1.4375 6.4062v33.812c0 8.4615 6.8197 15.25 15.281 15.25h45.812z"
        />
      </g
      >
    </g
    >
    <g
        id="g3902-8-6-1"
        transform="translate(210.71 -85.913)"
      >
      <path
          id="rect3652-8-6-9-5"
          style="fill:#1a1a1a"
          transform="rotate(90)"
          d="m528.82-261.58h33.798c8.4615 0 15.274 6.812 15.274 15.274v45.821c0 8.4615-6.812 15.274-15.274 15.274h-33.798c-8.4615 0-15.274-6.812-15.274-15.274v-45.821c0-8.4615 6.812-15.274 15.274-15.274z"
      />
      <g
          id="g3870-4-6-8"
        >
        <path
            id="rect3652-8-35-29-3-8"
            style="fill-opacity:.41627;fill:#ffffff"
            d="m200.11 513.91c-2.3849 0-4.649 0.53332-6.6562 1.5h51.75c8.0698 0 14.562 6.4927 14.562 14.562v39.406c0.90291-1.9526 1.4375-4.1063 1.4375-6.4062v-33.812c0-8.4615-6.8197-15.25-15.281-15.25h-45.812z"
        />
        <path
            id="rect3652-8-35-4-6-9-0"
            style="fill-opacity:.77033;fill:#000000"
            d="m246.86 577.43c2.3849 0 4.649-0.53332 6.6562-1.5h-51.75c-8.0698 0-14.562-6.4927-14.562-14.562v-39.406c-0.90291 1.9526-1.4375 4.1063-1.4375 6.4062v33.812c0 8.4615 6.8197 15.25 15.281 15.25h45.812z"
        />
      </g
      >
    </g
    >
    <g
        id="g3902-8-7-2"
        transform="translate(105.35 -85.913)"
      >
      <path
          id="rect3652-8-6-3-0"
          style="fill:#1a1a1a"
          transform="rotate(90)"
          d="m528.82-261.58h33.798c8.4615 0 15.274 6.812 15.274 15.274v45.821c0 8.4615-6.812 15.274-15.274 15.274h-33.798c-8.4615 0-15.274-6.812-15.274-15.274v-45.821c0-8.4615 6.812-15.274 15.274-15.274z"
      />
      <g
          id="g3870-4-7-8"
        >
        <path
            id="rect3652-8-35-29-5-6"
            style="fill-opacity:.41627;fill:#ffffff"
            d="m200.11 513.91c-2.3849 0-4.649 0.53332-6.6562 1.5h51.75c8.0698 0 14.562 6.4927 14.562 14.562v39.406c0.90291-1.9526 1.4375-4.1063 1.4375-6.4062v-33.812c0-8.4615-6.8197-15.25-15.281-15.25h-45.812z"
        />
        <path
            id="rect3652-8-35-4-6-3-8"
            style="fill-opacity:.77033;fill:#000000"
            d="m246.86 577.43c2.3849 0 4.649-0.53332 6.6562-1.5h-51.75c-8.0698 0-14.562-6.4927-14.562-14.562v-39.406c-0.90291 1.9526-1.4375 4.1063-1.4375 6.4062v33.812c0 8.4615 6.8197 15.25 15.281 15.25h45.812z"
        />
      </g
      >
    </g
    >
    <g
        id="flowRoot4252-3-8"
        style="fill:#ffffff"
        transform="matrix(.56019 0 0 1 -288.71 134.2)"
      >
      <path
          id="path5752"
          style=""
          d="m865.93 325.79c0-4.7526 1.276-8.47 3.8281-11.152 2.5521-2.6953 5.8463-4.0429 9.8828-4.043 2.6432 0.00003 5.026 0.63154 7.1484 1.8945s3.737 3.0274 4.8438 5.293c1.1198 2.2526 1.6797 4.8112 1.6797 7.6758-0.00003 2.9037-0.58597 5.5013-1.7578 7.793-1.1719 2.2917-2.832 4.03-4.9805 5.2148-2.1484 1.1719-4.4662 1.7578-6.9531 1.7578-2.6953 0-5.1042-0.65104-7.2266-1.9531s-3.7305-3.0794-4.8242-5.332c-1.0938-2.2526-1.6406-4.6354-1.6406-7.1484m3.9062 0.0586c0 3.4505 0.92448 6.1719 2.7734 8.1641 1.862 1.9792 4.1927 2.9688 6.9922 2.9688 2.8515 0 5.1953-1.0026 7.0312-3.0078 1.8489-2.0052 2.7734-4.8502 2.7734-8.5352-0.00003-2.3307-0.39716-4.362-1.1914-6.0938-0.78127-1.7448-1.9336-3.0924-3.457-4.043-1.5104-0.96351-3.2096-1.4453-5.0977-1.4453-2.6823 0.00003-4.9935 0.92451-6.9336 2.7734-1.9271 1.836-2.8906 4.9089-2.8906 9.2188"
      />
      <path
          id="path5754"
          style=""
          d="m898.14 339.74v-28.633h3.8867l15.039 22.48v-22.48h3.6328v28.633h-3.8867l-15.039-22.5v22.5h-3.6328"
      />
      <path
          id="path5756"
          style=""
          d="m924 340.23 8.3008-29.609h2.8125l-8.2812 29.609h-2.832"
      />
      <path
          id="path5758"
          style=""
          d="m958.61 329.7 3.7891 0.95704c-0.7943 3.112-2.2266 5.4883-4.2969 7.1289-2.0573 1.6276-4.5768 2.4414-7.5586 2.4414-3.086 0-5.599-0.625-7.5391-1.875-1.9271-1.263-3.3984-3.0859-4.4141-5.4688-1.0026-2.3828-1.5039-4.9414-1.5039-7.6758 0-2.9818 0.5664-5.5794 1.6992-7.793 1.1458-2.2265 2.7669-3.9127 4.8633-5.0586 2.1094-1.1588 4.4271-1.7382 6.9531-1.7383 2.8646 0.00003 5.2734 0.7292 7.2266 2.1875 1.9531 1.4584 3.3138 3.5091 4.082 6.1524l-3.7305 0.8789c-0.66409-2.0833-1.6276-3.6002-2.8906-4.5508-1.263-0.95049-2.8516-1.4258-4.7656-1.4258-2.2005 0.00003-4.043 0.52737-5.5274 1.582-1.4714 1.0547-2.5065 2.474-3.1055 4.2578-0.59896 1.7709-0.89844 3.6003-0.89843 5.4883-0.00001 2.4349 0.35155 4.5638 1.0547 6.3867 0.71614 1.8099 1.8229 3.1641 3.3203 4.0625 1.4974 0.89845 3.1185 1.3477 4.8633 1.3477 2.1224 0 3.9192-0.61197 5.3906-1.8359 1.4713-1.224 2.4674-3.0404 2.9883-5.4492"
      />
    </g
    >
    <g
        id="flowRoot4252-38-1"
        style="fill:#ffffff"
        transform="translate(-559.62 134.2)"
      >
      <path
          id="path5745"
          style=""
          d="m874.02 335.11v-7.8516h-7.793v-3.2812h7.793v-7.793h3.3203v7.793h7.793v3.2812h-7.793v7.8516h-3.3203"
      />
      <path
          id="path5747"
          style=""
          d="m887.36 340.23 8.3008-29.609h2.8125l-8.2812 29.609h-2.832"
      />
      <path
          id="path5749"
          style=""
          d="m899.72 331.14v-3.5352h10.801v3.5352h-10.801"
      />
    </g
    >
    <g
        id="flowRoot4252-6-6"
        style="fill:#ffffff"
        transform="translate(-447.61 134.2)"
      >
      <path
          id="path5742"
          style=""
          d="m866.32 317.98c0-2.0442 0.51432-3.7825 1.543-5.2148 1.0286-1.4323 2.5195-2.1484 4.4726-2.1484 1.7969 0.00003 3.2812 0.64456 4.4531 1.9336 1.1849 1.2761 1.7773 3.1576 1.7773 5.6445-0.00001 2.4219-0.59897 4.2904-1.7969 5.6055-1.1849 1.3021-2.6498 1.9531-4.3945 1.9531-1.7318 0.00002-3.1771-0.64451-4.3359-1.9336-1.1458-1.289-1.7188-3.2357-1.7188-5.8398m6.1133-4.9414c-0.8724 0.00003-1.6016 0.37763-2.1875 1.1328-0.57292 0.75523-0.85938 2.142-0.85938 4.1602 0 1.836 0.29297 3.1315 0.87891 3.8867 0.58593 0.7422 1.3086 1.1133 2.168 1.1133 0.88541 0.00001 1.6146-0.37759 2.1875-1.1328 0.58593-0.75519 0.87889-2.1354 0.87891-4.1406-0.00002-1.8489-0.29298-3.1445-0.87891-3.8867-0.58595-0.75518-1.3151-1.1328-2.1875-1.1328m0.0195 27.754 15.664-30.176h2.8516l-15.605 30.176h-2.9102m12.383-7.7734c-0.00002-2.0573 0.51431-3.7956 1.543-5.2148 1.0286-1.4323 2.526-2.1484 4.4922-2.1484 1.7968 0.00001 3.2812 0.64454 4.4531 1.9336 1.1849 1.276 1.7773 3.1576 1.7774 5.6445-0.00003 2.4219-0.59899 4.2904-1.7969 5.6055-1.1849 1.3021-2.6563 1.9531-4.4141 1.9531-1.7318 0-3.1771-0.64453-4.3359-1.9336-1.1458-1.3021-1.7188-3.2487-1.7188-5.8398m6.1328-4.9414c-0.88545 0.00001-1.6211 0.37762-2.207 1.1328-0.57294 0.75522-0.85939 2.1419-0.85937 4.1602-0.00002 1.8229 0.29294 3.112 0.87891 3.8672 0.58591 0.75521 1.3086 1.1328 2.168 1.1328 0.89841 0 1.6341-0.3776 2.207-1.1328 0.5859-0.75521 0.87887-2.1354 0.8789-4.1406-0.00003-1.849-0.293-3.1445-0.8789-3.8867-0.58597-0.75519-1.3151-1.1328-2.1875-1.1328"
      />
    </g
    >
    <path
        id="flowRoot4252-0-7"
        sodipodi:nodetypes="ccccccccccccc"
        style="fill:#ffffff"
        d="m541.91 447.28-0.0312 0.0312v0.0312l-13.281 24.469-5.0938-2.7188-1.7812 3.3438 8.375 4.5h0.0312l14-25.844h15.438v-3.7812h-17.594l-0.0625-0.0312z"
    />
    <g
        id="g5418"
        transform="matrix(.80929 0 0 1 35.084 1.1688)"
      >
      <path
          id="rect4912"
          style="fill:#1a1a1a"
          transform="rotate(90)"
          d="m265.6-242.73h33.196v7.2655h-33.196v-7.2655z"
      />
      <path
          id="rect4912-6"
          style="fill:#1a1a1a"
          transform="rotate(90)"
          d="m299.59-242.73h33.196v7.2655h-33.196v-7.2655z"
      />
      <path
          id="rect4912-3"
          style="fill:#1a1a1a"
          transform="rotate(90)"
          d="m265.6-201.72h33.196v7.2655h-33.196v-7.2655z"
      />
      <path
          id="rect4912-6-8"
          style="fill:#1a1a1a"
          transform="rotate(90)"
          d="m299.59-201.72h33.196v7.2655h-33.196v-7.2655z"
      />
      <path
          id="rect4912-1"
          style="fill:#1a1a1a"
          transform="scale(-1)"
          d="m-235.23-272.87h33.196v7.2655h-33.196v-7.2655z"
      />
      <path
          id="rect4912-6-3"
          style="fill:#1a1a1a"
          transform="scale(-1)"
          d="m-235.23-332.79h33.196v7.2655h-33.196v-7.2655z"
      />
    </g
    >
    <g
        id="g5418-3"
        transform="matrix(.80929 0 0 1 77.411 1.1688)"
      >
      <path
          id="rect4912-31"
          style="fill:#1a1a1a"
          transform="rotate(90)"
          d="m265.6-242.73h33.196v7.2655h-33.196v-7.2655z"
      />
      <path
          id="rect4912-6-83"
          style="fill:#1a1a1a"
          transform="rotate(90)"
          d="m299.59-242.73h33.196v7.2655h-33.196v-7.2655z"
      />
    </g
    >
    <g
        id="g5418-6"
        transform="matrix(.80929 0 0 1 119.74 1.1688)"
      >
      <path
          id="rect4912-0"
          style="fill:#1a1a1a"
          transform="rotate(90)"
          d="m265.6-242.73h33.196v7.2655h-33.196v-7.2655z"
      />
      <path
          id="rect4912-6-8-5"
          style="fill:#1a1a1a"
          transform="rotate(90)"
          d="m299.59-201.72h33.196v7.2655h-33.196v-7.2655z"
      />
      <path
          id="rect4912-1-0"
          style="fill:#1a1a1a"
          transform="scale(-1)"
          d="m-235.23-272.87h33.196v7.2655h-33.196v-7.2655z"
      />
      <path
          id="rect4912-6-3-9"
          style="fill:#1a1a1a"
          transform="scale(-1)"
          d="m-235.23-332.79h33.196v7.2655h-33.196v-7.2655z"
      />
      <path
          id="rect4912-1-4-8"
          style="fill:#1a1a1a"
          transform="scale(-1)"
          d="m-235.23-302.83h33.196v7.2655h-33.196v-7.2655z"
      />
    </g
    >
    <g
        id="g5418-8"
        transform="matrix(.80929 0 0 1 162.06 1.1688)"
      >
      <path
          id="rect4912-2"
          style="fill:#1a1a1a"
          transform="rotate(90)"
          d="m265.6-242.73h33.196v7.2655h-33.196v-7.2655z"
      />
      <path
          id="rect4912-6-6"
          style="fill:#1a1a1a"
          transform="rotate(90)"
          d="m299.59-242.73h33.196v7.2655h-33.196v-7.2655z"
      />
      <path
          id="rect4912-1-7"
          style="fill:#1a1a1a"
          transform="scale(-1)"
          d="m-235.23-272.87h33.196v7.2655h-33.196v-7.2655z"
      />
      <path
          id="rect4912-6-3-6"
          style="fill:#1a1a1a"
          transform="scale(-1)"
          d="m-235.23-332.79h33.196v7.2655h-33.196v-7.2655z"
      />
      <path
          id="rect4912-1-4-2"
          style="fill:#1a1a1a"
          transform="scale(-1)"
          d="m-235.23-302.83h33.196v7.2655h-33.196v-7.2655z"
      />
    </g
    >
    <g
        id="g5418-9"
        transform="matrix(.80929 0 0 1 204.39 1.1688)"
      >
      <path
          id="rect4912-4"
          style="fill:#1a1a1a"
          transform="rotate(90)"
          d="m265.6-242.73h33.196v7.2655h-33.196v-7.2655z"
      />
      <path
          id="rect4912-6-9"
          style="fill:#1a1a1a"
          transform="rotate(90)"
          d="m299.59-242.73h33.196v7.2655h-33.196v-7.2655z"
      />
      <path
          id="rect4912-3-4"
          style="fill:#1a1a1a"
          transform="rotate(90)"
          d="m265.6-201.72h33.196v7.2655h-33.196v-7.2655z"
      />
      <path
          id="rect4912-1-4-83"
          style="fill:#1a1a1a"
          transform="scale(-1)"
          d="m-235.23-302.83h33.196v7.2655h-33.196v-7.2655z"
      />
    </g
    >
    <g
        id="g5418-69"
        transform="matrix(.80929 0 0 1 246.72 1.1688)"
      >
      <path
          id="rect4912-6-27"
          style="fill:#1a1a1a"
          transform="rotate(90)"
          d="m299.59-242.73h33.196v7.2655h-33.196v-7.2655z"
      />
      <path
          id="rect4912-3-11"
          style="fill:#1a1a1a"
          transform="rotate(90)"
          d="m265.6-201.72h33.196v7.2655h-33.196v-7.2655z"
      />
      <path
          id="rect4912-1-09"
          style="fill:#1a1a1a"
          transform="scale(-1)"
          d="m-235.23-272.87h33.196v7.2655h-33.196v-7.2655z"
      />
      <path
          id="rect4912-6-3-2"
          style="fill:#1a1a1a"
          transform="scale(-1)"
          d="m-235.23-332.79h33.196v7.2655h-33.196v-7.2655z"
      />
      <path
          id="rect4912-1-4-7"
          style="fill:#1a1a1a"
          transform="scale(-1)"
          d="m-235.23-302.83h33.196v7.2655h-33.196v-7.2655z"
      />
    </g
    >
    <g
        id="g5418-5"
        transform="matrix(.80929 0 0 1 289.05 1.1688)"
      >
      <path
          id="rect4912-6-4"
          style="fill:#1a1a1a"
          transform="rotate(90)"
          d="m299.59-242.73h33.196v7.2655h-33.196v-7.2655z"
      />
      <path
          id="rect4912-3-2"
          style="fill:#1a1a1a"
          transform="rotate(90)"
          d="m265.6-201.72h33.196v7.2655h-33.196v-7.2655z"
      />
      <path
          id="rect4912-6-8-7"
          style="fill:#1a1a1a"
          transform="rotate(90)"
          d="m299.59-201.72h33.196v7.2655h-33.196v-7.2655z"
      />
      <path
          id="rect4912-1-1"
          style="fill:#1a1a1a"
          transform="scale(-1)"
          d="m-235.23-272.87h33.196v7.2655h-33.196v-7.2655z"
      />
      <path
          id="rect4912-6-3-0"
          style="fill:#1a1a1a"
          transform="scale(-1)"
          d="m-235.23-332.79h33.196v7.2655h-33.196v-7.2655z"
      />
      <path
          id="rect4912-1-4-5"
          style="fill:#1a1a1a"
          transform="scale(-1)"
          d="m-235.23-302.83h33.196v7.2655h-33.196v-7.2655z"
      />
    </g
    >
    <g
        id="g5418-81"
        transform="matrix(.80929 0 0 1 331.37 1.1688)"
      >
      <path
          id="rect4912-9"
          style="fill:#1a1a1a"
          transform="rotate(90)"
          d="m265.6-242.73h33.196v7.2655h-33.196v-7.2655z"
      />
      <path
          id="rect4912-6-89"
          style="fill:#1a1a1a"
          transform="rotate(90)"
          d="m299.59-242.73h33.196v7.2655h-33.196v-7.2655z"
      />
      <path
          id="rect4912-1-00"
          style="fill:#1a1a1a"
          transform="scale(-1)"
          d="m-235.23-272.87h33.196v7.2655h-33.196v-7.2655z"
      />
    </g
    >
    <g
        id="g5418-0"
        transform="matrix(.80929 0 0 1 373.7 1.1688)"
      >
      <path
          id="rect4912-5"
          style="fill:#1a1a1a"
          transform="rotate(90)"
          d="m265.6-242.73h33.196v7.2655h-33.196v-7.2655z"
      />
      <path
          id="rect4912-6-24"
          style="fill:#1a1a1a"
          transform="rotate(90)"
          d="m299.59-242.73h33.196v7.2655h-33.196v-7.2655z"
      />
      <path
          id="rect4912-3-47"
          style="fill:#1a1a1a"
          transform="rotate(90)"
          d="m265.6-201.72h33.196v7.2655h-33.196v-7.2655z"
      />
      <path
          id="rect4912-6-8-6"
          style="fill:#1a1a1a"
          transform="rotate(90)"
          d="m299.59-201.72h33.196v7.2655h-33.196v-7.2655z"
      />
      <path
          id="rect4912-1-9"
          style="fill:#1a1a1a"
          transform="scale(-1)"
          d="m-235.23-272.87h33.196v7.2655h-33.196v-7.2655z"
      />
      <path
          id="rect4912-6-3-54"
          style="fill:#1a1a1a"
          transform="scale(-1)"
          d="m-235.23-332.79h33.196v7.2655h-33.196v-7.2655z"
      />
      <path
          id="rect4912-1-4-6"
          style="fill:#1a1a1a"
          transform="scale(-1)"
          d="m-235.23-302.83h33.196v7.2655h-33.196v-7.2655z"
      />
    </g
    >
    <path
        id="rect2818-4"
        style="stroke:#000000;stroke-width:.75625;fill:url(#linearGradient5649)"
        d="m185.6 238.14h391.66v117.58h-391.66v-117.58z"
    />
  </g
  >
  <metadata
    >
    <rdf:RDF
      >
      <cc:Work
        >
        <dc:format
          >image/svg+xml</dc:format
        >
        <dc:type
            rdf:resource="http://purl.org/dc/dcmitype/StillImage"
        />
        <cc:license
            rdf:resource="http://creativecommons.org/licenses/publicdomain/"
        />
        <dc:publisher
          >
          <cc:Agent
              rdf:about="http://openclipart.org/"
            >
            <dc:title
              >Openclipart</dc:title
            >
          </cc:Agent
          >
        </dc:publisher
        >
        <dc:title
          >Old Calculator</dc:title
        >
        <dc:date
          >2011-03-29T10:38:55</dc:date
        >
        <dc:description
          >Remember back to the days of the 80s when these were banned in school and were confiscated on a regular basis.  No scientific stuff here, just a plain and simple old fashioned calculator with a seven segment display</dc:description
        >
        <dc:source
          >https://openclipart.org/detail/129595/old-calculator-by-kevie</dc:source
        >
        <dc:creator
          >
          <cc:Agent
            >
            <dc:title
              >kevie</dc:title
            >
          </cc:Agent
          >
        </dc:creator
        >
        <dc:subject
          >
          <rdf:Bag
            >
            <rdf:li
              >80s</rdf:li
            >
            <rdf:li
              >equipment</rdf:li
            >
            <rdf:li
              >maths</rdf:li
            >
            <rdf:li
              >pupils</rdf:li
            >
            <rdf:li
              >retro</rdf:li
            >
            <rdf:li
              >school</rdf:li
            >
            <rdf:li
              >students</rdf:li
            >
            <rdf:li
              >technology</rdf:li
            >
          </rdf:Bag
          >
        </dc:subject
        >
      </cc:Work
      >
      <cc:License
          rdf:about="http://creativecommons.org/licenses/publicdomain/"
        >
        <cc:permits
            rdf:resource="http://creativecommons.org/ns#Reproduction"
        />
        <cc:permits
            rdf:resource="http://creativecommons.org/ns#Distribution"
        />
        <cc:permits
            rdf:resource="http://creativecommons.org/ns#DerivativeWorks"
        />
      </cc:License
      >
    </rdf:RDF
    >
  </metadata
  >
</svg
>
