<?xml version="1.0" encoding="UTF-8" standalone="no"?>
<!-- Created with Inkscape (http://www.inkscape.org/) -->
<svg
    xmlns:inkscape="http://www.inkscape.org/namespaces/inkscape"
    xmlns:rdf="http://www.w3.org/1999/02/22-rdf-syntax-ns#"
    xmlns="http://www.w3.org/2000/svg"
    xmlns:sodipodi="http://sodipodi.sourceforge.net/DTD/sodipodi-0.dtd"
    xmlns:cc="http://creativecommons.org/ns#"
    xmlns:xlink="http://www.w3.org/1999/xlink"
    xmlns:dc="http://purl.org/dc/elements/1.1/"
    xmlns:svg="http://www.w3.org/2000/svg"
    xmlns:ns1="http://sozi.baierouge.fr"
    id="svg12957"
    sodipodi:docname="chocolateChipsMuffin.svg"
    viewBox="0 0 431.23 450.33"
    version="1.1"
    inkscape:version="0.48.3.1 r9886"
  >
  <title
      id="title3144"
    >Chocolate Chips Muffin</title
  >
  <defs
      id="defs12959"
    >
    <filter
        id="filter5884-4-0-05"
        height="2.0623"
        width="1.31"
        color-interpolation-filters="sRGB"
        y="-.53116"
        x="-.15502"
        inkscape:collect="always"
      >
      <feGaussianBlur
          id="feGaussianBlur5886-8-0-3"
          stdDeviation="2.4352638"
          inkscape:collect="always"
      />
    </filter
    >
    <radialGradient
        id="radialGradient12758"
        gradientUnits="userSpaceOnUse"
        cy="824.19"
        cx="657.95"
        gradientTransform="matrix(1 0 0 .77767 0 183.24)"
        r="23.511"
        inkscape:collect="always"
      >
      <stop
          id="stop5517-1-1-6"
          style="stop-color:#e1d8b9"
          offset="0"
      />
      <stop
          id="stop5519-7-3-7"
          style="stop-color:#e1d8b9;stop-opacity:0"
          offset="1"
      />
    </radialGradient
    >
    <filter
        id="filter5523-7-1-4"
        height="1.2759"
        width="1.2146"
        color-interpolation-filters="sRGB"
        y="-.13797"
        x="-.10729"
        inkscape:collect="always"
      >
      <feGaussianBlur
          id="feGaussianBlur5525-2-6-6"
          stdDeviation="2.102158"
          inkscape:collect="always"
      />
    </filter
    >
    <radialGradient
        id="radialGradient12760"
        gradientUnits="userSpaceOnUse"
        cy="1095.9"
        cx="384.35"
        gradientTransform="matrix(1 0 0 1.0669 0 -73.32)"
        r=".75548"
        inkscape:collect="always"
      >
      <stop
          id="stop7033-30"
          style="stop-color:#ffffff"
          offset="0"
      />
      <stop
          id="stop7035-418"
          style="stop-color:#ffffff;stop-opacity:0"
          offset="1"
      />
    </radialGradient
    >
    <filter
        id="filter7043-20"
        height="1.4629"
        width="1.4979"
        color-interpolation-filters="sRGB"
        y="-.23147"
        x="-.24897"
        inkscape:collect="always"
      >
      <feGaussianBlur
          id="feGaussianBlur7045-0"
          stdDeviation="0.13869472"
          inkscape:collect="always"
      />
    </filter
    >
    <filter
        id="filter7043-6-2"
        height="1.4629"
        width="1.4979"
        color-interpolation-filters="sRGB"
        y="-.23147"
        x="-.24897"
        inkscape:collect="always"
      >
      <feGaussianBlur
          id="feGaussianBlur7045-3-5"
          stdDeviation="0.13869472"
          inkscape:collect="always"
      />
    </filter
    >
    <filter
        id="filter7043-64-5"
        height="1.4629"
        width="1.4979"
        color-interpolation-filters="sRGB"
        y="-.23147"
        x="-.24897"
        inkscape:collect="always"
      >
      <feGaussianBlur
          id="feGaussianBlur7045-7-9"
          stdDeviation="0.13869472"
          inkscape:collect="always"
      />
    </filter
    >
    <filter
        id="filter7043-5-6"
        height="1.4629"
        width="1.4979"
        color-interpolation-filters="sRGB"
        y="-.23147"
        x="-.24897"
        inkscape:collect="always"
      >
      <feGaussianBlur
          id="feGaussianBlur7045-9-8"
          stdDeviation="0.13869472"
          inkscape:collect="always"
      />
    </filter
    >
    <filter
        id="filter7043-2-8"
        height="1.4629"
        width="1.4979"
        color-interpolation-filters="sRGB"
        y="-.23147"
        x="-.24897"
        inkscape:collect="always"
      >
      <feGaussianBlur
          id="feGaussianBlur7045-2-8"
          stdDeviation="0.13869472"
          inkscape:collect="always"
      />
    </filter
    >
    <filter
        id="filter7043-26-4"
        height="1.4629"
        width="1.4979"
        color-interpolation-filters="sRGB"
        y="-.23147"
        x="-.24897"
        inkscape:collect="always"
      >
      <feGaussianBlur
          id="feGaussianBlur7045-36-2"
          stdDeviation="0.13869472"
          inkscape:collect="always"
      />
    </filter
    >
    <filter
        id="filter7043-262-2"
        height="1.4629"
        width="1.4979"
        color-interpolation-filters="sRGB"
        y="-.23147"
        x="-.24897"
        inkscape:collect="always"
      >
      <feGaussianBlur
          id="feGaussianBlur7045-23-4"
          stdDeviation="0.13869472"
          inkscape:collect="always"
      />
    </filter
    >
    <filter
        id="filter7043-68-4"
        height="1.4629"
        width="1.4979"
        color-interpolation-filters="sRGB"
        y="-.23147"
        x="-.24897"
        inkscape:collect="always"
      >
      <feGaussianBlur
          id="feGaussianBlur7045-1-2"
          stdDeviation="0.13869472"
          inkscape:collect="always"
      />
    </filter
    >
    <filter
        id="filter7043-25-5"
        height="1.4629"
        width="1.4979"
        color-interpolation-filters="sRGB"
        y="-.23147"
        x="-.24897"
        inkscape:collect="always"
      >
      <feGaussianBlur
          id="feGaussianBlur7045-4-8"
          stdDeviation="0.13869472"
          inkscape:collect="always"
      />
    </filter
    >
    <filter
        id="filter7043-7-1"
        height="1.4629"
        width="1.4979"
        color-interpolation-filters="sRGB"
        y="-.23147"
        x="-.24897"
        inkscape:collect="always"
      >
      <feGaussianBlur
          id="feGaussianBlur7045-8-1"
          stdDeviation="0.13869472"
          inkscape:collect="always"
      />
    </filter
    >
    <filter
        id="filter7043-69-1"
        height="1.4629"
        width="1.4979"
        color-interpolation-filters="sRGB"
        y="-.23147"
        x="-.24897"
        inkscape:collect="always"
      >
      <feGaussianBlur
          id="feGaussianBlur7045-6-0"
          stdDeviation="0.13869472"
          inkscape:collect="always"
      />
    </filter
    >
    <filter
        id="filter7043-1-8"
        height="1.4629"
        width="1.4979"
        color-interpolation-filters="sRGB"
        y="-.23147"
        x="-.24897"
        inkscape:collect="always"
      >
      <feGaussianBlur
          id="feGaussianBlur7045-78-8"
          stdDeviation="0.13869472"
          inkscape:collect="always"
      />
    </filter
    >
    <filter
        id="filter7043-4-7"
        height="1.4629"
        width="1.4979"
        color-interpolation-filters="sRGB"
        y="-.23147"
        x="-.24897"
        inkscape:collect="always"
      >
      <feGaussianBlur
          id="feGaussianBlur7045-26-4"
          stdDeviation="0.13869472"
          inkscape:collect="always"
      />
    </filter
    >
  </defs
  >
  <sodipodi:namedview
      id="base"
      fit-margin-left="0"
      inkscape:zoom="0.98994949"
      borderopacity="1.0"
      inkscape:current-layer="layer1"
      inkscape:cx="-69.071245"
      inkscape:cy="135.59728"
      inkscape:window-maximized="1"
      showgrid="false"
      fit-margin-right="0"
      units="cm"
      inkscape:document-units="px"
      bordercolor="#666666"
      inkscape:window-x="-7"
      inkscape:window-y="-10"
      fit-margin-bottom="0"
      inkscape:window-width="1881"
      inkscape:pageopacity="0.0"
      inkscape:pageshadow="2"
      pagecolor="#ffffff"
      inkscape:window-height="1060"
      fit-margin-top="0"
  />
  <g
      id="layer1"
      inkscape:label="Capa 1"
      inkscape:groupmode="layer"
      transform="translate(-21.097 -26.151)"
    >
    <g
        id="g7725-4"
        style="fill:none"
        transform="matrix(9.4657 0 0 9.4657 -520.28 -5384.2)"
      >
      <path
          id="path8456-8-7"
          style="filter:url(#filter5884-4-0-05);fill-opacity:.22172;fill:#000000"
          inkscape:connector-curvature="0"
          d="m659.82 975.81c0.97245 0.24545 2.9458-0.26765 3.9198 0.083 0.0868 0.0312 0.18504-0.0103 0.27669 0 0.29591 0.0333 0.7196 0.17206 0.96843 0.33203 0.12178 0.0783 0.20977 0.20009 0.32281 0.29053 0.42333 0.33866 0.92032 0.554 1.2912 0.95459 0.24933 0.26928 0.35586 0.65231 0.64562 0.91309 0.1042 0.0938 0.26473 0.15525 0.36893 0.24903 0.18388 0.16549 0.24859 0.39607 0.46115 0.53955 0.26975 0.18208 0.58096 0.21008 0.73785 0.53955 0.12119 0.25449 0.0664 0.57125 0.13835 0.83009 0.0544 0.19586 0.17279 0.44654 0.0922 0.66406-0.17332 0.46797-0.77889 0.60568-1.1529 0.83008-0.2283 0.13698-0.45746 0.33606-0.69174 0.45655-0.056 0.0288-0.13494 0.003-0.18446 0.0415-0.0811 0.0639-0.10768 0.17992-0.18446 0.24903-0.20022 0.18019-1.4289 0.53945-1.7063 0.58105-0.0568 0.009-0.1981 0.11199-0.23058 0.12452-0.61145 0.23584 0.32497-0.2085-0.41504 0.12451-0.21808 0.0981-0.41732 0.25498-0.64562 0.33203-0.34947 0.11795-0.70427 0.28189-1.0607 0.37354-0.28067 0.0722-0.5579 0.096-0.83008 0.16601-0.13399 0.0345-0.28007-0.0304-0.41504 0-0.0403 0.009-0.0615 0.0553-0.0922 0.083-0.0615 0.0138-0.12184 0.0345-0.18447 0.0415-0.14627 0.0164-0.31943-0.001-0.46115 0.0415-0.1313 0.006-0.20817 0.12732-0.32281 0.16602-0.22453 0.0758-0.46538 0.0838-0.69174 0.12451-0.4006 0.0721-0.767 0.25777-1.1529 0.37354-0.11362 0.0866-0.24907 0.0107-0.36892 0.0415-0.21196 0.0545-0.42059 0.16701-0.64562 0.20752-0.2682 0.0483-0.56106-0.044-0.83008 0-0.64226 0.1051-1.286 0.26695-1.9369 0.33203-0.24352 0.0244-0.49434-0.0244-0.73785 0-0.60246 0.0602-1.1884 0.083-1.7985 0.083-0.34598 0-0.71688-0.0387-1.0607 0-0.40098 0.0451-0.79871 0.11455-1.199 0.16602-0.6585 0.0847-1.434 0.006-2.1213 0.083-0.75605 0.0851-1.4574 0.40083-2.2136 0.49805-0.76959 0.0989-1.7884 0-2.5825 0h-2.0752c-0.32436 0-0.69369 0.0481-1.0146 0-0.36509-0.0548-0.73864-0.0772-1.1068-0.12452-0.18216-0.0234-0.29814-0.12409-0.46116-0.16601-0.20694-0.0532-0.47755-0.009-0.69174-0.0415-0.7851-0.11776-1.5721-0.21506-2.3519-0.33203-0.46553-0.0698-0.84787-0.38404-1.2912-0.49805-0.90403-0.23246-1.7796-0.59741-2.5825-1.0791-0.0413-0.0248-0.10752-0.005-0.13835-0.0415-0.23918-0.28702 0.56445-2.1366 0.73785-2.4487 0.0615-0.11068 0.0972-0.24035 0.18447-0.33203 0.0465-0.0488 0.13434-0.0379 0.18446-0.083 0.23716-0.21345 0.38367-0.56196 0.5995-0.78858 0.10233-0.10744 0.25236-0.15723 0.36893-0.24902 0.62872-0.49513 1.2872-0.91172 2.0291-1.1621 0.32526-0.10978 0.79212-0.46705 1.0607-0.53955 0.16379-0.0442 0.3425-0.001 0.50727-0.0415 0.72744-0.17855 1.442-0.40299 2.1674-0.58105 0.46534-0.11422 0.95944-0.11685 1.4296-0.20752 0.60775-0.11721 1.1927-0.22981 1.7985-0.33204 0.54419-0.0918 1.0747-0.17851 1.614-0.29053 0.21244-0.0441 0.4349-0.0313 0.64562-0.083 0.2905-0.0713 0.57717-0.18922 0.8762-0.24903 0.19924-0.0399 0.40695-0.018 0.5995-0.083 0.30399-0.10259 0.0607-0.0741 0.36892-0.12451 0.64827-0.10608 1.2888-0.0662 1.9369-0.12451 0.38593-0.0347 0.76552-0.12728 1.1529-0.16602 0.65364-0.0654 1.2919-0.11077 1.9369-0.20752 0.34709-0.0521 0.71162-0.007 1.0607-0.0415 0.57977-0.058 1.1338-0.17604 1.7063-0.29053 0.38312-0.0766 0.8108 0.0499 1.199 0 2.0022-0.25743 2.2805-0.10364 4.2426-0.20752z"
          transform="matrix(.83493 0 0 .83493 -460.76 -209.61)"
      />
      <path
          id="path8460-9-1"
          style="color:#000000;fill:#000000"
          inkscape:connector-curvature="0"
          d="m60.869 593.35c0.3898-0.48506 0.83753-0.91571 1.2786-1.353 0.10249-0.0869 0.21995-0.16577 0.35848-0.14086 0.15105 0.0312 0.29486 0.0878 0.43687 0.14668 0.13975 0.0413 0.25671 0.11249 0.37161 0.20034 0.13287 0.11392 0.21097 0.27479 0.30331 0.42041 0.11566 0.18296 0.18949 0.3845 0.26543 0.5854 0.0533 0.14918 0.12745 0.28842 0.20267 0.42727 0.0742 0.11989 0.0989 0.25939 0.13113 0.39436 0.0316 0.11118 0.0315 0.2357 0.10349 0.33043 0.0397 0.0464 0.0761 0.0928 0.10155 0.14972 0.0721 0.0755 0.0594 0.0735 0.107 0.009-0.066 0.0466 0.22671-0.22998 0.16964-0.17288-1.1359 1.1362-0.16342 0.10052 0.25753-0.22181 0.14481-0.1007 0.264-0.23373 0.42109-0.31616 0.13678-0.0473 0.28652-0.0534 0.4301-0.0467 0.14035-0.002 0.2769 0.0299 0.4147 0.0508 0.12959 0.029 0.24019 0.10365 0.36727 0.14235 0.15454 0.0443 0.29329 0.12335 0.43655 0.19417 0.14653 0.0853 0.28945 0.17498 0.42638 0.27486 0.16024 0.11029 0.32098 0.21712 0.49089 0.3118 0.12981 0.0546 0.23269 0.1389 0.33659 0.23105 0.0697 0.083 0.11845 0.17845 0.18476 0.26428 0.061 0.084 0.11061 0.17741 0.1808 0.25411 0.0392 0.0688 0.0946 0.12295 0.1448 0.18338 0.0553 0.0519 0.0695 0.12269 0.0962 0.18969-0.00069 0.0438 0.0155 0.0884 0.003 0.1315 0.00004 0.002-0.0165 0.0387-0.0195 0.0369-0.0316-0.0191-0.0292-0.0276-0.0338-0.0538-0.15747 0.15273-0.31496 0.30548-0.47244 0.45821 0.1109-0.15456 0.20974-0.31724 0.32422-0.46944 0.27689-0.32919 0.58553-0.63167 0.93565-0.88138 0.137-0.0913 0.28588-0.16005 0.43657-0.22466 0.0946-0.0504 0.19548-0.0732 0.30213-0.0691 0.15324-0.01 0.31132 0.008 0.46202 0.0391 0.15275 0.008 0.29983 0.0336 0.44762 0.0716 0.17678 0.0427 0.33195 0.12234 0.47554 0.2322 0.1589 0.11755 0.28271 0.26945 0.41688 0.41242 0.0786 0.11649 0.17467 0.21757 0.24656 0.33877 0.0762 0.11345 0.1232 0.24218 0.1846 0.3635 0.015 0.0813 0.072 0.15075 0.0792 0.23253 0.00021 0.0339-0.014 0.0337 0.0107 0.0559 0.0837-0.0437 0.16971-0.12423 0.24275-0.19122 0.28928-0.28285-0.17277 0.17727-0.26214 0.26286-0.0429 0.0411 0.0821-0.0858 0.12209-0.12969 0.11671-0.12802 0.2277-0.26143 0.34096-0.39249 0.29649-0.33942 0.57851-0.72334 0.96078-0.96837 0.14327-0.093 0.3077-0.14223 0.4628-0.21029 0.13317-0.0573 0.27655-0.0626 0.41897-0.0754 0.1644-0.01 0.32487 0.0151 0.48611 0.0428 0.2038 0.009 0.40499 0.0335 0.60653 0.0633 0.20851 0.0278 0.38473 0.14587 0.56535 0.24449 0.16774 0.11472 0.34192 0.23064 0.47651 0.38459 0.17347 0.1971 0.31862 0.41112 0.52018 0.58269 0.22078 0.21958 0.48206 0.3895 0.74106 0.55951 0.12084 0.0823 0.2453 0.16128 0.37475 0.22952 0.006 0.002 0.0163 0.0135 0.0169 0.008 0.0231-0.22656-0.34684 0.29522-0.5185 0.44487-0.0251 0.0218 0.0387-0.0539 0.057-0.0815 0.0331-0.0502 0.10236-0.16456 0.13216-0.21334 0.18447-0.29972 0.41045-0.56904 0.65194-0.82378 0.36063-0.3605 0.70771-0.73926 1.1095-1.0553 0.14317-0.11579 0.31769-0.17426 0.49124-0.22717 0.17655-0.0444 0.34751-0.10655 0.52374-0.15219 0.12986-0.0452 0.26079-0.0793 0.39401-0.10973 0.15392-0.009 0.31478 0.0255 0.46437 0.0625 0.28233 0.12826 0.53835 0.29739 0.77936 0.49101 0.24327 0.21309 0.48199 0.43124 0.71137 0.65917 0.0827 0.0683 0.15771 0.14927 0.22273 0.23249 0.01 0.0371 0.008-0.0297 0.004-0.0373-1.0053 1.1528-0.37886 0.27291-0.16931-0.0159 0.21207-0.29296 0.44294-0.57041 0.69051-0.83378 0.35874-0.40496 0.74968-0.76717 1.1821-1.0876 0.17601-0.13454 0.36528-0.2495 0.5688-0.33679 0.17984-0.0742 0.37263-0.10405 0.56515-0.12149 0.21309-0.0228 0.42216 0.004 0.629 0.0539 0.21169 0.0622 0.42132 0.13209 0.62323 0.22112 0.14344 0.0679 0.23767 0.19248 0.31948 0.32368 0.11176 0.15351 0.22441 0.3104 0.36381 0.44031 0.0657 0.11096 0.19699 0.17246 0.26694 0.2771 0.0106 0.005 0.0168 0.0159 0.0251 0.0239 0.0592 0.0413 0.13907 0.044 0.19929 0.0784 0.0361 0.0136 0.0655 0.0366 0.0989 0.058 0.0756 0.0291 0.13268 0.0627 0.17861-0.0291-0.14793 0.14295-0.28625 0.2966-0.4438 0.42887-0.0503 0.0422 0.0392-0.12582 0.0497-0.19067 0.0256-0.15924 0.0536-0.31727 0.084-0.47576 0.0714-0.35463 0.16313-0.70551 0.31393-1.035 0.24109-0.38455 0.58178-0.7132 0.98524-0.92154 0.17173-0.0797 0.34869-0.14708 0.5364-0.17521 0.1684-0.0266 0.33836-0.0379 0.50786-0.057 0.19867-0.0215 0.39109-0.0738 0.5855-0.11682 0.0944-0.0226 0.18219-0.0643 0.27642-0.086 0.11895-0.009 0.2313 0.0149 0.3442 0.0494 0.14836 0.0409 0.29644 0.1048 0.4277 0.18624 0.10271 0.0554 0.2085 0.093 0.32189 0.11929 0.0672 0.0225 0.11459 0.0814 0.15841 0.13497 0.0662 0.0233 0.12911 0.0583 0.19456 0.0786 0.0221 0.0142 0.0155 0.0115 0.036 0.0357-0.0276-0.21697 0.69809-0.59393-0.46182 0.3914-0.026 0.0221 0.0373-0.0573 0.054-0.0871 0.0514-0.0919 0.0561-0.11321 0.0958-0.21246 0.0855-0.27035 0.15818-0.54397 0.26243-0.80793 0.2123-0.4315 0.57338-0.79262 0.95771-1.0738 0.14277-0.0987 0.29239-0.18043 0.45518-0.24003 0.16084-0.0557 0.32882-0.0747 0.49789-0.0805 0.1282 0.018 0.25745 0.01 0.38582 0.0194-0.009 0.0761-0.13977 0.21395-0.19007 0.27496 0 0-0.0276 0.0308-0.0276 0.0308-0.0571 0.0593-0.18669 0.22845-0.2797 0.25524-0.10852-0.0357-0.21102-0.0756-0.32946-0.0596-0.16497 0.008-0.32907 0.0357-0.48272 0.0984-0.15798 0.068-0.30638 0.15546-0.44471 0.25777-0.2296 0.18553-0.12705 0.10799 0.31188-0.33425 0.16119-0.16241-0.50044 0.51191-0.30014 0.41379-0.10517 0.26007-0.17116 0.53234-0.25451 0.79953-0.10613 0.30694-0.41354 1.0744-0.77402 0.86636-0.008-0.002-0.0177 0.00021-0.0251-0.004-0.0617-0.0343-0.10377-0.0878-0.1577-0.13451-0.0564-0.0308-0.095-0.0807-0.14916-0.11385-0.0988-0.0535-0.19863-0.1046-0.29697-0.15862-0.13788-0.0609-0.26748-0.13986-0.41403-0.1804-0.10757-0.0258-0.22031-0.0472-0.33033-0.0228-0.0767 0.007-0.15231 0.017-0.22785 0.0334-0.19583 0.0497-0.39433 0.0922-0.59486 0.11755-0.17006 0.021-0.34057 0.0372-0.50949 0.0655-0.18524 0.0427-0.36638 0.10141-0.53104 0.19886-0.0953 0.0556-0.11164 0.062-0.20163 0.12703-0.0315 0.0228-0.11835 0.10009-0.0924 0.0711 0.65495-0.73151 0.31069-0.32412 0.18598-0.15316-0.15958 0.32081-0.24137 0.67176-0.32102 1.0196-0.016 0.0833-0.056 0.61094-0.0917 0.65484-0.15429 0.19003-0.33152 0.36022-0.49728 0.54032-0.0796 0.0408-0.17683 0.0276-0.26232 0.008-0.0427-0.009-0.0842-0.0156-0.12438-0.0287-0.0711-0.0151-0.13669-0.0637-0.21231-0.071-0.0325-0.0179-0.0336-0.009-0.0495-0.0448-0.0978-0.0786-0.14843-0.21394-0.25573-0.28594-0.1261-0.14846-0.26468-0.28655-0.37223-0.44956-0.0833-0.11259-0.16405-0.22868-0.28305-0.30721-0.18139-0.10796-0.37462-0.19076-0.58032-0.24073-0.20372-0.0415-0.40889-0.0579-0.61635-0.0342-0.18529 0.0209-0.36921 0.0547-0.54166 0.12874-0.19648 0.0946-0.38111 0.2103-0.55461 0.34253-0.11286 0.0842-0.2246 0.16818-0.33025 0.26155-0.0396 0.035-0.15318 0.14533-0.11678 0.10707 0.0283-0.0297 0.6184-0.62305 0.24929-0.25186-0.23047 0.25174-0.45174 0.51073-0.64743 0.79093-0.30469 0.41766-0.46472 0.81479-0.94177 1.1328-0.0491-0.005-0.0692-0.007-0.0961-0.0501-0.0564-0.0867-0.12056-0.17317-0.1773-0.26208-0.20308-0.24675-0.43689-0.46758-0.68466-0.66904-0.23489-0.18549-0.48395-0.36644-0.77072-0.4617-0.13486-0.0588-0.26339-0.0995-0.41158-0.0671-0.12513 0.0154-0.24524 0.0643-0.3685 0.09-0.17084 0.0546-0.34403 0.0993-0.51645 0.14831-0.16948 0.064-0.33951 0.12359-0.47702 0.24766-0.0947 0.0781-0.18786 0.15675-0.27796 0.24023-0.0377 0.035-0.14809 0.14286-0.11246 0.10573 0.007-0.007 0.60932-0.61529 0.2434-0.24591-0.22987 0.24005-0.4489 0.49115-0.61761 0.77916-0.17472 0.28779-0.47962 1.0145-0.82085 0.8511-0.094-0.10581-0.20677-0.19571-0.32142-0.27765-0.25724-0.17908-0.51881-0.35545-0.7508-0.56701-0.17802-0.19285-0.37062-0.37672-0.51359-0.59817-0.12937-0.15001-0.25033-0.30494-0.42548-0.40624-0.16658-0.10925-0.33733-0.21064-0.53872-0.23796-0.19994-0.0367-0.40563-0.0225-0.60512-0.0634-0.15956-0.0204-0.31948-0.0473-0.48037-0.0286-0.14062 0.006-0.28022 0.0305-0.40751 0.0926-0.15711 0.0538-0.30748 0.12527-0.44704 0.21547-0.22789 0.17769-0.0956 0.0806 0.29007-0.31664 0.0272-0.0281-0.0563 0.0543-0.0832 0.0825-0.0928 0.0972-0.17408 0.20411-0.26115 0.30626-0.35679 0.41969-0.71798 0.83395-1.1324 1.2004-0.0932 0.0777-0.20326 0.20005-0.33572 0.16022-0.0267-0.0142-0.0684-0.0241-0.0885-0.0533-0.0437-0.0652-0.0336-0.15752-0.0793-0.2241-0.0402-0.12803-0.10946-0.24547-0.15992-0.36971-0.0723-0.11651-0.14536-0.23224-0.2298-0.34043-0.10858-0.15523-0.24323-0.29481-0.3834-0.42072-0.1347-0.10036-0.27672-0.18755-0.44224-0.22672-0.14124-0.0373-0.28548-0.0558-0.42964-0.0794-0.15094-0.0112-0.30053-0.0387-0.45211-0.0281-0.0968 0.0177-0.19169 0.0361-0.28084 0.0796-0.14566 0.0653-0.29004 0.13453-0.42048 0.22762-0.0726 0.0534-0.0979 0.0709-0.16816 0.12785-0.0262 0.0212-0.10064 0.0894-0.0774 0.065 0.73351-0.7718 0.43506-0.44887 0.27952-0.27336-0.11333 0.14479-0.21064 0.29977-0.30664 0.45636-1.0946 1.1168-0.26769 0.56632-0.66419 0.53658-0.024-0.0291-0.0334-0.0659-0.0397-0.10561 0.002-0.0642-0.0271-0.11042-0.0624-0.16246-0.0473-0.064-0.10671-0.11587-0.15223-0.1814-0.0513-0.0914-0.12325-0.16948-0.18201-0.25622-0.0536-0.0895-0.10649-0.17743-0.17269-0.25743-0.0793-0.10383-0.17881-0.18008-0.29898-0.23282-0.17018-0.0976-0.33837-0.20005-0.49593-0.31727-0.13847-0.0904-0.27007-0.19213-0.41607-0.27072-0.13729-0.0751-0.27995-0.14012-0.4301-0.18518-0.11676-0.0495-0.23248-0.10663-0.35624-0.13556-0.13145-0.0325-0.2676-0.0383-0.40247-0.0413-0.13453 0.004-0.27423 0.00084-0.3933 0.074-0.14738 0.10386-0.27878 0.22835-0.42356 0.33579-0.0291 0.0235-0.11291 0.0978-0.0871 0.0707 0.1634-0.17202 0.6706-0.6715 0.5006-0.50599-0.26892 0.26181-0.55015 0.59647-0.86248 0.83875-0.0912 0.0231-0.13843-0.0389-0.19981-0.0987-0.0418-0.0443-0.0704-0.0947-0.1152-0.13673-0.066-0.11205-0.10092-0.22998-0.11995-0.35919-0.0251-0.13002-0.0604-0.25797-0.11069-0.38061-0.0765-0.14547-0.1631-0.2851-0.19966-0.44793-0.0644-0.19979-0.13169-0.40265-0.24576-0.58024-0.0817-0.14321-0.1605-0.2927-0.274-0.41358-0.0941-0.096-0.20231-0.16246-0.3315-0.20276-0.13548-0.0521-0.27183-0.11034-0.41652-0.13037-0.11782 0.0149-0.20732 0.0786-0.29357 0.15988 1.0534-1.0593-0.0522 0.0378-0.22508 0.28979l-0.60515 0.44905z"
      />
      <path
          id="path8462-3-66"
          style="color:#000000;fill:#000000"
          inkscape:connector-curvature="0"
          d="m61.74 592.8c0.181 0.53181 0.42723 1.0384 0.6469 1.5549 0.22579 0.481 0.38138 0.98987 0.5368 1.4967 0.17412 0.50695 0.31987 1.0214 0.44488 1.5424 0.15163 0.59759 0.28869 1.1986 0.45359 1.7928 0.15822 0.58233 0.34102 1.1574 0.5101 1.7366 0.16641 0.53111 0.25818 1.08 0.31092 1.6329 0.0346 0.49966 0.11665 0.99221 0.22372 1.4808 0.11657 0.53251 0.30211 1.0464 0.49645 1.5546 0.16674 0.44576 0.35287 0.88366 0.5341 1.3235 0.13064 0.33504 0.24319 0.67669 0.36297 1.0157 0.17902 0.44405 0.33299 0.89733 0.49534 1.3477 0.12376 0.35705 0.2384 0.71858 0.4133 1.0545 0.0764 0.15272 0.15082 0.30694 0.23478 0.45569 0.17356 0.2295-0.0538 0.3587-0.19207 0.55366l-0.0271 0.0312c-0.1807 0.1357-0.37612 0.40336-0.53749 0.13742-0.0981-0.14683-0.15528-0.3108-0.24164-0.46432-0.15541-0.35085-0.29962-0.70546-0.41008-1.0736-0.15141-0.45421-0.32102-0.90102-0.49295-1.3478-0.12569-0.33532-0.2363-0.67578-0.36339-1.0105-0.17541-0.44474-0.35884-0.88633-0.52615-1.3342-0.18923-0.51483-0.386-1.0282-0.50684-1.5648-0.1092-0.49345-0.18871-0.99246-0.22348-1.4971-0.0552-0.55098-0.12818-1.0978-0.28634-1.6308-0.16111-0.5846-0.34051-1.1641-0.49806-1.7497-0.1529-0.60204-0.3095-1.2033-0.43603-1.8116-0.12453-0.51943-0.27077-1.0319-0.44061-1.5385-0.15533-0.51001-0.30041-1.0231-0.49932-1.5185-0.21612-0.52488-0.44456-1.045-0.62501-1.5838l0.64277-0.58596z"
      />
      <path
          id="path8464-6-8"
          style="color:#000000;fill:#000000"
          inkscape:connector-curvature="0"
          d="m67.206 610.97c0.38828 0.28635 0.79212 0.55212 1.2204 0.77467 0.27426 0.13558 0.54528 0.27864 0.82845 0.39503 0.25091 0.1113 0.50563 0.21369 0.76598 0.30124 0.3191 0.0999 0.6394 0.19452 0.96391 0.27508 0.40737 0.0999 0.82447 0.14141 1.2404 0.18598 0.46303 0.0484 0.9241 0.1126 1.3854 0.17522 0.36542 0.0506 0.73212 0.095 1.1003 0.11947 0.27393 0.0246 0.54915 0.0198 0.8237 0.0317 0.2948 0.0105 0.58987 0.0199 0.88446 0.0352 0.30922 0.009 0.61786 0.0301 0.92731 0.0327 0.27334 0.0101 0.54688 0.006 0.82033 0.008 0.31025 0.0007 0.61995-0.0159 0.92977-0.0308 0.33237-0.0254 0.66506-0.0498 0.9966-0.0843 0.28054-0.031 0.55898-0.0782 0.83897-0.11262 0.27992-0.0455 0.55891-0.0964 0.83877-0.14229 0.23591-0.038 0.47104-0.0801 0.70395-0.13353 0.20156-0.0334 0.40139-0.0739 0.59917-0.12503 0.18972-0.0467 0.37745-0.0993 0.5639-0.15762 0.2338-0.0826 0.47157-0.15299 0.70992-0.22103 0.22688-0.0784 0.46009-0.13554 0.69238-0.1951 0.23651-0.0716 0.47885-0.12175 0.71824-0.18264 0.25574-0.0706 0.5088-0.15003 0.75671-0.24462 0.26243-0.10991 0.52547-0.21745 0.78304-0.3385 0.28949-0.15479 0.5928-0.27997 0.89648-0.40334 0.24214-0.086 0.47719-0.18792 0.70793-0.30046 0.14855-0.0853 0.29812-0.1685 0.45468-0.23822 0.1748-0.0722 0.35212-0.13795 0.52727-0.20928 0.15708-0.0628 0.319-0.11268 0.47598-0.17558 0.31845-0.149 0.18188-0.0221-0.008 0.2327-0.0166 0.0256-0.0332 0.0513-0.0498 0.0769 0 0-0.0245 0.0334-0.0245 0.0334-0.0357 0.0426-0.0713 0.0852-0.10696 0.12779-0.17287 0.2042-0.29706 0.39451-0.55658 0.46951-0.15913 0.0574-0.31772 0.11646-0.47554 0.17736-0.17577 0.0671-0.35062 0.13709-0.52201 0.21484-0.15211 0.0752-0.29605 0.1655-0.45065 0.23545-0.23271 0.11196-0.47614 0.19802-0.71456 0.29672-0.3011 0.12391-0.59867 0.25606-0.8892 0.4033-0.26239 0.12115-0.5283 0.23519-0.79712 0.34121-0.25228 0.0923-0.50893 0.17243-0.76936 0.23862-0.24043 0.0589-0.48252 0.11181-0.71909 0.18542-0.23052 0.0605-0.46009 0.12309-0.68725 0.19549-0.23795 0.0734-0.47599 0.14632-0.712 0.22581-0.18803 0.0576-0.37822 0.10758-0.56946 0.15344-0.19943 0.0473-0.40139 0.0805-0.60205 0.12185-0.23352 0.0448-0.4681 0.0833-0.70245 0.12362-0.27995 0.0475-0.55971 0.0962-0.84041 0.13907-0.2785 0.043-0.5587 0.078-0.83915 0.10539-0.33219 0.0308-0.66439 0.0616-0.99774 0.0775-0.31187 0.0186-0.62412 0.0352-0.93664 0.0286-0.27495 0.00084-0.5498-0.004-0.82473-0.008-0.30672-0.0151-0.61362-0.0265-0.9203-0.0428-0.29541-0.008-0.59065-0.0192-0.88589-0.0317-0.27687-0.004-0.55345-0.0113-0.82947-0.0358-0.36586-0.0403-0.73261-0.0744-1.096-0.13455-0.45865-0.0708-0.91906-0.12779-1.3808-0.17459-0.41984-0.0489-0.84264-0.0882-1.2526-0.1962-0.32688-0.0835-0.65116-0.17845-0.97229-0.28182-0.2599-0.0954-0.51444-0.20378-0.76905-0.31207-0.27644-0.13358-0.5511-0.27075-0.82151-0.41617-0.42122-0.24277-0.82461-0.51135-1.223-0.78993 0 0 0.79158-0.81995 0.79158-0.81995z"
      />
      <path
          id="path8466-1-6"
          style="color:#000000;fill:#000000"
          inkscape:connector-curvature="0"
          d="m95.732 591.07c-0.01 0.7226-0.14957 1.433-0.33897 2.1276-0.20023 0.66441-0.4855 1.2983-0.74109 1.9424-0.22586 0.53903-0.4323 1.0861-0.61403 1.6415-0.19848 0.59265-0.37804 1.1912-0.53641 1.7958-0.17143 0.65331-0.32479 1.3106-0.51317 1.9594-0.17912 0.57054-0.37084 1.1368-0.54704 1.7083-0.17323 0.5838-0.32984 1.1724-0.47229 1.7644-0.0802 0.37824-0.17612 0.7524-0.28187 1.1242-0.0992 0.35137-0.17816 0.708-0.26662 1.0622-0.0963 0.36838-0.20264 0.73398-0.30792 1.0998-0.068 0.2616-0.14122 0.52171-0.22502 0.77871-0.0561 0.18947-0.12232 0.3756-0.18781 0.56196-0.0615 0.16565-0.12109 0.33206-0.17805 0.49934-0.0492 0.12695-0.0716 0.26067-0.0953 0.39402-0.0356 0.35916-0.13322 0.47018-0.39359 0.74219-0.0392 0.0458-0.0785 0.0916-0.11773 0.13738l-0.032 0.0263c-0.0332 0.0139-0.0665 0.0279-0.0996 0.0418-0.40002 0.23634-0.27129 0.0927-0.25716-0.20142 0.016-0.13733 0.0379-0.27481 0.0771-0.40762 0.0586-0.16624 0.11615-0.33271 0.17447-0.49908 0.0709-0.18633 0.14003-0.37345 0.1983-0.56419 0.0817-0.25955 0.16782-0.51793 0.23471-0.78185 0.10513-0.36872 0.22459-0.73328 0.31979-1.1049 0.0911-0.35475 0.17335-0.71163 0.26614-1.066 0.10662-0.37637 0.21635-0.75165 0.30025-1.134 0.15024-0.59363 0.29842-1.1881 0.47544-1.7745 0.17143-0.57647 0.36861-1.1446 0.55659-1.7158 0.2036-0.65144 0.36602-1.3137 0.53669-1.9744 0.16847-0.60448 0.34002-1.208 0.53683-1.804 0.18856-0.55673 0.3884-1.1095 0.61554-1.6518 0.27153-0.64424 0.55431-1.2856 0.77125-1.9509 0.19784-0.69045 0.36695-1.3945 0.3703-2.1174l0.77224-0.65955z"
      />
      <path
          id="path8468-5-5"
          style="color:#000000;fill:#000000"
          inkscape:connector-curvature="0"
          d="m64.907 594.74c0.19795 0.89863 0.39623 1.797 0.57575 2.6996 0.24437 1.3343 0.45625 2.6742 0.65513 4.0159 0.2262 1.5559 0.40737 3.1178 0.59473 4.6786 0.15308 1.3714 0.29236 2.744 0.48218 4.111 0.0639 0.6376 0.18017 1.2772 0.19871 1.9191 0.0151 0.5229-0.0556 0.19233 0.055 0.58179l-0.0307 0.0277c-0.13144-0.46255 0.0345 0.0248-0.21946-0.43512-0.28005-0.5072-0.35581-1.1193-0.48121-1.6738-0.1946-1.3612-0.31938-2.7313-0.50372-4.0939-0.18391-1.5559-0.38146-3.1102-0.61342-4.6598-0.19567-1.339-0.40555-2.676-0.66327-4.0047-0.16699-0.90422-0.34823-1.8055-0.57879-2.6958l0.52909-0.47058z"
      />
      <path
          id="path8470-6-3"
          style="color:#000000;fill:#000000"
          inkscape:connector-curvature="0"
          d="m68.478 596.75c0.40622 0.99122 0.64632 2.0409 0.8619 3.0871 0.32546 1.6719 0.36469 3.3786 0.38377 5.0761 0.006 1.6911-0.008 3.3837-0.0887 5.0731-0.0998 0.87704-0.0492 0.45007-0.15127 1.281l-0.0314 0.027c-0.15734-0.62028-0.0873-0.29465-0.20384-0.97818-0.0706-1.6677 0.0419-3.3371 0.0118-5.0059-0.0332-1.6857-0.0797-3.3801-0.40715-5.0396-0.22273-1.0346-0.48083-2.0629-0.88857-3.0426l0.51342-0.478z"
      />
      <path
          id="path8472-6-1"
          style="color:#000000;fill:#000000"
          inkscape:connector-curvature="0"
          d="m72.865 595.66c0.116 1.0749 0.1328 2.1566 0.15344 3.2365 0.0378 1.863-0.0825 3.721-0.26444 5.5736-0.21182 1.9258-0.50587 3.841-0.7587 5.7615-0.10424 0.63727-0.11267 1.2873-0.21585 1.9246-0.00028 0.002-0.20282 0.97751-0.21279 1.0255l-0.0314 0.027c-0.0843-0.22023-0.18093-0.43483-0.20467-0.67403-0.0616-0.62094 0.0978-1.2493 0.13758-1.8645 0.2481-1.92 0.55124-3.833 0.7584-5.7583 0.17839-1.8511 0.30046-3.707 0.26963-5.5681-0.008-1.0719-0.01-2.1507-0.16443-3.2136l0.53326-0.47016z"
      />
      <path
          id="path8474-7-9"
          style="color:#000000;fill:#000000"
          inkscape:connector-curvature="0"
          d="m78.238 596.98c-0.0301 1.1216-0.12212 2.2397-0.22592 3.3565-0.18472 2.0839-0.41727 4.1625-0.6898 6.2366-0.24101 1.6172-0.40388 3.2485-0.81643 4.8334l-0.0318 0.0266c-0.11064-1.5175 0.289-3.0148 0.43721-4.5181 0.2685-2.0624 0.49827-4.1297 0.65479-6.2039 0.0797-1.1039 0.17532-2.2087 0.18423-3.316l0.48772-0.41506z"
      />
      <path
          id="path8476-5-4"
          style="color:#000000;fill:#000000"
          inkscape:connector-curvature="0"
          d="m83.826 595.8c0.0503 1.2224-0.0998 2.4421-0.24 3.6539-0.27627 2.3221-0.63845 4.6328-0.98532 6.9451-0.23614 1.1814-0.25288 2.4057-0.50854 3.5835-0.0575 0.26524-0.25201 0.86293-0.34173 1.1467l-0.0318 0.0266c-0.0488-0.23506-0.11964-0.52911-0.11678-0.76509 0.003-0.22414 0.0391-0.44666 0.0648-0.66933 0.11163-0.96646 0.27548-1.926 0.41121-2.8891 0.35133-2.3019 0.69658-4.6054 0.9589-6.9195 0.12431-1.189 0.25163-2.386 0.17805-3.583l0.61121-0.52975z"
      />
      <path
          id="path8478-3-4"
          style="color:#000000;fill:#000000"
          inkscape:connector-curvature="0"
          d="m88.693 595.47c-0.28516 1.0486-0.53014 2.1075-0.77539 3.1661-0.41462 1.841-0.75972 3.6959-1.1848 5.5348-0.34985 1.4333-0.67983 2.8754-1.1304 4.2818-0.44097 1.2678-0.24185 0.65728-0.60322 1.8295l-0.0322 0.026c0.51624-2.0872-0.12719 0.56833 0.36125-1.6335 0.3113-1.4033 0.72436-2.7828 1.0203-4.1898 0.39439-1.8418 0.76186-3.6892 1.1747-5.527 0.24142-1.0659 0.49593-2.1301 0.79191-3.1822l0.37787-0.30565z"
      />
      <path
          id="path8480-1-3"
          style="color:#000000;fill:#000000"
          inkscape:connector-curvature="0"
          d="m92.942 593.13c-0.58163 1.3299-1.0696 2.698-1.5441 4.0689-0.79621 2.3638-1.6144 4.72-2.4424 7.0729-0.71457 1.8459-1.2289 3.7696-1.9698 5.6056-0.11821 0.29294-0.25622 0.57747-0.38433 0.8662-0.12158 0.24921-0.24315 0.49842-0.36472 0.74762l-0.0324 0.0258c0.0297-0.17597 0.0595-0.35194 0.0892-0.52791 0.50283-2.1368 1.4186-4.1578 2.0746-6.249 0.82767-2.3468 1.6277-4.7029 2.4264-7.0597 0.47087-1.3509 0.93713-2.7046 1.4829-4.0277l0.66461-0.52273z"
      />
      <path
          id="path8482-5-5"
          style="color:#000000;fill:#000000"
          inkscape:connector-curvature="0"
          d="m95.343 591.56c-0.0529-0.51706-0.14946-1.0277-0.25445-1.5363-0.0935-0.44864-0.20473-0.89324-0.31004-1.3392-0.10153-0.48048-0.19302-0.9631-0.31046-1.4401-0.11856-0.49265-0.28971-0.97056-0.49577-1.4329-0.17092-0.41574-0.3726-0.81707-0.58752-1.2115-0.15588-0.31015-0.32559-0.61426-0.51959-0.90218-0.18511-0.29006-0.36967-0.5806-0.54718-0.87538-0.20211-0.33204-0.42296-0.65205-0.64389-0.9717-0.21283-0.31992-0.43408-0.63401-0.65317-0.94968-0.1851-0.2901-0.3889-0.56692-0.59605-0.84148-0.19118-0.25472-0.4012-0.49431-0.60513-0.73869-0.16072-0.17811-0.33322-0.34608-0.5105-0.50767-0.13073-0.14008-0.27532-0.26343-0.42554-0.38163-0.18096-0.1455-0.35671-0.29523-0.546-0.43001-0.22122-0.15202-0.46521-0.26485-0.70667-0.37999-0.30822-0.14364-0.61615-0.28792-0.92502-0.43014-0.2961-0.13708-0.59709-0.26281-0.89814-0.38855-0.21977-0.0918-0.43711-0.18899-0.67046-0.24024-0.2556-0.0465-0.51242-0.0842-0.76646-0.13905-0.28886-0.0614-0.57922-0.11223-0.87114-0.15705-0.28933-0.0386-0.57997-0.0667-0.86987-0.10078-0.2098-0.0178-0.41834-0.0456-0.62864-0.0569-0.21183-0.0162-0.42478-0.0216-0.6372-0.0207-0.23801-0.00084-0.47595-0.003-0.71396-0.003-0.28156-0.002-0.56298-0.005-0.84302 0.0276-0.27039 0.0434-0.54321 0.068-0.81393 0.10836-0.32685 0.0435-0.65151 0.10318-0.97707 0.15587-0.33697 0.0453-0.67362 0.0921-1.0099 0.1421-0.358 0.0575-0.71227 0.13518-1.067 0.20947-0.30554 0.063-0.59802 0.17319-0.89845 0.25513-0.28976 0.0855-0.57918 0.17055-0.87345 0.23933-0.31536 0.0693-0.63117 0.13638-0.94736 0.20181-0.34016 0.0529-0.67 0.14768-0.99515 0.25866-0.31116 0.0995-0.61967 0.20466-0.92256 0.32702-0.26367 0.11557-0.51554 0.25549-0.76582 0.39716-0.2579 0.1522-0.52107 0.29491-0.77437 0.45482-0.24984 0.15962-0.49575 0.32417-0.73355 0.50115-0.24122 0.18336-0.4978 0.34459-0.74647 0.51717-0.24733 0.16656-0.49149 0.33786-0.73662 0.50767-0.21826 0.14333-0.42696 0.30019-0.64046 0.45039-0.22777 0.1548-0.4547 0.31043-0.67808 0.47158-0.24597 0.18603-0.49439 0.36861-0.73793 0.55786-0.22809 0.19649-0.45429 0.39518-0.67517 0.59976-0.40605 0.42001 0.13787-0.14399 0.69054-0.68398 0.0329-0.0322-0.0615 0.0685-0.0907 0.10402-0.0833 0.10096-0.16019 0.20796-0.23749 0.31353-0.15159 0.20011-0.25437 0.42948-0.37318 0.64897-0.11233 0.21317-0.23938 0.41787-0.37563 0.61646-0.13142 0.1802-0.23861 0.37632-0.34779 0.57035-0.11436 0.21472-0.25762 0.41055-0.40114 0.60614-0.1503 0.21575-0.30028 0.43156-0.4536 0.64524-0.19674 0.25069-0.33676 0.53619-0.46856 0.82439-0.13847 0.30624-0.24769 0.62428-0.35653 0.94188-0.062 0.19532-0.14072 0.38461-0.20452 0.57923-0.0675 0.20879-0.10837 0.42485-0.15427 0.63907-0.0379 0.21618-0.0853 0.43048-0.13212 0.64484-0.04 0.17678-0.0763 0.35422-0.10778 0.53268-0.028 0.14504-0.0326 0.29318-0.0484 0.43978-0.0134 0.15842-0.0385 0.31549-0.058 0.47325-0.0246 0.1365-0.0298 0.27508-0.041 0.41291-0.003 0.13896 0.002 0.27806-0.003 0.41697 0.009 0.11832 0.004 0.23803 0.0189 0.35578 0.017 0.11547 0.0445 0.22896 0.0492 0.34595 0.004 0.0722-0.0125 0.14345-0.0177 0.21542 0.0125 0.21829 0.10466 0.42782 0.17808 0.63187 0.10892 0.33669 0.29718 0.65056 0.35899 1.0004 0.0277 0.21028-0.12197 0.36605-0.1745 0.5627l-0.0298 0.0286c-0.20941 0.0198-0.30314 0.15758-0.47907 0.0543-0.27036-0.22276-0.33221-0.594-0.49014-0.89393-0.0928-0.20215-0.19904-0.39866-0.25096-0.61643-0.0111-0.0534-0.0291-0.10204-0.0421-0.15431-0.0239-0.10963-0.0354-0.22191-0.0653-0.33035-0.0165-0.12218-0.0205-0.2455-0.0294-0.36841-0.004-0.14053 0.00021-0.28148 0.002-0.422-0.003-0.13894 0.008-0.27773 0.0236-0.4157 0.0226-0.15708 0.0448-0.3145 0.0647-0.47176 0.0105-0.14746 0.0242-0.29456 0.0361-0.44189 0.0282-0.18274 0.0766-0.36208 0.11047-0.54382 0.0478-0.2141 0.0972-0.42786 0.13634-0.64373 0.0371-0.21874 0.0878-0.4345 0.14083-0.64989 0.066-0.19516 0.13211-0.38976 0.20544-0.58251 0.11444-0.32026 0.22003-0.64399 0.35644-0.95587 0.12795-0.28873 0.25064-0.58327 0.44242-0.8371 0.1542-0.2115 0.3074-0.42328 0.45002-0.64286 0.13948-0.19396 0.29418-0.3781 0.40481-0.59129 0.1133-0.19487 0.21831-0.39478 0.34219-0.58337 0.14589-0.192 0.27391-0.39562 0.39006-0.60692 0.12091-0.22 0.22093-0.45206 0.36244-0.66004 0.40128-0.58131 0.89716-1.0778 1.4293-1.5475 0.22335-0.20328 0.44895-0.40448 0.68424-0.59394 0.24428-0.18872 0.49313-0.3714 0.74147-0.55472 0.22378-0.15988 0.45099-0.31462 0.67743-0.47068 0.21155-0.15466 0.42579-0.30539 0.64361-0.45113 0.24616-0.17089 0.49226-0.34181 0.74001-0.51035 0.25112-0.16772 0.50075-0.33759 0.74238-0.51888 0.24197-0.1736 0.49043-0.33798 0.74273-0.49619 0.25824-0.15468 0.52034-0.30281 0.78061-0.45404 0.25422-0.14016 0.51077-0.27861 0.7802-0.38757 0.30521-0.11827 0.6164-0.21862 0.92747-0.32025 0.33152-0.1026 0.66454-0.19647 1.0078-0.25214 0.31442-0.0673 0.62979-0.13026 0.94311-0.20252 0.2934-0.0727 0.58154-0.16431 0.87253-0.24592 0.30062-0.0868 0.59773-0.18709 0.90501-0.24907 0.35538-0.0735 0.71089-0.14727 1.0697-0.20212 0.33726-0.054 0.67697-0.0906 1.0138-0.14765 0.3269-0.0508 0.65199-0.11211 0.98017-0.15446 0.27301-0.0318 0.54411-0.0772 0.81767-0.10448 0.28375-0.019 0.56709-0.0234 0.85152-0.0193 0.24007-0.00083 0.48012-0.003 0.72019-0.002 0.2161 0.005 0.43233 0.005 0.64805 0.0225 0.20844 0.0228 0.41825 0.0337 0.62563 0.0668 0.29037 0.0319 0.58074 0.0642 0.86974 0.10684 0.29448 0.0398 0.58605 0.0954 0.87608 0.15979 0.26001 0.0418 0.51956 0.0873 0.77804 0.13726 0.23601 0.0645 0.46157 0.15714 0.68513 0.2561 0.29859 0.13225 0.59955 0.25922 0.89582 0.39664 0.30836 0.14491 0.62075 0.28104 0.92894 0.42634 0.25046 0.11488 0.49774 0.23679 0.72499 0.39405 0.1927 0.13381 0.36614 0.29276 0.55272 0.43496 0.151 0.12323 0.29153 0.25837 0.43176 0.39356 0.16894 0.17675 0.3524 0.34048 0.50482 0.53277 0.20344 0.24815 0.40923 0.4945 0.59994 0.75274 0.2059 0.27924 0.39869 0.56724 0.58684 0.85867 0.21097 0.32159 0.43235 0.63609 0.64545 0.9562 0.21835 0.32386 0.44554 0.64202 0.65094 0.97446 0.17847 0.29381 0.34856 0.59279 0.54099 0.87802 0.17989 0.30437 0.3595 0.60778 0.50734 0.92985 0.19289 0.41231 0.39206 0.82183 0.56687 1.2424 0.18799 0.47825 0.38227 0.95567 0.49653 1.4585 0.10736 0.48118 0.2018 0.96487 0.3045 1.4469 0.0954 0.44946 0.21413 0.89344 0.30932 1.343 0.10168 0.51066 0.17849 1.0258 0.26314 1.5395l-0.86758 0.76055z"
      />
      <path
          id="path8484-5-9"
          style="color:#000000;fill:#d3c598"
          inkscape:connector-curvature="0"
          d="m65.949 606.86c-0.0524-0.16981-0.2917-0.854-0.53183-1.5204-0.24012-0.66642-0.52329-1.7921-0.62925-2.5015-0.21149-1.416-0.82619-3.7562-1.9899-7.5757-0.41733-1.3698-0.71775-2.5315-0.66761-2.5817 0.22898-0.22898 0.7166 0.36934 1.1244 1.3796 0.26242 0.65015 0.56409 1.1277 0.73309 1.1605 0.15794 0.0306 0.33382 0.26356 0.39084 0.51755 0.057 0.25399 0.16999 0.73352 0.25104 1.0656 0.43169 1.7688 1.6472 10.132 1.4947 10.285-0.0441 0.0441-0.12307-0.0587-0.17546-0.22854z"
      />
      <path
          id="path8486-5-0"
          style="color:#000000;fill:#dee1b9"
          inkscape:connector-curvature="0"
          d="m69.869 612.27c-1.6306-0.60625-2.2304-1.0439-2.4505-1.7881-0.10588-0.35789-0.39442-2.3974-0.64121-4.5324-0.63193-5.4668-1.505-10.708-1.8608-11.171-0.12516-0.16282-0.021-0.21565 0.42539-0.21565 1.279 0 3.622 2.145 2.6858 2.4588-0.16582 0.0556-0.14665 0.26816 0.083 0.9201 0.75146 2.1335 0.85312 2.9861 0.9685 8.1224 0.0622 2.7675 0.17126 5.09 0.24242 5.1612 0.31619 0.31603 0.39193-0.37134 0.44972-4.0811 0.0774-4.9693-0.13157-6.922-1.0972-10.252-0.15346-0.52928 0.78504-1.4664 1.4686-1.4664 0.74189 0 1.1087 0.23131 1.5696 0.9898 0.21696 0.35701 0.46763 0.6992 0.55704 0.76043 0.30393 0.20811 0.009 6.7511-0.4731 10.499-0.25027 1.9451-0.49694 3.8666-0.54814 4.2698-0.0512 0.40326-0.14656 0.72915-0.21191 0.72421-0.0654-0.005-0.59058-0.18439-1.1672-0.39876z"
      />
      <path
          id="path8488-3-8"
          style="color:#000000;fill:#e5dec3"
          inkscape:connector-curvature="0"
          d="m69.537 612.06c-0.56931-0.23582-1.2535-0.64652-1.5204-0.91265-0.52891-0.52732-0.51215-0.436-1.7558-9.5682-0.25616-1.8808-0.63896-4.1904-0.8507-5.1324l-0.38497-1.7127h0.45389c0.48317 0 1.8161 0.76656 2.2466 1.292 0.14233 0.17371 0.26419 0.67218 0.27079 1.1077 0.007 0.43552 0.18415 1.4129 0.39452 2.172 0.32068 1.157 0.41027 2.1191 0.55421 5.9519 0.18531 4.9342 0.27602 6.0381 0.49611 6.0381 0.2872 0 0.34993-0.8657 0.35223-4.8611 0.003-4.3143-0.1349-5.8857-0.71855-8.2187-0.26878-1.0744-0.31437-1.5328-0.18141-1.8246 0.22418-0.49203 1.1328-0.94121 1.6888-0.83491 0.53503 0.10227 1.4531 1.2453 1.6299 2.0293 0.14801 0.65622-0.0606 5.906-0.34264 8.6208-0.24774 2.3852-0.6882 5.8211-0.77956 6.0812-0.10595 0.30169-0.36755 0.26333-1.553-0.22772z"
      />
      <path
          id="path8490-9-9"
          style="color:#000000;fill:#dcd1ad"
          inkscape:connector-curvature="0"
          d="m73.356 612.98-1.5296-0.17008 0.11785-1.228c0.0648-0.6754 0.31191-2.6254 0.54908-4.3333 0.30415-2.1902 0.46057-4.2636 0.53081-7.0356l0.0996-3.9303 0.506-0.42576c0.37068-0.31191 0.70958-0.42577 1.2673-0.42577 0.67579 0 0.87284 0.10107 1.7551 0.90029l0.99381 0.90029-0.0524 1.3856c-0.0717 1.896-0.48482 6.1094-0.89834 9.1632-0.37345 2.7578-0.43174 3.8591-0.19057 3.6 0.33128-0.35595 1.3476-7.7982 1.6773-12.283 0.0645-0.87768 0.1801-1.5958 0.25681-1.5958 0.0767 0 0.38517-0.35709 0.68545-0.79354 0.9669-1.4053 2.1758-1.6372 3.2896-0.63097l0.71472 0.6457-0.10838 1.8989c-0.0596 1.0444-0.41981 4.029-0.80047 6.6324-0.38065 2.6034-0.6921 4.986-0.6921 5.2947 0 0.83789 0.27508 0.84776 0.49844 0.0179 0.228-0.84709 1.674-11.115 1.851-13.143 0.11784-1.3504 0.1329-1.3854 0.94713-2.1996 1.1159-1.1158 2.0476-1.1356 2.9474-0.0626l0.46465 0.55409-0.34079 1.3303c-0.18744 0.73165-0.64439 2.7445-1.0155 4.473-0.37106 1.7285-0.95412 4.3038-1.2957 5.723-0.34156 1.4192-0.5978 2.7389-0.56943 2.9328 0.0742 0.50745 1.2831-3.6728 1.9685-6.807 1.4602-6.6776 1.6321-7.3184 2.0483-7.6362 0.24211-0.18485 0.47969-0.64306 0.60565-1.1681 0.23875-0.99524 0.45159-1.1506 1.7919-1.3082 0.92847-0.10912 1.1606-0.003 0.81798 0.37378-0.17564 0.19317-0.57798 1.3022-3.3453 9.2211-1.144 3.2735-2.2532 6.6099-2.4649 7.4142l-0.38499 1.4624-1.6152 0.46882c-3.3324 0.96721-7.0651 1.2317-11.081 0.78524z"
      />
      <path
          id="path8492-3-8"
          style="color:#000000;fill:#cebf8c"
          inkscape:connector-curvature="0"
          d="m86.358 611.54c0-0.0488 0.12554-0.33147 0.27898-0.62819 0.30193-0.58386 1.147-2.939 3.5144-9.7944 2.5732-7.4513 2.5596-7.4183 3.0469-7.4183 0.34864 0 0.49944-0.16952 0.8441-0.94885 0.23079-0.52186 0.50879-0.94884 0.61776-0.94884 0.34253 0 0.0407 1.37-0.79931 3.6274-0.79961 2.1491-1.6648 4.9942-3.1987 10.519-1.2628 4.5483-1.1592 4.3074-2.0106 4.6793-0.40746 0.17803-1.0902 0.47619-1.5172 0.6626-0.42699 0.18639-0.77633 0.29898-0.77633 0.2502z"
      />
      <path
          id="path8494-4-3"
          style="color:#000000;fill:#b1974b"
          inkscape:connector-curvature="0"
          d="m77.487 595.79c-0.73032-0.66138-1.1135-0.87643-1.7248-0.9681-1.0636-0.15949-1.5369-0.0114-2.2534 0.7052-0.41613 0.41613-0.6071 0.52069-0.6071 0.33239 0-0.15109-0.08-0.2253-0.17766-0.16491-0.0977 0.0604-0.44976-0.12911-0.78234-0.42111-0.7665-0.673-1.6545-0.71427-2.5335-0.11774l-0.60884 0.41317-0.33901-0.45854c-0.4047-0.54738-2.0233-1.4029-2.6542-1.4029-0.24678 0-0.65344 0.16107-0.90371 0.35792-0.43236 0.3401-0.46047 0.34225-0.56408 0.0432-0.59247-1.7104-1.2303-2.4125-2.0494-2.256-0.62002 0.11852-0.69756-0.39765-0.35995-2.396 0.34815-2.0607 0.78523-3.1522 2.0948-5.2314 1.296-2.0577 1.7664-2.5204 4.3572-4.2851 2.5699-1.7505 2.9496-1.921 5.9871-2.6882 5.9603-1.5053 9.0833-1.4442 12.611 0.24686 2.0485 0.98203 2.7884 1.7026 4.7128 4.5899 1.6478 2.4722 2.3492 3.9416 2.8475 5.9653 0.63019 2.5592 0.69526 3.0657 0.39383 3.0657-0.25628 0-1.3968 1.1519-1.5269 1.5421-0.055 0.16506-0.16904 0.1658-0.52542 0.003-0.34522-0.15729-0.71602-0.16143-1.5352-0.0171-1.225 0.21578-1.9245 0.7463-2.2386 1.6978l-0.19192 0.58151-0.67515-0.60997c-0.5395-0.48739-0.816-0.60996-1.3761-0.60996-0.89738 0-1.2545 0.1902-2.344 1.2486l-0.88947 0.86401-0.69186-0.556c-1.1384-0.91482-2.2668-0.7006-3.6628 0.69531-0.3745 0.37449-0.7189 0.6809-0.76534 0.6809-0.0464 0-0.50692-0.38261-1.0233-0.85025z"
      />
      <g
          id="g7017-8"
          style="fill:none"
          transform="matrix(1 0 0 .86256 -343.31 5.9255)"
        >
        <path
            id="path7013-9"
            style="color:#000000;stroke:#60101f;stroke-width:0.174;fill:#611020"
            transform="translate(0 -435.83)"
            inkscape:connector-curvature="0"
            d="m422.11 1092.3c-0.29715 0.033-0.56378 0.1594-0.81298 0.3173-0.12733 0.096-0.12737 0.091-0.24499 0.2001-0.039 0.036-0.15402 0.1463-0.11424 0.1111 0.0503-0.044 0.0877-0.1054 0.14586-0.1391 0.0452-0.026-0.0709 0.077-0.10563 0.1158-0.0364 0.041-0.0719 0.082-0.10782 0.1238-0.21876 0.2447-0.38351 0.5212-0.4925 0.8297-0.0948 0.3111-0.11975 0.6369-0.1077 0.9603 0.0107 0.2638 0.0927 0.5125 0.18947 0.7552 0.0958 0.2295 0.23134 0.4359 0.38814 0.6274 0.18852 0.2204 0.42582 0.3864 0.67247 0.5346 0.28917 0.1677 0.60208 0.2869 0.92345 0.3755 0.32373 0.09 0.65627 0.12 0.99078 0.1223 0.39024-0.01 0.764-0.1237 1.1287-0.2526 0.29122-0.1021 0.55559-0.2554 0.78182-0.4643-0.57514 0.5978-0.24175 0.2385-0.13887 0.086 0.0762-0.1133 0.14132-0.2332 0.2057-0.3534 0.11221-0.215 0.20322-0.4407 0.26975-0.6738 0.0482-0.1787 0.0649-0.3631 0.0719-0.5474 0.004-0.1995-0.005-0.3986-0.0292-0.5966-0.0303-0.2086-0.11132-0.4024-0.20209-0.5908-0.0874-0.1934-0.22414-0.3528-0.36528-0.5083-0.16391-0.1804-0.36247-0.3233-0.56247-0.4604-0.20525-0.1449-0.43091-0.2559-0.65847-0.3605-0.26761-0.1108-0.54596-0.1928-0.82713-0.2608-0.34654-0.088-0.70133-0.105-1.0564-0.082-0.19653 0.016-0.38931 0.058-0.58365 0.089-0.0573 0.01-0.11511 0.036-0.1722 0.025-0.0376-0.01-0.0592-0.048-0.0888-0.072l0.0132-0.017c0.11401-0.081 0.22217-0.1712 0.34203-0.2434 0.26528-0.1598 0.58319-0.2128 0.88469-0.2499 0.36292-0.021 0.72392 0 1.0782 0.085 0.28397 0.071 0.56679 0.1515 0.83587 0.2682 0.23251 0.1032 0.45545 0.2248 0.66476 0.37 0.20384 0.1402 0.40072 0.2915 0.57071 0.4723 0.14595 0.1591 0.27937 0.3319 0.37124 0.5285 0.0895 0.1987 0.16603 0.404 0.19555 0.6213 0.0287 0.2036 0.0305 0.409 0.0234 0.6143-0.007 0.1904-0.0271 0.3806-0.0735 0.5658-0.0653 0.2407-0.16109 0.4711-0.27498 0.693-0.2115 0.4041-0.44625 0.734-0.81275 1.0316-0.22976 0.1979-0.49444 0.3348-0.78229 0.4308-0.3685 0.1239-0.74469 0.2309-1.1368 0.2355-0.33805 0-0.67283-0.04-0.99853-0.1346-0.32136-0.099-0.63511-0.2195-0.92374-0.3945-0.24858-0.1554-0.48755-0.3265-0.67412-0.5559-0.15937-0.1964-0.29533-0.4093-0.38986-0.645-0.10257-0.2489-0.17719-0.507-0.18898-0.7779-0.00005-0.3342 0.0266-0.6684 0.12087-0.9909 0.11123-0.3225 0.28124-0.6094 0.51119-0.8632 0.28068-0.3247 0.57518-0.6466 0.92828-0.8935 0.25175-0.1526 0.51881-0.266 0.81474-0.2969 0 0-0.1969 0.2356-0.1969 0.2356z"
        />
        <path
            id="path7015-3"
            d="m422.84 1097.1c-1.024-0.1468-1.9866-0.8116-2.3296-1.6089-0.15948-0.3707-0.18985-0.5722-0.15648-1.0385 0.0228-0.3182 0.1093-0.7099 0.19231-0.8704 0.22756-0.4401 0.72628-0.9539 1.0478-1.0797 0.15747-0.062 0.41721-0.171 0.57721-0.2431 0.25967-0.117 0.35458-0.1155 0.88389 0.014 2.0919 0.5138 3.0185 1.7802 2.4947 3.4093-0.24312 0.7561-0.44692 0.9882-1.0686 1.2172-0.61251 0.2256-1.0711 0.2814-1.6412 0.1996z"
            style="color:#000000;fill:#9e122d"
            transform="translate(0 -435.83)"
            inkscape:connector-curvature="0"
        />
      </g
      >
      <path
          id="path8496-0-8"
          sodipodi:rx="23.51087"
          sodipodi:ry="18.283695"
          style="opacity:.61868;color:#000000;filter:url(#filter5523-7-1-4);fill:url(#radialGradient12758)"
          sodipodi:type="arc"
          d="m681.46 824.19c0 10.098-10.526 18.284-23.511 18.284s-23.511-8.1859-23.511-18.284 10.526-18.284 23.511-18.284 23.511 8.1859 23.511 18.284z"
          transform="matrix(.55161 0 0 .46498 -289.99 202.01)"
          sodipodi:cy="824.19006"
          sodipodi:cx="657.94568"
      />
      <g
          id="g6923-5"
          style="fill:none"
          transform="translate(-337.76 -85.25)"
        >
        <path
            id="path5877-1"
            d="m417.97 1099.1c-0.39237 0.086-0.76532 0.234-1.1215 0.4172-0.12294 0.076-0.17548 0.1027-0.28615 0.1921-0.0394 0.032-0.14798 0.1383-0.1133 0.1014 0.3393-0.3613 0.0524-0.01-0.00093 0.078-0.14728 0.2539-0.22122 0.5383-0.27631 0.8241-0.0517 0.2744-0.0195 0.5443 0.0676 0.8068 0.0761 0.2106 0.20715 0.3882 0.35778 0.5506 0.13486 0.1288 0.3032 0.2018 0.47595 0.264 0.18852 0.063 0.38843 0.093 0.58706 0.088 0.0917 0 0.17939-0.024 0.2689-0.039 0.16238 0.01 0.32101 0.049 0.48121 0.075 0.25202 0.045 0.50763 0.062 0.76249 0.037 0.0906-0.02 0.20222-0.027 0.27839-0.088 0.0122-0.01 0.0432-0.045 0.0319-0.034-0.0987 0.094-0.19604 0.189-0.29407 0.2835 0.0489-0.1462 0.0202-0.3087 0.004-0.4589-0.0219-0.1708-0.0504-0.3412-0.0572-0.5135-0.009-0.1349 0.007-0.2666 0.0486-0.3949 0.036-0.1005 0.0926-0.1911 0.14416-0.2839 0.0386-0.063 0.0626-0.1322 0.0678-0.206 0.00074-0.083-0.0239-0.1636-0.048-0.2426-0.0209-0.077-0.0428-0.1541-0.0676-0.2302-0.028-0.08-0.0653-0.1562-0.1026-0.2324-0.036-0.092-0.0852-0.1755-0.15095-0.2488-0.0778-0.091-0.16611-0.1714-0.25255-0.2537-0.0788-0.069-0.15273-0.1452-0.23548-0.2098-0.0652-0.052-0.14001-0.087-0.21134-0.1287-0.0898-0.051-0.1823-0.094-0.28104-0.1252-0.0398-0.023-0.21459-0.058-0.20838-0.1271 0.005-0.056 0.0378-0.105 0.0567-0.1575 0 0 0.0141-0.016 0.0141-0.016 0.24047-0.1507 0.24436-0.1657 0.49671-0.093 0.10025 0.037 0.20231 0.071 0.29577 0.1235 0.0752 0.041 0.15007 0.084 0.21788 0.1359 0.0806 0.07 0.16149 0.1388 0.23878 0.2121 0.088 0.084 0.17895 0.1666 0.25538 0.2616 0.0588 0.084 0.11357 0.1682 0.15237 0.2636 0.0383 0.079 0.0818 0.1568 0.10255 0.243 0.0237 0.078 0.0339 0.1598 0.0626 0.2365 0.0225 0.084 0.0522 0.1675 0.0575 0.2551 0.001 0.083-0.0182 0.1582-0.0596 0.2309-0.0516 0.094-0.11294 0.1832-0.15514 0.2823-0.0482 0.1219-0.0677 0.2492-0.0619 0.3805 0.0108 0.1721 0.0312 0.3426 0.0534 0.5136 0.0153 0.1678 0.0292 0.3403-0.0125 0.5056-0.31862 0.3373-0.27926 0.4078-0.64963 0.4359-0.25401 0.01-0.50739-0.01-0.75729-0.058-0.15515-0.03-0.3132-0.073-0.47222-0.065-0.0894 0.013-0.17799 0.031-0.26906 0.027-0.19843-0.024-0.39846-0.037-0.58923-0.1031-0.17714-0.064-0.34498-0.1499-0.48015-0.2844-0.16015-0.1609-0.28586-0.352-0.36701-0.5647-0.0869-0.2699-0.1243-0.5443-0.0721-0.8266 0.0485-0.2874 0.12077-0.5716 0.26133-0.8294 0.22114-0.3662 0.5408-0.6714 0.91362-0.8804 0.36232-0.1808 0.73997-0.3319 1.1364-0.4197l-0.23771 0.2896z"
            style="color:#000000;stroke:#0c0b0b;stroke-width:0.174;fill:#121210"
            transform="translate(0 -435.83)"
            inkscape:connector-curvature="0"
        />
        <path
            id="path6887-6"
            d="m418.55 1102.5c-0.0246-0.025-0.3395-0.057-0.69974-0.071-0.76563-0.031-1.1047-0.1719-1.3735-0.5711-0.28218-0.4192-0.33495-0.8763-0.16102-1.3949 0.18483-0.551 0.3398-0.7284 0.82629-0.946 0.74368-0.3327 0.84667-0.3382 1.2719-0.069 0.43812 0.2778 0.69705 0.6047 0.84798 1.0704 0.0843 0.26 0.0768 0.3778-0.0422 0.6626-0.10524 0.2519-0.13023 0.4852-0.0916 0.8549l0.0532 0.5085h-0.29327c-0.1613 0-0.31342-0.02-0.33803-0.045z"
            style="color:#000000;fill:#382410"
            transform="translate(0 -435.83)"
            inkscape:connector-curvature="0"
        />
      </g
      >
      <g
          id="g6927-7"
          style="fill:none"
          transform="translate(-349.36 -76.358)"
        >
        <path
            id="path6869-0"
            d="m423.07 1097.3c-0.24756-0.015-0.49223 0.019-0.70586 0.1486-0.2074 0.1933 0.10593-0.099 0.117-0.1061 0.0271-0.017-0.0347 0.054-0.0482 0.083-0.0377 0.081-0.0503 0.1684-0.0596 0.2561-0.006 0.1759 0.0831 0.3011 0.21372 0.4076 0.17142 0.115 0.37766 0.1606 0.57411 0.2152 0.14299 0.04 0.27804 0.1048 0.38952 0.2035 0.074 0.059 0.13835 0.126 0.22125 0.1729 0.15314 0.076 0.32482 0.1109 0.49113 0.1475 0.17622 0.04 0.35539 0.045 0.53441 0.027 0.0563-0.011 0.11375-0.03 0.15725-0.069 0.0121-0.011 0.0438-0.049 0.0317-0.038-0.23186 0.2108-0.26198 0.3126-0.20712 0.1658 0.0347-0.1374 0.0276-0.2819 0.0222-0.4224-0.009-0.1058-0.007-0.2122-0.023-0.3173-0.008-0.077-0.0205-0.1556-0.0194-0.2334 0.002-0.063 0.003-0.1264 0.001-0.1897-0.006-0.074-0.0487-0.1342-0.0934-0.1912-0.0878-0.084-0.19398-0.1443-0.30071-0.2003-0.10061-0.055-0.20193-0.1097-0.29349-0.1787-0.0717-0.057-0.15494-0.093-0.23599-0.1343-0.0758-0.033-0.15636-0.049-0.23704-0.065-0.0808-0.017-0.16242-0.022-0.2446-0.016-0.0877 0.016-0.16703 0.064-0.25445 0.079 0.0323-0.079 0.0221-0.043 0.0357-0.1071l0.013-0.017c0.12243-0.1138 0.0582-0.053 0.19235-0.1811 0.0876-0.047 0.18444-0.079 0.28312-0.094 0.0863 0 0.17327 0.0002 0.25803 0.018 0.0826 0.019 0.16581 0.036 0.24311 0.072 0.086 0.036 0.16756 0.084 0.24364 0.1376 0.094 0.062 0.18771 0.1248 0.28671 0.1792 0.10776 0.064 0.22377 0.1202 0.30875 0.2147 0.0526 0.062 0.10009 0.13 0.10774 0.2132 0.005 0.066-0.006 0.1316-0.007 0.1976 0.002 0.076 0.005 0.1509 0.0205 0.2255 0.0133 0.1116 0.0185 0.2229 0.01 0.3353-0.002 0.1474 0.005 0.2966-0.0246 0.4418-0.0698 0.2083-0.2621 0.4063-0.48485 0.4237-0.17801 0.0003-0.35623-0.01-0.53133-0.043-0.17307-0.035-0.34798-0.07-0.50961-0.1439-0.0791-0.054-0.1469-0.1186-0.21891-0.181-0.1163-0.085-0.23064-0.1701-0.37624-0.1982-0.205-0.052-0.41796-0.092-0.59721-0.2107-0.13679-0.1119-0.24054-0.2411-0.24136-0.4263 0.0157-0.3257 0.19666-0.5413 0.46988-0.7368 0.22551-0.1246 0.47681-0.1507 0.73205-0.1477 0 0-0.24385 0.2828-0.24385 0.2828z"
            style="color:#000000;stroke:#0c0b0b;stroke-width:0.174;fill:#121210"
            transform="translate(0 -435.83)"
            inkscape:connector-curvature="0"
        />
        <path
            id="path6889-3"
            d="m423.87 1098.6c-0.17014-0.094-0.44857-0.234-0.61872-0.3099-0.69848-0.3117-0.7513-0.3557-0.7513-0.6261 0-0.2255 0.0368-0.2659 0.26517-0.291 0.14584-0.016 0.35245-0.1104 0.45914-0.2097 0.23159-0.2155 0.4828-0.1746 1.0287 0.1672 0.47965 0.3004 0.49794 0.3346 0.49953 0.9335l0.001 0.5082-0.28727-0.0001c-0.15799-0.0001-0.42647-0.078-0.59662-0.1721z"
            style="color:#000000;fill:#382410"
            transform="translate(0 -435.83)"
            inkscape:connector-curvature="0"
        />
      </g
      >
      <g
          id="g6987-2"
          style="fill:none"
          transform="translate(-351.25 -69.063)"
        >
        <path
            id="path6881-7"
            d="m430.62 1096.4c-0.14774 0.2113-0.27431 0.4385-0.32333 0.6932-0.029 0.2244 0.0822 0.3737 0.24992 0.5048 0.22322 0.1515 0.48772 0.2042 0.75094 0.2347 0.27525 0.023 0.54708-0.026 0.80763-0.1118 0.0925-0.035 0.18593-0.074 0.26789-0.13 0.0953-0.066 0.34181-0.3179-0.0652 0.073 0.0983-0.114 0.12747-0.254 0.14465-0.3989 0.0111-0.1266-0.0229-0.2323-0.0838-0.3405-0.0738-0.1114-0.17186-0.2032-0.26788-0.2949-0.0867-0.072-0.17806-0.1385-0.26812-0.2064-0.0784-0.071-0.16695-0.1223-0.26769-0.1535-0.063-0.024-0.12862-0.028-0.19424-0.034-0.0453 0-0.0862 0-0.12759-0.019-0.0629-0.024-0.12236-0.055-0.18452-0.08-0.0577-0.024-0.11621-0.046-0.17727-0.058-0.0608-0.016-0.10889 0-0.15768 0.034-0.11138 0.099-0.0841 0.075 0.21718-0.2166 0.0127-0.012-0.0243 0.026-0.0363 0.039-0.0371 0.041-0.0731 0.083-0.10893 0.1245-0.15872 0.1804-0.32608 0.3519-0.52739 0.4832 0.0693-0.098-0.24601 0.217-0.15923 0.1304 0.26902-0.2684 0.32072-0.3307 0.21813-0.2108-0.0794 0.11-0.18589 0.1954-0.27996 0.2923l-0.017 0.013c0.008-0.06 0.007 0.01-0.0543 0-0.0242 0 0.0617-0.073 0.0344-0.065 0.13391-0.1838 0.30953-0.3429 0.49739-0.4717 0.0322-0.022 0.0582-0.039 0.0894-0.062 0.0135-0.01 0.0515-0.043 0.04-0.031-0.43284 0.4585-0.26088 0.2617-0.16301 0.1636 0.15224-0.1753 0.30401-0.36 0.48982-0.499 0.0605-0.03 0.11788-0.032 0.18345-0.016 0.0626 0.017 0.12414 0.036 0.18446 0.061 0.0599 0.027 0.11853 0.056 0.1773 0.085 0.0378 0.01 0.0747 0.018 0.11409 0.018 0.0684 0 0.13548 0.027 0.20185 0.041 0.10074 0.04 0.1993 0.086 0.28034 0.1597 0.0841 0.075 0.17538 0.1417 0.25873 0.2179 0.10585 0.087 0.20027 0.1895 0.27768 0.3023 0.0666 0.112 0.0915 0.2355 0.0899 0.3658-0.0113 0.1507-0.0471 0.2971-0.13727 0.4216-0.22164 0.227-0.38068 0.4263-0.68661 0.5137-0.26229 0.076-0.52865 0.1165-0.80258 0.086-0.26963-0.033-0.53046-0.092-0.75614-0.2522-0.17154-0.1354-0.2847-0.298-0.27205-0.5259 0.0402-0.2551 0.1612-0.4816 0.30456-0.6943l0.23822-0.1799z"
            style="color:#000000;stroke:#0c0b0b;stroke-width:0.174;fill:#121210"
            transform="translate(0 -435.83)"
            inkscape:connector-curvature="0"
        />
        <path
            id="path6891-4"
            d="m431.04 1097.8c-0.30424-0.072-0.72343-0.402-0.72343-0.5699 0-0.053 0.0773-0.2406 0.17175-0.4168 0.0945-0.1763 0.15316-0.3391 0.13045-0.3618-0.0227-0.023 0.0147-0.088 0.0832-0.1446 0.19957-0.1657 0.90984 0.069 1.3038 0.4315 0.32687 0.3004 0.37612 0.4021 0.35413 0.7316-0.0174 0.261-0.79175 0.4546-1.32 0.33z"
            style="color:#000000;fill:#382410"
            transform="translate(0 -435.83)"
            inkscape:connector-curvature="0"
        />
      </g
      >
      <g
          id="g6983-0"
          style="fill:none"
          transform="translate(-336.4 -76.897)"
        >
        <path
            id="path6867-5"
            d="m428.01 1100c-0.3164 0.2534-0.21328 0.1079-0.38626 0.3754-0.11247 0.1849-0.0904 0.3597 0.0215 0.5353 0.11496 0.155 0.2868 0.2438 0.44009 0.3533 0.0955 0.069 0.16246 0.1629 0.22833 0.258 0.0604 0.09 0.0896 0.194 0.13638 0.2908 0.0632 0.1445 0.17398 0.2483 0.3051 0.331 0.14087 0.083 0.29714 0.1183 0.45809 0.1332 0.19831 0.019 0.38894-0.024 0.57134-0.099 0.0927-0.047 0.18195-0.1 0.26252-0.1658 0.0204-0.017 0.0776-0.072 0.059-0.053-0.17808 0.1802-0.17383 0.1804-0.10446 0.086 0.0537-0.089 0.0761-0.1926 0.0868-0.295 0.00072-0.093 0.0105-0.1844 0.006-0.2775-0.008-0.092-0.0455-0.1734-0.092-0.2513-0.0518-0.073-0.104-0.1465-0.15376-0.2214-0.043-0.067-0.0815-0.136-0.0997-0.2135-0.0105-0.086 0.0364-0.1606 0.072-0.2352 0.0334-0.069 0.0761-0.1343 0.0947-0.2097 0.0165-0.062-0.007-0.1103-0.0452-0.1586-0.0665-0.08-0.16696-0.1136-0.26036-0.1516-0.11948-0.049-0.23947-0.099-0.3649-0.1303-0.0742-0.017-0.14974-0.04-0.22634-0.042-0.0725 0.014-0.14092 0.047-0.21084 0.072-0.10607 0.028-0.20412 0.077-0.30648 0.1151-0.0748 0.026-0.1494 0.05-0.22728 0.064-0.082 0.016-0.16565 0.022-0.24888 0.026-0.0915 0.01-0.18263 0.015-0.27378 0.024-0.0742-0.011 0.0127-0.1076 0.027-0.1319l0.0136-0.016c0.0646-0.061 0.12151-0.1294 0.2098-0.1527 0.0924-0.014 0.18558-0.019 0.27861-0.026 0.0824-0.01 0.16533-0.011 0.24591-0.031 0.0743-0.016 0.14757-0.038 0.21887-0.064 0.10181-0.041 0.20323-0.082 0.30794-0.1157 0.0738-0.027 0.14618-0.066 0.2264-0.067 0.0817 0 0.1618 0.017 0.24061 0.04 0.12504 0.039 0.24859 0.081 0.36875 0.133 0.10048 0.04 0.20636 0.079 0.2826 0.1589 0.046 0.056 0.0898 0.1169 0.0671 0.1921-0.0252 0.087-0.0693 0.1646-0.11872 0.2403-0.0408 0.069-0.0863 0.1407-0.0958 0.2216 0.01 0.072 0.073 0.1276 0.10109 0.1936 0.0453 0.078 0.10183 0.1472 0.15507 0.2196 0.0559 0.082 0.10251 0.1721 0.0968 0.2747 0.00009 0.1015-0.0121 0.2021-0.0274 0.3024-0.0148 0.1237-0.0457 0.2376-0.11903 0.3412-0.15201 0.2107-0.34803 0.3914-0.59036 0.4874-0.18735 0.072-0.38052 0.1143-0.58266 0.095-0.16276-0.02-0.32417-0.054-0.46605-0.1407-0.13392-0.086-0.24561-0.1938-0.31572-0.3392-0.0449-0.096-0.0854-0.1941-0.1353-0.2876-0.0572-0.097-0.12854-0.1866-0.2186-0.2551-0.15375-0.1134-0.32094-0.2123-0.44373-0.3617-0.12032-0.179-0.1503-0.355-0.0432-0.5522 0.18086-0.29 0.44883-0.5142 0.72288-0.7137 0 0-0.1477 0.1946-0.1477 0.1946z"
            style="color:#000000;stroke:#0c0b0b;stroke-width:0.174;fill:#121210"
            transform="translate(0 -435.83)"
            inkscape:connector-curvature="0"
        />
        <path
            id="path6893-4"
            d="m428.93 1102.1c-0.15515-0.068-0.38015-0.2791-0.50002-0.4689-0.11986-0.1899-0.33618-0.4448-0.48071-0.5664-0.36271-0.3052-0.42592-0.5504-0.20011-0.7762 0.0997-0.1 0.27573-0.1813 0.39115-0.1813 0.11543 0 0.36628-0.055 0.55746-0.1226 0.29009-0.1023 0.40342-0.1034 0.68509-0.01 0.4623 0.1589 0.52054 0.2354 0.39286 0.5156-0.0925 0.203-0.0806 0.2848 0.0842 0.5779 0.23231 0.4133 0.24185 0.6376 0.0372 0.875-0.20648 0.2396-0.62091 0.3054-0.9671 0.1535z"
            style="color:#000000;fill:#382410"
            transform="translate(0 -435.83)"
            inkscape:connector-curvature="0"
        />
      </g
      >
      <g
          id="g6979-9"
          style="fill:none"
          transform="translate(-339.86 -85.343)"
        >
        <path
            id="path6865-2"
            d="m424.24 1103c-0.0448 0.038-0.18369 0.1501-0.21114 0.1956-0.0176 0.029 0.0542-0.041 0.0813-0.062-0.0329 0.048-0.0685 0.093-0.0988 0.1423-0.0729 0.1184-0.0862 0.1638-0.13873 0.2899-0.089 0.2368-0.11532 0.4262-0.002 0.6551 0.11817 0.1833 0.30267 0.2771 0.50155 0.3483 0.19456 0.063 0.39862 0.088 0.59823 0.1306 0.16415 0.035 0.31771 0.1038 0.46828 0.1763 0.14371 0.058 0.29163 0.1122 0.44634 0.1297 0.21496 0.034 0.44759-0.2551 0.11875 0.064 0.10962-0.1324 0.15764-0.2973 0.18812-0.4633 0.0206-0.1561-0.009-0.308-0.0474-0.4583-0.0242-0.089-0.0507-0.1763-0.0553-0.2691-0.004-0.062-0.003-0.1244-0.0129-0.1863-0.002-0.074-0.0207-0.1381-0.0649-0.1981-0.0658-0.063-0.13852-0.1192-0.20549-0.1822-0.0418-0.039-0.0812-0.079-0.11901-0.1214-0.0199-0.035-0.0162-0.076-0.0204-0.1143-0.005-0.063-0.0423-0.1099-0.0838-0.1542-0.0755-0.066-0.16854-0.105-0.26356-0.1337-0.11943-0.038-0.24558-0.043-0.3698-0.051-0.10331 0-0.20731-0.01-0.30794 0.017 0.008-0.047-0.15085 0.1162-0.11704 0.082 0.46936-0.4675 0.27608-0.2798 0.17852-0.1686-0.10497 0.1129-0.4482 0.5023-0.47496 0.4656 0.0116-0.021 0.0232-0.042 0.0349-0.063l0.0125-0.017c0.0392-0.049 0.0785-0.097 0.11772-0.1454 0.15144-0.1732 0.0899-0.099-0.17034 0.1584-0.0934 0.092 0.2424-0.2398 0.14699-0.1529 0.15731-0.1798 0.30426-0.3997 0.53404-0.4814 0.10469-0.022 0.21056-0.015 0.31681-0.01 0.12897 0 0.25816 0.016 0.38228 0.054 0.10032 0.036 0.20014 0.072 0.27996 0.1452 0.0561 0.053 0.10119 0.1091 0.095 0.1908-0.006 0.04-0.0115 0.079-0.0194 0.1186 0.0142 0.046 0.0812 0.079 0.10731 0.1188 0.0695 0.063 0.13663 0.1279 0.20102 0.1958 0.0491 0.064 0.0755 0.1306 0.0778 0.2119 0.005 0.064 0.005 0.127 0.009 0.1907 0.0125 0.091 0.022 0.182 0.0466 0.2702 0.036 0.1619 0.0575 0.3273 0.0283 0.4923-0.0309 0.1716-0.0757 0.3411-0.18407 0.4818-0.17883 0.1807-0.28619 0.37-0.54852 0.3256-0.14941-0.039-0.29825-0.079-0.43638-0.1505-0.15225-0.064-0.30034-0.1398-0.46333-0.1736-0.19936-0.044-0.40334-0.069-0.59651-0.138-0.20127-0.077-0.39883-0.1687-0.51923-0.357-0.12554-0.218-0.0928-0.4443-0.009-0.6749 0.15654-0.3907 0.4073-0.6907 0.73993-0.9519 0 0-0.17055 0.2265-0.17055 0.2265z"
            style="color:#000000;stroke:#0c0b0b;stroke-width:0.174;fill:#121210"
            transform="translate(0 -435.83)"
            inkscape:connector-curvature="0"
        />
        <path
            id="path6895-7"
            d="m424.98 1104.7c-0.88423-0.2854-1.1163-0.4485-1.1109-0.7807 0.003-0.2061 0.33721-0.9526 0.34614-0.7739 0.002 0.041 0.12608-0.029 0.27565-0.1547 0.14957-0.1258 0.29873-0.2286 0.33146-0.2283 0.1851 0 0.72242 0.1964 0.72242 0.262 0 0.043 0.10017 0.1965 0.22261 0.342 0.40418 0.4804 0.48018 1.6275 0.10574 1.5962-0.0591 0-0.46094-0.1231-0.89308-0.2626z"
            style="color:#000000;fill:#382410"
            transform="translate(0 -435.83)"
            inkscape:connector-curvature="0"
        />
      </g
      >
      <g
          id="g6975-0"
          style="fill:none"
          transform="translate(-338.7 -84.181)"
        >
        <path
            id="path6863-1"
            d="m419.42 1106.7c-0.15981 0.1671-0.29625 0.3524-0.29875 0.5901 0.0372 0.2266 0.19527 0.3734 0.38423 0.4849 0.17892 0.1059 0.38332 0.144 0.5838 0.1865 0.1925 0.035 0.38344 0.077 0.57381 0.122 0.16758 0.039 0.33539 0.076 0.50794 0.08 0.0852 0 0.16617 0 0.2333-0.052 0.11645-0.1266-0.0567 0.063-0.1956 0.1886-0.0162 0.015 0.0269-0.035 0.0393-0.053 0.0452-0.065 0.0815-0.1344 0.1163-0.2057 0.0542-0.108 0.0969-0.2213 0.15053-0.3295 0.0466-0.087 0.10604-0.1653 0.14402-0.2567 0.0306-0.08 0.037-0.1663 0.0343-0.2509-0.006-0.063-0.0278-0.1277-0.0571-0.1841-0.0227-0.065-0.0559-0.1253-0.0983-0.1798-0.063-0.069-0.12629-0.1359-0.19937-0.1939-0.053-0.046-0.11057-0.087-0.17227-0.1208-0.0565-0.04-0.1172-0.071-0.17736-0.1048-0.0618-0.034-0.12537-0.066-0.18322-0.1061-0.0815-0.068-0.16506-0.1358-0.2578-0.1884-0.10633-0.058-0.22515-0.07-0.34307-0.084-0.17371 0-0.42863 0.3169 0.0367-0.1416-0.0492 0.052-0.0814 0.1172-0.12546 0.1734-0.12614 0.1438-0.25481 0.2926-0.41687 0.3962-0.055 0.033-0.11727 0.05-0.17409 0.079-0.0682 0.04-0.13266 0.085-0.20077 0.1253-0.11943 0.063-0.3002 0.2446 0.13942-0.1654 0.0225-0.021-0.0345 0.051-0.0491 0.078-0.0476 0.096-0.12464 0.1743-0.18669 0.262l-0.0166 0.013c-0.045-0.035-0.10152 0.02-0.0748-0.058 0.0721-0.1873 0.23859-0.3242 0.41059-0.4215 0.0691-0.042 0.13427-0.091 0.20658-0.1272 0.0587-0.026 0.11899-0.051 0.17303-0.087 0.32598-0.2411-0.3285 0.3283-0.11351 0.1304 0.0452-0.055 0.0809-0.1162 0.12269-0.174 0.15517-0.157 0.28616-0.3838 0.52718-0.3797 0.12389 0.01 0.24793 0.034 0.35867 0.092 0.0934 0.056 0.17422 0.1269 0.26042 0.192 0.0546 0.044 0.11292 0.077 0.17836 0.1028 0.0622 0.032 0.12083 0.07 0.18146 0.105 0.0571 0.044 0.12129 0.077 0.17735 0.1227 0.0715 0.063 0.14523 0.1254 0.20495 0.2 0.0445 0.055 0.0854 0.1131 0.11463 0.1784 0.0247 0.066 0.0596 0.1284 0.0656 0.2002-0.005 0.095-0.0236 0.188-0.0487 0.2803-0.0324 0.097-0.0913 0.1761-0.14415 0.2623-0.0563 0.1056-0.0919 0.2207-0.14767 0.3268-0.12148 0.239-0.25408 0.4441-0.48911 0.6047-0.0741 0.037-0.13724 0.01-0.21417-0.01-0.16268-0.039-0.32856-0.063-0.49092-0.1043-0.18849-0.044-0.37683-0.088-0.56587-0.1299-0.20314-0.042-0.40577-0.092-0.58659-0.1982-0.18583-0.1285-0.35124-0.2781-0.396-0.5107-0.002-0.2465 0.13026-0.4348 0.29353-0.6115l0.20517-0.1493z"
            style="color:#000000;stroke:#0c0b0b;stroke-width:0.174;fill:#121210"
            transform="translate(0 -435.83)"
            inkscape:connector-curvature="0"
        />
        <path
            id="path6897-2"
            d="m420.35 1108c-0.64476-0.1412-1.0542-0.357-1.13-0.5955-0.0526-0.1657 0.21037-0.7671 0.33541-0.7671 0.0359 0 0.20111-0.1193 0.36722-0.2652 0.1661-0.1458 0.33053-0.2651 0.3654-0.2651 0.19107 0 1.1389 0.6901 1.2543 0.9133 0.12599 0.2436 0.12145 0.2915-0.0655 0.6907-0.22541 0.4812-0.23595 0.4839-1.1269 0.2889z"
            style="color:#000000;fill:#382410"
            transform="translate(0 -435.83)"
            inkscape:connector-curvature="0"
        />
      </g
      >
      <g
          id="g6911-4"
          style="fill:none"
          transform="translate(-344.64 -85.105)"
        >
        <path
            id="path6885-7"
            d="m410.89 1104.6c-0.0351 0.029-0.20679 0.1682-0.22318 0.2004-0.0225 0.044 0.11649-0.1482 0.11161-0.099-0.006 0.062-0.0797 0.097-0.11642 0.1475-0.0954 0.132-0.10925 0.1682-0.18561 0.3091-0.14045 0.2709-0.19241 0.5488-0.10224 0.8415 0.13294 0.2796 0.39921 0.3939 0.68102 0.4727 0.22424 0.053 0.45517 0.065 0.68422 0.082 0.20174 0.024 0.40394 0.024 0.60659 0.016 0.21021-0.023 0.42396-0.066 0.5837-0.212-0.38784 0.3986-0.21208 0.2278-0.16562 0.074 0.0232-0.077 0.0307-0.1543 0.0374-0.2338 0.0105-0.1307-0.0156-0.2588-0.0593-0.3813-0.0446-0.1203-0.0966-0.2381-0.15914-0.3502-0.0663-0.1245-0.11608-0.2579-0.19257-0.3766-0.0707-0.09-0.13146-0.1816-0.16846-0.2905-0.0219-0.087-0.0115-0.1763-0.005-0.2644 0.007-0.063-0.0139-0.108-0.0625-0.1466-0.08-0.046-0.17559-0.047-0.26548-0.05-0.17326 0.01-0.3459 0.026-0.51731 0.052-0.13879 0.015-0.27112 0.033-0.38401 0.119-0.15881 0.1647 0.0738-0.078 0.20312-0.1958 0.0183-0.017-0.031 0.039-0.0462 0.058-0.0473 0.061-0.0942 0.1224-0.14231 0.1829-0.0909 0.1068-0.20433 0.1932-0.30935 0.2856l-0.0171 0.013c-0.0478 0.01-0.0991 0.034-0.0177-0.042 0.18228-0.2275 0.34955-0.4691 0.58914-0.645 0.12242-0.075 0.26011-0.088 0.4002-0.1074 0.17332-0.021 0.34709-0.045 0.52201-0.047 0.10136 0 0.20792 0 0.29715 0.057 0.0638 0.05 0.10612 0.101 0.0872 0.1866-0.0182 0.089-0.0359 0.1786-0.026 0.2695 0.0202 0.1112 0.0973 0.1906 0.16119 0.2806 0.0728 0.1232 0.12878 0.2531 0.19195 0.3812 0.0569 0.1166 0.12 0.2305 0.16497 0.3525 0.0451 0.1264 0.0798 0.2552 0.0745 0.3909-0.022 0.3622-0.12604 0.4677-0.42202 0.7404-0.16763 0.1227-0.37125 0.1502-0.57477 0.1627-0.20257 0.01-0.40458 0-0.60582-0.024-0.22796-0.023-0.45756-0.04-0.68036-0.096-0.28924-0.087-0.56469-0.2083-0.70123-0.4967-0.1132-0.3085-0.0597-0.5629 0.0785-0.8564 0.21446-0.4072 0.51859-0.75 0.88114-1.0354 0 0-0.20535 0.2745-0.20535 0.2745z"
            style="color:#000000;stroke:#0c0b0b;stroke-width:0.174;fill:#121210"
            transform="translate(0 -435.83)"
            inkscape:connector-curvature="0"
        />
        <path
            id="path6899-9"
            d="m411.23 1106.4c-0.97009-0.194-1.1243-0.865-0.38008-1.654 0.2941-0.3119 0.35602-0.3379 0.80866-0.3393 0.4736 0 0.49208 0.01 0.5468 0.2635 0.0311 0.1459 0.16251 0.4727 0.29193 0.7263 0.26657 0.5224 0.30624 0.9512 0.0955 1.032-0.17817 0.068-0.96003 0.052-1.3628-0.028z"
            style="color:#000000;fill:#382410"
            transform="translate(0 -435.83)"
            inkscape:connector-curvature="0"
        />
      </g
      >
      <g
          id="g6915-3"
          style="fill:none"
          transform="translate(-340.43 -94.028)"
        >
        <path
            id="path6883-7"
            d="m412.82 1109.9c-0.12894 0.038-0.24842 0.097-0.35337 0.1814-0.0381 0.031-0.14431 0.1321-0.10729 0.1001 0.20138-0.1739 0.23225-0.2419 0.0966-0.039-0.11269 0.2058-0.20501 0.4313-0.19745 0.6692 0.0279 0.1684 0.1765 0.2331 0.32109 0.2864 0.18046 0.066 0.37101 0.094 0.56115 0.1136 0.21916 0.023 0.43977 0.016 0.65919 0 0.179-0.016 0.35736-0.037 0.53618-0.054 0.12772-0.022 0.27513-0.022 0.39115-0.087 0.0763-0.1479-0.0289 0.063-0.28497 0.244-0.0143 0.01-0.005-0.035-0.007-0.052-0.0109-0.066-0.0286-0.1297-0.0447-0.1942-0.0385-0.1602-0.0558-0.3235-0.0516-0.488 0.003-0.1026 0.0232-0.2029 0.0448-0.3027 0.0141-0.064 0.0322-0.1279 0.0337-0.1938 0.005-0.065-0.0288-0.1122-0.0591-0.1654-0.0544-0.063-0.11445-0.1208-0.17764-0.175-0.0763-0.062-0.16296-0.108-0.25029-0.1516-0.0423-0.021-0.0856-0.043-0.13226-0.052-0.0437-0.015-0.0908-0.022-0.1367-0.029-0.0617-0.016-0.12615-0.021-0.1897-0.026-0.0729-0.01-0.14691 0-0.21912 0.01-0.0914 0.022-0.17081 0.075-0.24696 0.1282-0.0924 0.081-0.1863 0.1588-0.28842 0.2274-0.0182 0.01-0.13172 0.1061-0.15734 0.074-0.009-0.012 0.001-0.03 0.002-0.046l0.0127-0.017c0.12343-0.1285 0.24415-0.2595 0.39889-0.3512 0.10236-0.073 0.19442-0.1592 0.29499-0.2349 0.0819-0.053 0.16622-0.1042 0.26439-0.1182 0.076-0.01 0.15223-0.01 0.22843 0 0.0632 0.01 0.12692 0.018 0.18993 0.03 0.0473 0.011 0.0956 0.016 0.14196 0.03 0.0461 0.02 0.0963 0.03 0.14245 0.05 0.0926 0.042 0.17981 0.096 0.25972 0.1582 0.0677 0.055 0.13485 0.1122 0.1917 0.1786 0.0433 0.053 0.0851 0.1137 0.082 0.1851-0.005 0.073-0.027 0.1431-0.0456 0.2135-0.023 0.099-0.0442 0.1982-0.0534 0.2995-0.008 0.1601 0.006 0.3211 0.0447 0.477 0.0736 0.2685 0.15077 0.4548-0.26071 0.6401-0.11391 0.031-0.23594-0.01-0.35147 0.02-0.17863 0.017-0.35665 0.04-0.53575 0.052-0.2213 0.013-0.44386 0.017-0.66473-0.01-0.19198-0.025-0.38494-0.051-0.56636-0.122-0.15562-0.066-0.30981-0.1345-0.34996-0.3156-0.0172-0.2344 0.0519-0.4591 0.15796-0.6673 0.21654-0.3517 0.53551-0.6733 0.93653-0.7973 0 0-0.26022 0.3172-0.26022 0.3172z"
            style="color:#000000;stroke:#0c0b0b;stroke-width:0.174;fill:#121210"
            transform="translate(0 -435.83)"
            inkscape:connector-curvature="0"
        />
        <path
            id="path6901-0"
            d="m412.67 1111.1c-0.1556-0.046-0.30758-0.1234-0.33774-0.1722-0.11323-0.1832 0.14997-0.6795 0.52794-0.9954 0.4571-0.3821 0.81367-0.4239 1.2099-0.1418 0.24944 0.1776 0.25944 0.2106 0.23461 0.7734l-0.0259 0.5879-0.66292 0.016c-0.3646 0.01-0.79022-0.022-0.94582-0.068z"
            style="color:#000000;fill:#382410"
            transform="translate(0 -435.83)"
            inkscape:connector-curvature="0"
        />
      </g
      >
      <g
          id="g6919-5"
          style="fill:none"
          transform="translate(-348.65 -84.378)"
        >
        <path
            id="path6873-7"
            d="m422.76 1110.4c-0.17751 0.2876-0.34037 0.5843-0.49413 0.8852-0.0943 0.1969-0.18916 0.3976-0.20652 0.6176 0.006 0.161 0.11833 0.2739 0.2185 0.3878 0.13828 0.1388 0.31689 0.2025 0.50192 0.251 0.17747 0.047 0.3547 0.063 0.53249 0.015 0.16457-0.066 0.30004-0.1818 0.43073-0.2983 0.11991-0.1107 0.47483-0.4687-0.0323 0.037 0.0651-0.064 0.10132-0.1415 0.12727-0.2277 0.0454-0.1575 0.0631-0.321 0.0824-0.4833 0.0187-0.1702 0.0338-0.3407 0.0371-0.512 0.00043-0.095-0.009-0.19-0.007-0.285 0.008-0.076 0.0234-0.1507 0.0339-0.2264 0.009-0.051-0.006-0.096-0.024-0.1424-0.0226-0.059-0.0737-0.078-0.12944-0.096-0.10272-0.028-0.20953-0.035-0.31485-0.047-0.0965-0.012-0.19161-0.021-0.28799-0.01-0.0838 0.01-0.15683 0.045-0.2295 0.086-0.0808 0.045-0.16438 0.085-0.249 0.1219-0.0685 0.028-0.0116-0.058-0.00053-0.081l0.0129-0.017c0.0734-0.078 0.14374-0.1625 0.23467-0.2215 0.0862-0.052 0.17813-0.093 0.26538-0.1434 0.0786-0.04 0.15829-0.074 0.24745-0.083 0.10045-0.01 0.20113 0 0.3013 0.01 0.10903 0.011 0.21826 0.024 0.32532 0.048 0.069 0.02 0.1327 0.046 0.1677 0.1122 0.0301 0.058 0.0291 0.1215 0.0161 0.1844-0.0121 0.078-0.0339 0.1534-0.0465 0.2309-0.005 0.094 0.007 0.1879 0.008 0.2823-0.004 0.1763-0.023 0.3519-0.0476 0.5264-0.0204 0.1622-0.037 0.3256-0.0736 0.4851-0.0288 0.096-0.0604 0.186-0.13405 0.2577-0.16543 0.1653-0.32832 0.3336-0.50275 0.4897-0.12964 0.1085-0.262 0.2229-0.42884 0.2677-0.18148 0.035-0.364 0.01-0.54381-0.027-0.19134-0.05-0.37176-0.1245-0.52837-0.2486-0.1287-0.1014-0.24181-0.2215-0.26301-0.391 0.006-0.2188 0.0953-0.4251 0.18503-0.6218 0.15193-0.2965 0.30931-0.5903 0.47859-0.8774l0.33602-0.2563z"
            style="color:#000000;stroke:#0c0b0b;stroke-width:0.174;fill:#121210"
            transform="translate(0 -435.83)"
            inkscape:connector-curvature="0"
        />
        <path
            id="path6903-3"
            d="m422.43 1112.3c-0.35862-0.2821-0.36585-0.4637-0.0443-1.1136 0.34305-0.6935 0.66884-0.9485 1.1244-0.8802 0.16595 0.025 0.33056 0.076 0.36579 0.1147 0.0352 0.038 0.0351 0.418-0.00021 0.8441-0.0528 0.6367-0.101 0.8137-0.2707 0.9944-0.26662 0.2837-0.84061 0.3036-1.175 0.041z"
            style="color:#000000;fill:#382410"
            transform="translate(0 -435.83)"
            inkscape:connector-curvature="0"
        />
      </g
      >
      <g
          id="g6991-3"
          style="fill:none"
          transform="translate(-363.19 -82.251)"
        >
        <path
            id="path6875-7"
            d="m428.6 1107.7c-0.11855 0.082-0.2383 0.1705-0.33224 0.2815-0.003 0 0.0104 0.01 0.008 0.012-0.25105 0.4583 0.0695-0.1902-0.14268 0.2484-0.0958 0.2446-0.0625 0.3885 0.11467 0.5731 0.21753 0.1736 0.48369 0.2094 0.75233 0.228 0.291 0.0009 0.58078-0.028 0.86968-0.06 0.20865-0.022 0.41643-0.051 0.62516-0.072 0.16394-0.011 0.32862-0.01 0.49287-0.01 0.10251-0.014 0.21767-0.01 0.31363-0.052 0.0808-0.072 0.22927-0.1835-0.14037 0.1405-0.01 0.01 0.0139-0.022 0.0187-0.034 0.01-0.024 0.0169-0.072 0.0213-0.095 0.0211-0.1376 0.004-0.2745-0.0127-0.4111-0.0159-0.1249-0.0484-0.2447-0.0966-0.3607-0.0349-0.098-0.0935-0.1779-0.1675-0.2492-0.0964-0.086-0.2065-0.1534-0.31501-0.2225-0.11031-0.078-0.23312-0.1339-0.35606-0.188-0.10422-0.046-0.21121-0.086-0.31999-0.1192-0.11306-0.04-0.22839-0.072-0.34209-0.1103-0.10105-0.035-0.20094-0.066-0.30742-0.078-0.12734-0.019-0.25307 0-0.37721 0.025-0.11476 0.026-0.21575 0.074-0.309 0.1451-0.15999 0.151 0.12033-0.1245 0.18379-0.1834 0.0197-0.018-0.0354 0.04-0.0521 0.061-0.0536 0.067-0.10189 0.1381-0.14954 0.2093-0.0755 0.1163-0.14219 0.2377-0.22852 0.3465-0.0681 0.071-0.11968 0.152-0.15695 0.2429-0.051 0.1924-0.0601 0.2093-0.21576 0.3691-0.003 0.014-0.007 0.027-0.0103 0.041l-0.0165 0.013c0.003-0.014 0.007-0.027 0.0103-0.041-0.0397 0.022-0.0762 0.052-0.11918 0.067-0.0143 0.01-0.009-0.018-0.00064-0.06 0.01-0.046 0.0202-0.093 0.0342-0.138 0.0341-0.094 0.0765-0.1817 0.14879-0.2525 0.0892-0.1084 0.16345-0.2253 0.23424-0.3466 0.1662-0.2422 0.33699-0.4755 0.58113-0.6523 0.098-0.066 0.20568-0.1102 0.32146-0.1348 0.12881-0.027 0.25889-0.036 0.38995-0.019 0.10748 0.016 0.21199 0.042 0.3125 0.084 0.11456 0.037 0.22927 0.073 0.34434 0.1088 0.10702 0.042 0.21895 0.07 0.32222 0.1218 0.12458 0.056 0.24569 0.1181 0.35989 0.1932 0.10923 0.072 0.21426 0.1505 0.31341 0.2356 0.0764 0.076 0.15292 0.1548 0.18429 0.2607 0.0278 0.1296 0.0593 0.2589 0.073 0.3908 0.0176 0.1464 0.019 0.2938-0.005 0.4398-0.0334 0.1842-0.1522 0.355-0.33615 0.4257-0.0916 0.019-0.18557 0-0.27789 0-0.16369 0-0.32761-0.01-0.4909 0.01-0.2062 0.014-0.41134 0.042-0.61694 0.063-0.28588 0.028-0.57329 0.061-0.86089 0.044-0.27132-0.018-0.55382-0.047-0.76582-0.2352-0.17763-0.198-0.19964-0.3617-0.10288-0.612 0.15316-0.3183 0.40677-0.5718 0.6946-0.773l-0.0997 0.1316z"
            style="color:#000000;stroke:#0c0b0b;stroke-width:0.174;fill:#121210"
            transform="translate(0 -435.83)"
            inkscape:connector-curvature="0"
        />
        <path
            id="path6905-9"
            d="m428.35 1108.8c-0.30676-0.2441-0.26765-0.5244 0.13097-0.9388 0.16794-0.1746 0.22678-0.2907 0.15882-0.3133-0.0766-0.026-0.0642-0.08 0.0428-0.1868 0.33227-0.3322 1.5437-0.043 2.1276 0.5072 0.24068 0.227 0.30863 0.3606 0.30863 0.6069 0 0.1737-0.0318 0.3354-0.0706 0.3594s-0.60563 0.071-1.2595 0.1039c-1.1456 0.058-1.198 0.053-1.4386-0.1385z"
            style="color:#000000;fill:#382410"
            transform="translate(0 -435.83)"
            inkscape:connector-curvature="0"
        />
      </g
      >
      <g
          id="g6995-1"
          style="fill:none"
          transform="translate(-344.62 -84.368)"
        >
        <path
            id="path6877-4"
            d="m434.7 1103.9c-0.17946 0.2482-0.32352 0.5184-0.456 0.7938-0.0894 0.1984-0.173 0.4031-0.15152 0.6237 0.0363 0.1789 0.18964 0.2521 0.33832 0.3279 0.1788 0.071 0.36558 0.1105 0.55667 0.1273 0.17306 0.011 0.33501 0 0.47687-0.1074 0.17331-0.1738-0.10308 0.1044-0.16567 0.154-0.0211 0.017 0.0295-0.045 0.0429-0.068 0.0439-0.076 0.0755-0.1554 0.10418-0.2384 0.0496-0.1511 0.0903-0.3052 0.11634-0.4622 0.0169-0.1311 0.0536-0.2584 0.084-0.3868 0.0277-0.101 0.0442-0.1892-0.0124-0.2814-0.0608-0.088-0.15437-0.1491-0.24963-0.195-0.0861-0.038-0.17698-0.064-0.26816-0.087-0.0683-0.022-0.13954-0.024-0.20977-0.032-0.0376-0.01-0.0765 0-0.11427-0.012-0.0413-0.0003-0.078 0.012-0.11638 0.026-0.0579 0.031-0.11508 0.065-0.17366 0.096-0.0259 0.014-0.20377 0.1098-0.21097 0.1017-0.008-0.01 0.006-0.024 0.009-0.037 0.001-0.01 0.003-0.014 0.004-0.021l0.0125-0.017c0.0278-0.032 0.0557-0.063 0.0835-0.095 0.10248-0.1032 0.21015-0.1835 0.34284-0.2439 0.0605-0.032 0.11693-0.071 0.18161-0.095 0.0397-0.01 0.0843-0.025 0.12509-0.015 0.0402 0 0.0788 0.01 0.11912 0.01 0.0712 0.01 0.14183 0.022 0.2117 0.038 0.0934 0.023 0.18433 0.056 0.27206 0.095 0.10269 0.054 0.19677 0.113 0.26831 0.2069 0.0633 0.1 0.0738 0.1877 0.0377 0.3024-0.0362 0.1271-0.0733 0.2542-0.0881 0.386-0.0303 0.1586-0.0604 0.3178-0.11565 0.4702-0.10648 0.2896-0.2463 0.5191-0.52221 0.7045-0.14991 0.088-0.31227 0.096-0.48304 0.075-0.19443-0.017-0.38916-0.053-0.56812-0.1336-0.16487-0.07-0.31386-0.1655-0.37685-0.3425-0.0393-0.2235 0.0368-0.4322 0.12936-0.6345 0.12706-0.2738 0.27117-0.5402 0.44032-0.7905l0.32574-0.2453z"
            style="color:#000000;stroke:#0c0b0b;stroke-width:0.174;fill:#121210"
            transform="translate(0 -435.83)"
            inkscape:connector-curvature="0"
        />
        <path
            id="path6907-0"
            d="m434.6 1105.6c-0.1043-0.02-0.25737-0.1119-0.34014-0.2034-0.12521-0.1383-0.13417-0.2154-0.0533-0.4591 0.27388-0.8252 0.59333-1.0265 1.162-0.7324 0.30473 0.1575 0.3032 0.146 0.11744 0.8855-0.13929 0.5546-0.1511 0.5703-0.41984 0.5586-0.15208-0.01-0.36186-0.029-0.46616-0.049z"
            style="color:#000000;fill:#382410"
            transform="translate(0 -435.83)"
            inkscape:connector-curvature="0"
        />
      </g
      >
      <g
          id="g6999-0"
          style="fill:none"
          transform="translate(-348.83 -74.324)"
        >
        <path
            id="path6879-1"
            d="m435.55 1098.7c-0.28332 0.017-0.53748 0.1115-0.76663 0.2751-0.0326 0.029-0.12855 0.1199-0.0979 0.088 0.0443-0.045 0.0802-0.1063 0.13892-0.1305 0.0418-0.017-0.057 0.07-0.0827 0.1074-0.0779 0.1122-0.13019 0.2311-0.17921 0.3577-0.0665 0.2242-0.067 0.4115 0.066 0.6071 0.0953 0.1262 0.24395 0.1712 0.3905 0.2092 0.14606 0.028 0.29124 0.062 0.43726 0.091 0.14481 0.027 0.29185 0.037 0.4384 0.049 0.0814 0 0.15371 0 0.22718-0.04 0.0148-0.01 0.03-0.018 0.0443-0.029 0.0287-0.021 0.2805-0.2608 0.14923-0.1366-0.16763 0.1585-0.21319 0.2205-0.12245 0.1062 0.0481-0.072 0.0882-0.1487 0.14297-0.216 0.13422-0.1812 0.27798-0.2657 0.45624-0.3726 0.0479-0.028 0.093-0.058 0.13092-0.098 0.0807-0.087 0.20751-0.1771-0.20216 0.1953-0.009 0.01 0.0132-0.021 0.0193-0.032 0.0227-0.041 0.0198-0.038 0.0364-0.082 0.0414-0.1042 0.0423-0.2164 0.0422-0.3268-0.007-0.1-0.0243-0.1983-0.0518-0.2945-0.0169-0.069-0.0298-0.1393-0.0461-0.2087-0.0182-0.066-0.0594-0.1066-0.11033-0.1508-0.0616-0.051-0.13306-0.08-0.21023-0.097-0.0836-0.017-0.169-0.014-0.25378-0.014-0.10337 0-0.20629 0.02-0.30715 0.043-0.0917 0.017-0.18155 0.042-0.27292 0.06-0.12515 0.031-0.0695-0.022-0.0289-0.096l0.0128-0.017c0.0774-0.082 0.14626-0.1709 0.26278-0.1899 0.0903-0.023 0.18193-0.04 0.27316-0.059 0.1032-0.02 0.20726-0.035 0.31247-0.038 0.0869 0 0.17485 0 0.26 0.022 0.0817 0.023 0.16 0.051 0.22496 0.1078 0.0563 0.049 0.1103 0.1067 0.10892 0.1858 0.0131 0.069 0.0255 0.1379 0.047 0.2049 0.0267 0.1005 0.0487 0.2024 0.0508 0.3068 0.007 0.1137 0.002 0.228-0.0334 0.3373-0.0621 0.1773-0.17039 0.3167-0.3429 0.4246-0.0362 0.02-0.0712 0.042-0.1091 0.059-0.11596 0.065-0.42816 0.3042-0.0237-0.052-0.0628 0.065-0.1024 0.1441-0.15158 0.2194-0.12762 0.1801-0.30239 0.3507-0.49158 0.4692-0.0725 0.024-0.14902 0.029-0.2248 0.017-0.14685-0.01-0.29209-0.029-0.43667-0.055-0.14866-0.023-0.29729-0.05-0.44287-0.088-0.15527-0.039-0.29619-0.1007-0.40356-0.2249-0.12123-0.1873-0.16818-0.387-0.1071-0.6068 0.11638-0.3661 0.35402-0.6413 0.66033-0.879 0.23792-0.1595 0.49866-0.2422 0.78421-0.2689 0 0-0.21781 0.2592-0.21781 0.2592z"
            style="color:#000000;stroke:#0c0b0b;stroke-width:0.174;fill:#121210"
            transform="translate(0 -435.83)"
            inkscape:connector-curvature="0"
        />
        <path
            id="path6909-3"
            d="m435.32 1100.3c-0.458-0.1008-0.65469-0.2323-0.70757-0.4731-0.073-0.3323 0.1466-0.7433 0.46034-0.8617 0.84944-0.3204 1.3474-0.3713 1.526-0.156 0.0589 0.071 0.12499 0.2798 0.14678 0.464 0.0351 0.2964-0.002 0.3781-0.32049 0.7106-0.36296 0.3786-0.56234 0.4356-1.105 0.3162z"
            style="color:#000000;fill:#382410"
            transform="translate(0 -435.83)"
            inkscape:connector-curvature="0"
        />
      </g
      >
      <path
          id="path7021-55"
          sodipodi:rx="0.66847825"
          sodipodi:ry="0.71902174"
          style="opacity:.27626;color:#000000;filter:url(#filter7043-20);fill:url(#radialGradient12760)"
          sodipodi:type="arc"
          d="m385.02 1095.9c0 0.3971-0.29929 0.719-0.66848 0.719s-0.66848-0.3219-0.66848-0.719 0.29929-0.719 0.66848-0.719 0.66848 0.3219 0.66848 0.719z"
          transform="matrix(1.121 0 0 .86036 -351.14 -363.39)"
          sodipodi:cy="1095.9281"
          sodipodi:cx="384.34784"
      />
      <path
          id="path7021-3-2"
          sodipodi:rx="0.66847825"
          sodipodi:ry="0.71902174"
          style="opacity:.44358;color:#000000;filter:url(#filter7043-6-2);fill:url(#radialGradient12760)"
          sodipodi:type="arc"
          d="m385.02 1095.9c0 0.3971-0.29929 0.719-0.66848 0.719s-0.66848-0.3219-0.66848-0.719 0.29929-0.719 0.66848-0.719 0.66848 0.3219 0.66848 0.719z"
          transform="matrix(2.0453 0 0 1.6939 -707.12 -1282.5)"
          sodipodi:cy="1095.9281"
          sodipodi:cx="384.34784"
      />
      <path
          id="path7021-0-9"
          sodipodi:rx="0.66847825"
          sodipodi:ry="0.71902174"
          style="opacity:.27626;color:#000000;filter:url(#filter7043-64-5);fill:url(#radialGradient12760)"
          sodipodi:type="arc"
          d="m385.02 1095.9c0 0.3971-0.29929 0.719-0.66848 0.719s-0.66848-0.3219-0.66848-0.719 0.29929-0.719 0.66848-0.719 0.66848 0.3219 0.66848 0.719z"
          transform="matrix(1.121 0 0 .86036 -358.14 -362.46)"
          sodipodi:cy="1095.9281"
          sodipodi:cx="384.34784"
      />
      <path
          id="path7021-1-8"
          sodipodi:rx="0.66847825"
          sodipodi:ry="0.71902174"
          style="opacity:.27626;color:#000000;filter:url(#filter7043-5-6);fill:url(#radialGradient12760)"
          sodipodi:type="arc"
          d="m385.02 1095.9c0 0.3971-0.29929 0.719-0.66848 0.719s-0.66848-0.3219-0.66848-0.719 0.29929-0.719 0.66848-0.719 0.66848 0.3219 0.66848 0.719z"
          transform="matrix(1.121 0 0 .86036 -364.01 -358.68)"
          sodipodi:cy="1095.9281"
          sodipodi:cx="384.34784"
      />
      <path
          id="path7021-6-0"
          sodipodi:rx="0.66847825"
          sodipodi:ry="0.71902174"
          style="opacity:.27626;color:#000000;filter:url(#filter7043-2-8);fill:url(#radialGradient12760)"
          sodipodi:type="arc"
          d="m385.02 1095.9c0 0.3971-0.29929 0.719-0.66848 0.719s-0.66848-0.3219-0.66848-0.719 0.29929-0.719 0.66848-0.719 0.66848 0.3219 0.66848 0.719z"
          transform="matrix(1.121 0 0 .86036 -356.97 -357.35)"
          sodipodi:cy="1095.9281"
          sodipodi:cx="384.34784"
      />
      <path
          id="path7021-5-5"
          sodipodi:rx="0.66847825"
          sodipodi:ry="0.71902174"
          style="opacity:.27626;color:#000000;filter:url(#filter7043-26-4);fill:url(#radialGradient12760)"
          sodipodi:type="arc"
          d="m385.02 1095.9c0 0.3971-0.29929 0.719-0.66848 0.719s-0.66848-0.3219-0.66848-0.719 0.29929-0.719 0.66848-0.719 0.66848 0.3219 0.66848 0.719z"
          transform="matrix(1.121 0 0 .86036 -364.77 -353.17)"
          sodipodi:cy="1095.9281"
          sodipodi:cx="384.34784"
      />
      <path
          id="path7021-8-7"
          sodipodi:rx="0.66847825"
          sodipodi:ry="0.71902174"
          style="opacity:.27626;color:#000000;filter:url(#filter7043-262-2);fill:url(#radialGradient12760)"
          sodipodi:type="arc"
          d="m385.02 1095.9c0 0.3971-0.29929 0.719-0.66848 0.719s-0.66848-0.3219-0.66848-0.719 0.29929-0.719 0.66848-0.719 0.66848 0.3219 0.66848 0.719z"
          transform="matrix(1.121 0 0 .86036 -356.39 -351.85)"
          sodipodi:cy="1095.9281"
          sodipodi:cx="384.34784"
      />
      <path
          id="path7021-4-2"
          sodipodi:rx="0.66847825"
          sodipodi:ry="0.71902174"
          style="opacity:.27626;color:#000000;filter:url(#filter7043-68-4);fill:url(#radialGradient12760)"
          sodipodi:type="arc"
          d="m385.02 1095.9c0 0.3971-0.29929 0.719-0.66848 0.719s-0.66848-0.3219-0.66848-0.719 0.29929-0.719 0.66848-0.719 0.66848 0.3219 0.66848 0.719z"
          transform="matrix(1.121 0 0 .86036 -349.37 -356)"
          sodipodi:cy="1095.9281"
          sodipodi:cx="384.34784"
      />
      <path
          id="path7021-84-5"
          sodipodi:rx="0.66847825"
          sodipodi:ry="0.71902174"
          style="opacity:.27626;color:#000000;filter:url(#filter7043-25-5);fill:url(#radialGradient12760)"
          sodipodi:type="arc"
          d="m385.02 1095.9c0 0.3971-0.29929 0.719-0.66848 0.719s-0.66848-0.3219-0.66848-0.719 0.29929-0.719 0.66848-0.719 0.66848 0.3219 0.66848 0.719z"
          transform="matrix(1.121 0 0 .86036 -350.97 -350.88)"
          sodipodi:cy="1095.9281"
          sodipodi:cx="384.34784"
      />
      <path
          id="path7021-59-7"
          sodipodi:rx="0.66847825"
          sodipodi:ry="0.71902174"
          style="opacity:.27626;color:#000000;filter:url(#filter7043-7-1);fill:url(#radialGradient12760)"
          sodipodi:type="arc"
          d="m385.02 1095.9c0 0.3971-0.29929 0.719-0.66848 0.719s-0.66848-0.3219-0.66848-0.719 0.29929-0.719 0.66848-0.719 0.66848 0.3219 0.66848 0.719z"
          transform="matrix(1.121 0 0 .86036 -344.11 -353.94)"
          sodipodi:cy="1095.9281"
          sodipodi:cx="384.34784"
      />
      <path
          id="path7021-37-6"
          sodipodi:rx="0.66847825"
          sodipodi:ry="0.71902174"
          style="opacity:.27626;color:#000000;filter:url(#filter7043-69-1);fill:url(#radialGradient12760)"
          sodipodi:type="arc"
          d="m385.02 1095.9c0 0.3971-0.29929 0.719-0.66848 0.719s-0.66848-0.3219-0.66848-0.719 0.29929-0.719 0.66848-0.719 0.66848 0.3219 0.66848 0.719z"
          transform="matrix(1.121 0 0 .86036 -346 -360.41)"
          sodipodi:cy="1095.9281"
          sodipodi:cx="384.34784"
      />
      <path
          id="path7021-89-7"
          sodipodi:rx="0.66847825"
          sodipodi:ry="0.71902174"
          style="opacity:.27626;color:#000000;filter:url(#filter7043-1-8);fill:url(#radialGradient12760)"
          sodipodi:type="arc"
          d="m385.02 1095.9c0 0.3971-0.29929 0.719-0.66848 0.719s-0.66848-0.3219-0.66848-0.719 0.29929-0.719 0.66848-0.719 0.66848 0.3219 0.66848 0.719z"
          transform="matrix(1.121 0 0 .86036 -340.93 -358.23)"
          sodipodi:cy="1095.9281"
          sodipodi:cx="384.34784"
      />
      <path
          id="path7021-43-1"
          sodipodi:rx="0.66847825"
          sodipodi:ry="0.71902174"
          style="opacity:.27626;color:#000000;filter:url(#filter7043-4-7);fill:url(#radialGradient12760)"
          sodipodi:type="arc"
          d="m385.02 1095.9c0 0.3971-0.29929 0.719-0.66848 0.719s-0.66848-0.3219-0.66848-0.719 0.29929-0.719 0.66848-0.719 0.66848 0.3219 0.66848 0.719z"
          transform="matrix(1.121 0 0 .86036 -338.59 -355)"
          sodipodi:cy="1095.9281"
          sodipodi:cx="384.34784"
      />
    </g
    >
  </g
  >
  <metadata
    >
    <rdf:RDF
      >
      <cc:Work
        >
        <dc:format
          >image/svg+xml</dc:format
        >
        <dc:type
            rdf:resource="http://purl.org/dc/dcmitype/StillImage"
        />
        <cc:license
            rdf:resource="http://creativecommons.org/licenses/publicdomain/"
        />
        <dc:publisher
          >
          <cc:Agent
              rdf:about="http://openclipart.org/"
            >
            <dc:title
              >Openclipart</dc:title
            >
          </cc:Agent
          >
        </dc:publisher
        >
        <dc:title
          >Chocolate Chips Muffin</dc:title
        >
        <dc:date
          >2013-03-23T06:38:28</dc:date
        >
        <dc:description
          >Muffin covered with chocolate chips and a red cherry on top</dc:description
        >
        <dc:source
          >https://openclipart.org/detail/176482/chocolate-chips-muffin-by-rubejar-176482</dc:source
        >
        <dc:creator
          >
          <cc:Agent
            >
            <dc:title
              >rubejar</dc:title
            >
          </cc:Agent
          >
        </dc:creator
        >
        <dc:subject
          >
          <rdf:Bag
            >
            <rdf:li
              >cherry</rdf:li
            >
            <rdf:li
              >chocolate chip</rdf:li
            >
            <rdf:li
              >cupcake</rdf:li
            >
            <rdf:li
              >magdalena</rdf:li
            >
            <rdf:li
              >muffin</rdf:li
            >
          </rdf:Bag
          >
        </dc:subject
        >
      </cc:Work
      >
      <cc:License
          rdf:about="http://creativecommons.org/licenses/publicdomain/"
        >
        <cc:permits
            rdf:resource="http://creativecommons.org/ns#Reproduction"
        />
        <cc:permits
            rdf:resource="http://creativecommons.org/ns#Distribution"
        />
        <cc:permits
            rdf:resource="http://creativecommons.org/ns#DerivativeWorks"
        />
      </cc:License
      >
    </rdf:RDF
    >
  </metadata
  >
</svg
>
