<?xml version="1.0" encoding="UTF-8" standalone="no"?>
<!-- Created with Inkscape (http://www.inkscape.org/) -->
<svg xmlns:inkscape="http://www.inkscape.org/namespaces/inkscape" xmlns:rdf="http://www.w3.org/1999/02/22-rdf-syntax-ns#" xmlns="http://www.w3.org/2000/svg" xmlns:xlink="http://www.w3.org/1999/xlink" xmlns:ns1="http://sozi.baierouge.fr" xmlns:cc="http://creativecommons.org/ns#" xmlns:sodipodi="http://sodipodi.sourceforge.net/DTD/sodipodi-0.dtd" xmlns:dc="http://purl.org/dc/elements/1.1/" id="svg2" xml:space="preserve" viewBox="0 0 42.589 28.972" version="1.1" inkscape:version="0.91 r13725">
  <defs id="defs6">
    <radialGradient id="radialGradient24" gradientUnits="userSpaceOnUse" cy="-11.79" cx="30.516" gradientTransform="matrix(.494 -.40688 .40616 .49312 9.5935 34.797)" r="15.212">
      <stop id="stop26" style="stop-color:#c73431" offset="0"/>
      <stop id="stop28" style="stop-color:#6e1a00" offset="1"/>
    </radialGradient>
    <clipPath id="clipPath36">
      <path id="path38" d="m23 19.177h2v1h-2v-1z" inkscape:connector-curvature="0"/>
    </clipPath>
    <mask id="mask40">
      <g id="g42">
        <g id="g44" clip-path="url(#clipPath36)">
          <path id="path46" style="fill:#000000;fill-opacity:.60940" d="m23 19.177h2v1h-2v-1z" inkscape:connector-curvature="0"/>
        </g>
      </g>
    </mask>
    <clipPath id="clipPath52">
      <path id="path54" d="m23 19.177h2v1h-2v-1z" inkscape:connector-curvature="0"/>
    </clipPath>
    <clipPath id="clipPath56">
      <path id="path58" d="m23 20h2v1h-2v-1z" inkscape:connector-curvature="0"/>
    </clipPath>
    <clipPath id="clipPath80">
      <path id="path82" d="m18 7.1772h12v14h-12v-14z" inkscape:connector-curvature="0"/>
    </clipPath>
    <mask id="mask84">
      <g id="g86">
        <g id="g88" clip-path="url(#clipPath80)">
          <path id="path90" style="fill:#000000;fill-opacity:.17190" d="m18 7.1772h12v14h-12v-14z" inkscape:connector-curvature="0"/>
        </g>
      </g>
    </mask>
    <clipPath id="clipPath96">
      <path id="path98" d="m18 7.1772h12v14h-12v-14z" inkscape:connector-curvature="0"/>
    </clipPath>
    <clipPath id="clipPath100">
      <path id="path102" d="m18 8h12v14h-12v-14z" inkscape:connector-curvature="0"/>
    </clipPath>
    <clipPath id="clipPath124">
      <path id="path126" d="m15 11.177h11v8h-11v-8z" inkscape:connector-curvature="0"/>
    </clipPath>
    <mask id="mask128">
      <g id="g130">
        <g id="g132" clip-path="url(#clipPath124)">
          <path id="path134" style="fill:#000000;fill-opacity:.35940" d="m15 11.177h11v8h-11v-8z" inkscape:connector-curvature="0"/>
        </g>
      </g>
    </mask>
    <clipPath id="clipPath140">
      <path id="path142" d="m15 11.177h11v8h-11v-8z" inkscape:connector-curvature="0"/>
    </clipPath>
    <clipPath id="clipPath144">
      <path id="path146" d="m15 12h11v8h-11v-8z" inkscape:connector-curvature="0"/>
    </clipPath>
    <clipPath id="clipPath148">
      <path id="path150" d="m25.879 17.191c0.023-0.257-0.055-0.523-0.223-0.8l-0.129 0.574c-0.019 0.129-0.062 0.234-0.129 0.32l-0.093 0.129 0.125-0.672c0.023-0.32-0.051-0.758-0.223-1.312 0.043 0.234 0.055 0.5 0.031 0.8 0 0.192-0.062 0.426-0.191 0.704l-0.223 0.351 0.031-0.961-0.191-0.765-0.191 1.086c-0.024 0.363-0.184 0.664-0.481 0.898l-0.066-1.219c-0.02-0.445-0.106-0.851-0.254-1.215-0.067 0.278-0.11 0.579-0.129 0.895-0.02 0.195-0.105 0.418-0.254 0.672l-0.195 0.32 0.035-1.246c-0.024-0.383-0.098-0.949-0.227-1.695l-0.129 1.726c-0.019 0.301-0.082 0.555-0.191 0.77l-0.125 0.254-0.195-1.184-0.032 0.543c0 0.172-0.05 0.375-0.16 0.609l-0.16 0.289-0.703-2.335c0 0.425-0.031 0.863-0.098 1.312l-0.285 1.152-0.449-1.57c0 0.109-0.043 0.258-0.129 0.449l-0.32 1.086-0.125-0.48c-0.043-0.297-0.055-0.5-0.035-0.606l-0.192 0.321c-0.062 0.129-0.117 0.308-0.16 0.543l-0.031 0.32-0.063-0.863 0.16-0.864-0.289 0.512c-0.105 0.191-0.203 0.488-0.289 0.895l-0.129 0.574c-0.082-0.149-0.179-0.383-0.285-0.703-0.109-0.34-0.129-0.723-0.066-1.153-0.063 0.129-0.125 0.352-0.192 0.672l-0.031 1.313c-0.105-0.129-0.301-0.672-0.574-1.633-0.258-0.957-0.152-2.024 0.316-3.199-0.125 0.109-0.308 0.715-0.543 1.824-0.21 1.109-0.234 2.125-0.062 3.039-0.129-0.254-0.234-0.555-0.32-0.895-0.086-0.339-0.086-0.734 0-1.183-0.086 0.172-0.149 0.469-0.192 0.894-0.043 0.43 0 0.918 0.125 1.473-0.254-0.66-0.414-1.395-0.476-2.207-0.043-0.789 0.117-1.473 0.476-2.047-0.34 0.277-0.562 0.949-0.672 2.016-0.105 1.066-0.05 1.843 0.161 2.336l-0.192-0.289c-0.129-0.215-0.223-0.543-0.285-0.993-0.066 0.192-0.055 0.586 0.031 1.184 0.106 0.578 0.383 1.023 0.832 1.344-0.066-0.129-0.148-0.246-0.258-0.352-0.105-0.105-0.179-0.265-0.222-0.48l0.289 0.386c0.082 0.106 0.179 0.18 0.285 0.223l-0.191-0.383c-0.086-0.152-0.086-0.289 0-0.418l0.351 0.641c0.149 0.211 0.32 0.352 0.512 0.414l-0.32-0.605c-0.082-0.258-0.118-0.43-0.094-0.512l0.383 0.64c0.171 0.274 0.332 0.457 0.48 0.543l-0.16-0.543c-0.063-0.257-0.055-0.472 0.031-0.64 0.11 0.234 0.27 0.5 0.481 0.801 0.234 0.296 0.468 0.519 0.703 0.672l-0.383-0.739c-0.149-0.254-0.215-0.449-0.191-0.574l0.289 0.512c0.148 0.234 0.32 0.425 0.511 0.574l-0.097-0.512c-0.063-0.254-0.075-0.492-0.032-0.703l0.254 0.512c0.11 0.258 0.332 0.586 0.672 0.992-0.039-0.062-0.105-0.332-0.191-0.801-0.106-0.449-0.149-0.777-0.125-0.992l0.414 0.801c0.191 0.277 0.394 0.457 0.609 0.543l-0.226-0.321c-0.063-0.105-0.082-0.308-0.063-0.605 0-0.152 0.012-0.289 0.031-0.418l0.321 0.672c0.191 0.387 0.48 0.769 0.863 1.152l-0.285-0.765c-0.086-0.278-0.086-0.578 0-0.899l0.16 0.192 0.414 0.418c-0.043-0.215-0.062-0.438-0.062-0.672-0.024-0.215 0.019-0.332 0.125-0.352 0.195 0.402 0.312 0.703 0.355 0.895 0.02 0.214 0.137 0.457 0.352 0.734-0.067-0.254-0.086-0.543-0.067-0.863 0.024-0.321 0.117-0.574 0.289-0.766 0.063 0.149 0.063 0.395 0 0.735l-0.097 0.703 0.418-0.606 0.253-0.64c0.11 0.128 0.129 0.265 0.067 0.414-0.067 0.257-0.16 0.48-0.289 0.671l0.48-0.445c0.215-0.195 0.395-0.387 0.543-0.578-0.062 0.301-0.203 0.598-0.414 0.898l-0.48 0.704 0.351-0.192c0.278-0.172 0.5-0.344 0.672-0.512 0.277-0.257 0.5-0.621 0.672-1.089 0.043 0.234 0.02 0.511-0.062 0.832-0.067 0.234-0.161 0.437-0.29 0.609l0.641-0.707c0.211-0.297 0.34-0.734 0.383-1.309z" inkscape:connector-curvature="0"/>
    </clipPath>
    <clipPath id="clipPath152">
      <path id="path154" d="m-930.8-1055.9h18.575v14.669h-18.575v-14.669z" inkscape:connector-curvature="0"/>
    </clipPath>
    <radialGradient id="radialGradient156" gradientUnits="userSpaceOnUse" cy="-1051.6" cx="-923.63" r="10.022">
      <stop id="stop158" style="stop-color:#ffffff" offset="0"/>
      <stop id="stop160" style="stop-color:#ffffff;stop-opacity:0" offset="1"/>
    </radialGradient>
    <mask id="mask162">
      <g id="g164">
        <g id="g166" clip-path="url(#clipPath152)">
          <path id="path168" style="fill:url(#radialGradient156)" d="m-930.8-1055.9h18.575v14.669h-18.575v-14.669z" inkscape:connector-curvature="0"/>
        </g>
      </g>
    </mask>
    <radialGradient id="radialGradient170" gradientUnits="userSpaceOnUse" cy="-1051.6" cx="-923.63" r="10.022">
      <stop id="stop172" style="stop-color:#ffffff" offset="0"/>
      <stop id="stop174" style="stop-color:#ffffff" offset="1"/>
    </radialGradient>
    <clipPath id="clipPath206">
      <path id="path208" d="m20 19.177h6v1h-6v-1z" inkscape:connector-curvature="0"/>
    </clipPath>
    <mask id="mask210">
      <g id="g212">
        <g id="g214" clip-path="url(#clipPath206)">
          <path id="path216" style="fill:#000000;fill-opacity:.30860" d="m20 19.177h6v1h-6v-1z" inkscape:connector-curvature="0"/>
        </g>
      </g>
    </mask>
    <clipPath id="clipPath222">
      <path id="path224" d="m20 19.177h6v1h-6v-1z" inkscape:connector-curvature="0"/>
    </clipPath>
    <clipPath id="clipPath226">
      <path id="path228" d="m20 20h6v1h-6v-1z" inkscape:connector-curvature="0"/>
    </clipPath>
    <linearGradient id="linearGradient256" y2="3.4704" gradientUnits="userSpaceOnUse" x2="37.285" gradientTransform="matrix(.64 0 0 -.64 .0071125 23.159)" y1="3.0479" x1="39.16">
      <stop id="stop258" style="stop-color:#69a815" offset="0"/>
      <stop id="stop260" style="stop-color:#508010" offset="1"/>
    </linearGradient>
    <linearGradient id="linearGradient274" y2="2.1961" gradientUnits="userSpaceOnUse" x2="36.436" gradientTransform="matrix(.64 0 0 -.64 .0071125 23.159)" y1="4.4004" x1="38.181">
      <stop id="stop276" style="stop-color:#69a815" offset="0"/>
      <stop id="stop278" style="stop-color:#508010" offset="1"/>
    </linearGradient>
    <radialGradient id="radialGradient304" gradientUnits="userSpaceOnUse" cy="9.1294" cx="16.522" gradientTransform="matrix(.494 -.40688 .40688 .494 -7.4212 14.139)" r="15.416">
      <stop id="stop306" style="stop-color:#d93936" offset="0"/>
      <stop id="stop308" style="stop-color:#781c00" offset="1"/>
    </radialGradient>
    <clipPath id="clipPath316">
      <path id="path318" d="m7 15.177h3v1h-3v-1z" inkscape:connector-curvature="0"/>
    </clipPath>
    <mask id="mask320">
      <g id="g322">
        <g id="g324" clip-path="url(#clipPath316)">
          <path id="path326" style="fill:#000000;fill-opacity:.60940" d="m7 15.177h3v1h-3v-1z" inkscape:connector-curvature="0"/>
        </g>
      </g>
    </mask>
    <clipPath id="clipPath332">
      <path id="path334" d="m7 15.177h3v1h-3v-1z" inkscape:connector-curvature="0"/>
    </clipPath>
    <clipPath id="clipPath336">
      <path id="path338" d="m7 16h3v1h-3v-1z" inkscape:connector-curvature="0"/>
    </clipPath>
    <clipPath id="clipPath360">
      <path id="path362" d="m2 2.1772h12v14h-12v-14z" inkscape:connector-curvature="0"/>
    </clipPath>
    <mask id="mask364">
      <g id="g366">
        <g id="g368" clip-path="url(#clipPath360)">
          <path id="path370" style="fill:#000000;fill-opacity:.17190" d="m2 2.1772h12v14h-12v-14z" inkscape:connector-curvature="0"/>
        </g>
      </g>
    </mask>
    <clipPath id="clipPath376">
      <path id="path378" d="m2 2.1772h12v14h-12v-14z" inkscape:connector-curvature="0"/>
    </clipPath>
    <clipPath id="clipPath380">
      <path id="path382" d="m2 3h12v14h-12v-14z" inkscape:connector-curvature="0"/>
    </clipPath>
    <clipPath id="clipPath404">
      <path id="path406" d="m0 7.1772h11v8h-11v-8z" inkscape:connector-curvature="0"/>
    </clipPath>
    <mask id="mask408">
      <g id="g410">
        <g id="g412" clip-path="url(#clipPath404)">
          <path id="path414" style="fill:#000000;fill-opacity:.35940" d="m0 7.1772h11v8h-11v-8z" inkscape:connector-curvature="0"/>
        </g>
      </g>
    </mask>
    <clipPath id="clipPath420">
      <path id="path422" d="m0 7.1772h11v8h-11v-8z" inkscape:connector-curvature="0"/>
    </clipPath>
    <clipPath id="clipPath424">
      <path id="path426" d="m0 8h11v8h-11v-8z" inkscape:connector-curvature="0"/>
    </clipPath>
    <clipPath id="clipPath428">
      <path id="path430" d="m10.504 12.559c0.019-0.258-0.055-0.536-0.227-0.832l-0.093 0.605-0.223 0.449 0.094-0.703c0.043-0.301-0.02-0.734-0.192-1.312l0.032 0.8c0 0.192-0.075 0.426-0.223 0.704l-0.227 0.382c0.086-0.359 0.098-0.691 0.035-0.992l-0.16-0.765c-0.109 0.382-0.172 0.757-0.191 1.121-0.024 0.234-0.109 0.445-0.258 0.636l-0.223 0.258-0.066-1.215c-0.043-0.492-0.137-0.91-0.285-1.25-0.067 0.278-0.109 0.578-0.129 0.899-0.023 0.191-0.109 0.426-0.258 0.703l-0.191 0.32 0.031-1.281c0-0.406-0.074-0.981-0.223-1.727l-0.129 1.758c-0.019 0.301-0.086 0.567-0.191 0.801l-0.129 0.258-0.191-1.219-0.032 0.578c0 0.149-0.054 0.34-0.16 0.574l-0.16 0.321-0.703-2.399c0 0.446-0.031 0.895-0.098 1.344-0.043 0.277-0.105 0.555-0.191 0.832l-0.129 0.352-0.414-1.602-0.48 1.57-0.161-1.121-0.191 0.321-0.191 0.894-0.036-0.894c0.024-0.34 0.079-0.641 0.161-0.899l-0.286 0.547c-0.128 0.191-0.234 0.5-0.32 0.926l-0.098 0.578c-0.105-0.149-0.21-0.395-0.32-0.738-0.105-0.321-0.129-0.703-0.062-1.153-0.067 0.129-0.129 0.356-0.192 0.672l-0.031 1.348c-0.109-0.129-0.301-0.684-0.578-1.664-0.254-0.985-0.149-2.071 0.32-3.266-0.129 0.106-0.308 0.727-0.543 1.856-0.234 1.132-0.269 2.164-0.097 3.105-0.129-0.258-0.223-0.555-0.29-0.898-0.082-0.34-0.082-0.746 0-1.215-0.105 0.172-0.179 0.469-0.222 0.894-0.02 0.43 0.031 0.93 0.16 1.504-0.254-0.66-0.414-1.406-0.481-2.238-0.062-0.813 0.098-1.504 0.481-2.078-0.34 0.254-0.574 0.937-0.703 2.047-0.11 1.086-0.043 1.879 0.191 2.367l-0.191-0.289c-0.149-0.211-0.246-0.543-0.289-0.992-0.086 0.191-0.074 0.589 0.031 1.183 0.086 0.598 0.363 1.071 0.832 1.41l-0.254-0.382c-0.109-0.129-0.191-0.301-0.258-0.512l0.289 0.383c0.086 0.129 0.18 0.211 0.289 0.254l-0.16-0.383c-0.086-0.149-0.086-0.289 0-0.414 0.082 0.211 0.203 0.425 0.352 0.636 0.129 0.215 0.297 0.352 0.512 0.418-0.129-0.172-0.235-0.382-0.321-0.64-0.105-0.235-0.148-0.406-0.129-0.512l0.418 0.672c0.168 0.277 0.328 0.457 0.481 0.543l-0.16-0.543c-0.086-0.277-0.078-0.492 0.031-0.641l0.48 0.801c0.235 0.297 0.469 0.524 0.704 0.672l-0.383-0.734c-0.153-0.278-0.215-0.481-0.196-0.61l0.289 0.543c0.149 0.235 0.332 0.426 0.543 0.578l-0.125-0.511c-0.066-0.258-0.074-0.493-0.035-0.707l0.258 0.511c0.106 0.258 0.344 0.59 0.703 0.992-0.043-0.062-0.117-0.328-0.222-0.796-0.086-0.45-0.129-0.79-0.129-1.028l0.449 0.832c0.172 0.301 0.363 0.492 0.574 0.578l-0.223-0.351c-0.043-0.11-0.062-0.321-0.062-0.641 0-0.148 0.008-0.289 0.031-0.418l0.352 0.707c0.172 0.383 0.457 0.766 0.863 1.153l-0.289-0.739c-0.082-0.297-0.082-0.605 0-0.925l0.578 0.605c-0.043-0.211-0.066-0.437-0.066-0.672-0.02-0.234 0.023-0.363 0.129-0.383 0.191 0.407 0.308 0.715 0.351 0.926 0.024 0.215 0.141 0.473 0.352 0.77-0.063-0.278-0.082-0.575-0.063-0.895 0.043-0.344 0.141-0.609 0.289-0.801 0.063 0.149 0.074 0.407 0.032 0.77l-0.129 0.734 0.418-0.64 0.285-0.672c0.086 0.129 0.109 0.277 0.066 0.449l-0.32 0.672 0.512-0.449 0.511-0.61c-0.062 0.321-0.191 0.629-0.383 0.93l-0.511 0.703 0.351-0.191c0.278-0.172 0.512-0.34 0.703-0.512 0.278-0.258 0.493-0.629 0.641-1.121 0.063 0.258 0.043 0.547-0.066 0.863-0.043 0.238-0.125 0.442-0.254 0.609l0.64-0.734c0.235-0.32 0.352-0.758 0.352-1.312z" inkscape:connector-curvature="0"/>
    </clipPath>
    <clipPath id="clipPath432">
      <path id="path434" d="m-931.57-1058.5h18.577v14.493h-18.577v-14.493z" inkscape:connector-curvature="0"/>
    </clipPath>
    <radialGradient id="radialGradient436" gradientUnits="userSpaceOnUse" cy="-1053.3" cx="-924.86" r="10.1">
      <stop id="stop438" style="stop-color:#ffffff" offset="0"/>
      <stop id="stop440" style="stop-color:#ffffff;stop-opacity:0" offset="1"/>
    </radialGradient>
    <mask id="mask442">
      <g id="g444">
        <g id="g446" clip-path="url(#clipPath432)">
          <path id="path448" style="fill:url(#radialGradient436)" d="m-931.57-1058.5h18.577v14.493h-18.577v-14.493z" inkscape:connector-curvature="0"/>
        </g>
      </g>
    </mask>
    <radialGradient id="radialGradient450" gradientUnits="userSpaceOnUse" cy="-1053.3" cx="-924.86" r="10.1">
      <stop id="stop452" style="stop-color:#ffffff" offset="0"/>
      <stop id="stop454" style="stop-color:#ffffff" offset="1"/>
    </radialGradient>
    <clipPath id="clipPath486">
      <path id="path488" d="m4 14.177h6v2h-6v-2z" inkscape:connector-curvature="0"/>
    </clipPath>
    <mask id="mask490">
      <g id="g492">
        <g id="g494" clip-path="url(#clipPath486)">
          <path id="path496" style="fill:#000000;fill-opacity:.30860" d="m4 14.177h6v2h-6v-2z" inkscape:connector-curvature="0"/>
        </g>
      </g>
    </mask>
    <clipPath id="clipPath502">
      <path id="path504" d="m4 14.177h6v2h-6v-2z" inkscape:connector-curvature="0"/>
    </clipPath>
    <clipPath id="clipPath506">
      <path id="path508" d="m4 15h6v2h-6v-2z" inkscape:connector-curvature="0"/>
    </clipPath>
    <linearGradient id="linearGradient536" y2="10.57" gradientUnits="userSpaceOnUse" x2="13.274" gradientTransform="matrix(.64 0 0 -.64 .0071125 23.159)" y1="10.148" x1="15.175">
      <stop id="stop538" style="stop-color:#69a815" offset="0"/>
      <stop id="stop540" style="stop-color:#508010" offset="1"/>
    </linearGradient>
    <linearGradient id="linearGradient554" y2="9.2938" gradientUnits="userSpaceOnUse" x2="12.409" gradientTransform="matrix(.64 0 0 -.64 .0071125 23.159)" y1="11.524" x1="14.177">
      <stop id="stop556" style="stop-color:#69a815" offset="0"/>
      <stop id="stop558" style="stop-color:#508010" offset="1"/>
    </linearGradient>
    <radialGradient id="radialGradient584" gradientUnits="userSpaceOnUse" cy="-6.4575" cx="41.86" gradientTransform="matrix(.52728 -.36264 .36264 .52728 4.6909 29.969)" r="15.838">
      <stop id="stop586" style="stop-color:#e63c39" offset="0"/>
      <stop id="stop588" style="stop-color:#821e00" offset="1"/>
    </radialGradient>
    <clipPath id="clipPath596">
      <path id="path598" d="m21 2.1772h5v11h-5v-11z" inkscape:connector-curvature="0"/>
    </clipPath>
    <mask id="mask600">
      <g id="g602">
        <g id="g604" clip-path="url(#clipPath596)">
          <path id="path606" style="fill:#000000;fill-opacity:.23830" d="m21 2.1772h5v11h-5v-11z" inkscape:connector-curvature="0"/>
        </g>
      </g>
    </mask>
    <clipPath id="clipPath612">
      <path id="path614" d="m21 2.1772h5v11h-5v-11z" inkscape:connector-curvature="0"/>
    </clipPath>
    <clipPath id="clipPath616">
      <path id="path618" d="m21 3h5v11h-5v-11z" inkscape:connector-curvature="0"/>
    </clipPath>
    <clipPath id="clipPath640">
      <path id="path642" d="m23 2.1772h12v14h-12v-14z" inkscape:connector-curvature="0"/>
    </clipPath>
    <mask id="mask644">
      <g id="g646">
        <g id="g648" clip-path="url(#clipPath640)">
          <path id="path650" style="fill:#000000;fill-opacity:.17190" d="m23 2.1772h12v14h-12v-14z" inkscape:connector-curvature="0"/>
        </g>
      </g>
    </mask>
    <clipPath id="clipPath656">
      <path id="path658" d="m23 2.1772h12v14h-12v-14z" inkscape:connector-curvature="0"/>
    </clipPath>
    <clipPath id="clipPath660">
      <path id="path662" d="m23 3h12v14h-12v-14z" inkscape:connector-curvature="0"/>
    </clipPath>
    <clipPath id="clipPath684">
      <path id="path686" d="m20 6.1772h11v8h-11v-8z" inkscape:connector-curvature="0"/>
    </clipPath>
    <mask id="mask688">
      <g id="g690">
        <g id="g692" clip-path="url(#clipPath684)">
          <path id="path694" style="fill:#000000;fill-opacity:.35940" d="m20 6.1772h11v8h-11v-8z" inkscape:connector-curvature="0"/>
        </g>
      </g>
    </mask>
    <clipPath id="clipPath700">
      <path id="path702" d="m20 6.1772h11v8h-11v-8z" inkscape:connector-curvature="0"/>
    </clipPath>
    <clipPath id="clipPath704">
      <path id="path706" d="m20 7h11v8h-11v-8z" inkscape:connector-curvature="0"/>
    </clipPath>
    <clipPath id="clipPath708">
      <path id="path710" d="m30.168 13.879c0.234-0.277 0.394-0.715 0.48-1.313 0.063-0.277 0.02-0.566-0.128-0.867l-0.192 0.61-0.258 0.418 0.16-0.672c0.067-0.321 0.032-0.782-0.093-1.379 0.019 0.234 0.008 0.512-0.035 0.832-0.02 0.191-0.118 0.43-0.286 0.707l-0.257 0.351c0.105-0.343 0.148-0.671 0.129-0.992-0.024-0.32-0.063-0.59-0.129-0.801-0.129 0.364-0.223 0.735-0.289 1.122-0.043 0.234-0.149 0.445-0.321 0.636l-0.254 0.227c0.043-0.363 0.063-0.781 0.063-1.25 0-0.488-0.051-0.926-0.16-1.313-0.106 0.301-0.192 0.61-0.254 0.93-0.024 0.191-0.117 0.418-0.289 0.672l-0.254 0.32 0.16-1.312c0.019-0.407 0-1.004-0.066-1.793l-0.29 1.793c-0.043 0.3-0.125 0.566-0.253 0.8l-0.161 0.254v-0.605l-0.097-0.641-0.063 0.575c-0.019 0.171-0.105 0.374-0.258 0.609l-0.191 0.289-0.512-2.496c-0.019 0.426-0.086 0.875-0.191 1.344l-0.414 1.183-0.32-1.664-0.61 1.567-0.062-0.543c-0.024-0.297-0.024-0.512 0-0.641l-0.227 0.32c-0.086 0.129-0.16 0.321-0.223 0.578l-0.062 0.321 0.031-0.93c0.063-0.34 0.149-0.641 0.254-0.895l-0.351 0.512c-0.129 0.192-0.254 0.5-0.383 0.926l-0.16 0.609c-0.106-0.172-0.192-0.437-0.258-0.8-0.082-0.34-0.074-0.735 0.035-1.184-0.086 0.129-0.172 0.352-0.258 0.672l-0.16 1.375c-0.106-0.149-0.246-0.735-0.414-1.758-0.195-1.004 0.008-2.102 0.605-3.297-0.148 0.086-0.394 0.703-0.734 1.856-0.344 1.132-0.461 2.187-0.352 3.168l-0.257-0.961c-0.043-0.364 0-0.778 0.129-1.246-0.106 0.171-0.204 0.468-0.29 0.894-0.086 0.449-0.086 0.973 0 1.57-0.21-0.707-0.308-1.484-0.289-2.336 0.024-0.855 0.246-1.558 0.672-2.113-0.383 0.258-0.672 0.938-0.863 2.047-0.211 1.109-0.234 1.934-0.063 2.465l-0.16-0.352c-0.105-0.215-0.172-0.554-0.191-1.023-0.109 0.191-0.141 0.598-0.098 1.215s0.289 1.121 0.739 1.504l-0.227-0.414c-0.082-0.129-0.16-0.301-0.223-0.512l0.289 0.414c0.082 0.129 0.18 0.223 0.286 0.289l-0.161-0.418c-0.062-0.168-0.05-0.32 0.036-0.445l0.32 0.703c0.105 0.211 0.265 0.371 0.476 0.48-0.105-0.191-0.199-0.418-0.285-0.672-0.066-0.277-0.086-0.46-0.066-0.546l0.351 0.707c0.153 0.296 0.301 0.5 0.45 0.605l-0.094-0.574c-0.067-0.278-0.043-0.504 0.062-0.672 0.106 0.254 0.254 0.543 0.45 0.863 0.191 0.34 0.402 0.598 0.636 0.77l-0.316-0.77c-0.129-0.301-0.184-0.511-0.16-0.64l0.254 0.578c0.129 0.234 0.3 0.445 0.511 0.636l-0.062-0.543c-0.043-0.277-0.043-0.523 0-0.734 0.062 0.106 0.137 0.297 0.223 0.574 0.085 0.258 0.289 0.61 0.609 1.059-0.043-0.066-0.086-0.344-0.129-0.832-0.063-0.492-0.074-0.844-0.031-1.059l0.351 0.864c0.172 0.32 0.364 0.535 0.575 0.64l-0.192-0.383c-0.062-0.105-0.074-0.32-0.031-0.64 0.019-0.149 0.043-0.289 0.062-0.414l0.289 0.734c0.149 0.426 0.407 0.852 0.77 1.281l-0.191-0.8c-0.086-0.301-0.067-0.622 0.062-0.961l0.512 0.671v-0.703c0.019-0.234 0.086-0.351 0.191-0.351 0.172 0.426 0.258 0.746 0.258 0.961 0.02 0.234 0.117 0.511 0.289 0.832-0.023-0.278-0.012-0.59 0.031-0.93 0.063-0.34 0.192-0.598 0.383-0.769 0.043 0.152 0.02 0.406-0.062 0.769l-0.196 0.734 0.481-0.636 0.351-0.641c0.086 0.149 0.098 0.309 0.035 0.481l-0.386 0.671 0.578-0.418 0.574-0.605c-0.086 0.316-0.242 0.629-0.48 0.926l-0.606 0.672 0.383-0.16c0.32-0.149 0.574-0.297 0.77-0.45 0.32-0.254 0.574-0.617 0.765-1.086 0.024 0.254-0.019 0.543-0.129 0.864-0.082 0.234-0.199 0.437-0.351 0.609l0.738-0.703z" inkscape:connector-curvature="0"/>
    </clipPath>
    <clipPath id="clipPath712">
      <path id="path714" d="m-281.28-297.09h17.614v13.094h-17.614v-13.094z" inkscape:connector-curvature="0"/>
    </clipPath>
    <radialGradient id="radialGradient716" gradientUnits="userSpaceOnUse" cy="-293.51" cx="-275.08" r="10.369">
      <stop id="stop718" style="stop-color:#ffffff" offset="0"/>
      <stop id="stop720" style="stop-color:#ffffff;stop-opacity:0" offset="1"/>
    </radialGradient>
    <mask id="mask722">
      <g id="g724">
        <g id="g726" clip-path="url(#clipPath712)">
          <path id="path728" style="fill:url(#radialGradient716)" d="m-281.28-297.09h17.614v13.094h-17.614v-13.094z" inkscape:connector-curvature="0"/>
        </g>
      </g>
    </mask>
    <radialGradient id="radialGradient730" gradientUnits="userSpaceOnUse" cy="-293.51" cx="-275.08" r="10.369">
      <stop id="stop732" style="stop-color:#ffffff" offset="0"/>
      <stop id="stop734" style="stop-color:#ffffff" offset="1"/>
    </radialGradient>
    <clipPath id="clipPath766">
      <path id="path768" d="m24 14.177h5v2h-5v-2z" inkscape:connector-curvature="0"/>
    </clipPath>
    <mask id="mask770">
      <g id="g772">
        <g id="g774" clip-path="url(#clipPath766)">
          <path id="path776" style="fill:#000000;fill-opacity:.30860" d="m24 14.177h5v2h-5v-2z" inkscape:connector-curvature="0"/>
        </g>
      </g>
    </mask>
    <clipPath id="clipPath782">
      <path id="path784" d="m24 14.177h5v2h-5v-2z" inkscape:connector-curvature="0"/>
    </clipPath>
    <clipPath id="clipPath786">
      <path id="path788" d="m24 15h5v2h-5v-2z" inkscape:connector-curvature="0"/>
    </clipPath>
    <clipPath id="clipPath814">
      <path id="path816" d="m27 15.177h3v1h-3v-1z" inkscape:connector-curvature="0"/>
    </clipPath>
    <mask id="mask818">
      <g id="g820">
        <g id="g822" clip-path="url(#clipPath814)">
          <path id="path824" style="fill:#000000;fill-opacity:.60940" d="m27 15.177h3v1h-3v-1z" inkscape:connector-curvature="0"/>
        </g>
      </g>
    </mask>
    <clipPath id="clipPath830">
      <path id="path832" d="m27 15.177h3v1h-3v-1z" inkscape:connector-curvature="0"/>
    </clipPath>
    <clipPath id="clipPath834">
      <path id="path836" d="m27 16h3v1h-3v-1z" inkscape:connector-curvature="0"/>
    </clipPath>
    <radialGradient id="radialGradient872" gradientUnits="userSpaceOnUse" cy="2.312" cx="29.822" gradientTransform="matrix(.48912 -.41272 .41272 .48912 -1.9009 20.897)" r="16.552">
      <stop id="stop874" style="stop-color:#e63c39" offset="0"/>
      <stop id="stop876" style="stop-color:#821e00" offset="1"/>
    </radialGradient>
    <clipPath id="clipPath884">
      <path id="path886" d="m11-0.8228h13v15h-13v-15z" inkscape:connector-curvature="0"/>
    </clipPath>
    <mask id="mask888">
      <g id="g890">
        <g id="g892" clip-path="url(#clipPath884)">
          <path id="path894" style="fill:#000000;fill-opacity:.17190" d="m11-0.8228h13v15h-13v-15z" inkscape:connector-curvature="0"/>
        </g>
      </g>
    </mask>
    <clipPath id="clipPath900">
      <path id="path902" d="m11-0.8228h13v15h-13v-15z" inkscape:connector-curvature="0"/>
    </clipPath>
    <clipPath id="clipPath904">
      <path id="path906" d="m11 0h13v15h-13v-15z" inkscape:connector-curvature="0"/>
    </clipPath>
    <clipPath id="clipPath928">
      <path id="path930" d="m9 4.1772h12v9h-12v-9z" inkscape:connector-curvature="0"/>
    </clipPath>
    <mask id="mask932">
      <g id="g934">
        <g id="g936" clip-path="url(#clipPath928)">
          <path id="path938" style="fill:#000000;fill-opacity:.35940" d="m9 4.1772h12v9h-12v-9z" inkscape:connector-curvature="0"/>
        </g>
      </g>
    </mask>
    <clipPath id="clipPath944">
      <path id="path946" d="m9 4.1772h12v9h-12v-9z" inkscape:connector-curvature="0"/>
    </clipPath>
    <clipPath id="clipPath948">
      <path id="path950" d="m9 5h12v9h-12v-9z" inkscape:connector-curvature="0"/>
    </clipPath>
    <clipPath id="clipPath952">
      <path id="path954" d="m19.422 10.91c0.066 0.278 0.055 0.586-0.031 0.93-0.063 0.254-0.172 0.476-0.321 0.672l0.703-0.801c0.215-0.301 0.344-0.77 0.387-1.41 0.02-0.297-0.066-0.598-0.258-0.895l-0.129 0.641c-0.019 0.129-0.062 0.246-0.125 0.351l-0.097 0.129 0.097-0.738c0.043-0.34-0.035-0.809-0.226-1.406l0.035 0.863c0 0.192-0.078 0.449-0.227 0.77l-0.222 0.382c0.086-0.382 0.094-0.738 0.031-1.054-0.062-0.321-0.137-0.59-0.223-0.801-0.086 0.383-0.14 0.777-0.16 1.184-0.023 0.234-0.117 0.468-0.289 0.703l-0.222 0.258-0.098-1.313c-0.043-0.512-0.137-0.949-0.289-1.313-0.082 0.297-0.137 0.618-0.16 0.961-0.02 0.192-0.094 0.438-0.223 0.735l-0.223 0.351v-1.375c0-0.425-0.086-1.046-0.257-1.855l-0.129 1.887c-0.02 0.511-0.125 0.894-0.321 1.152l-0.191-1.313-0.031 0.61c-0.02 0.191-0.086 0.414-0.192 0.672l-0.16 0.32-0.801-2.562c0.024 0.468 0 0.949-0.062 1.441-0.043 0.301-0.11 0.598-0.192 0.894l-0.128 0.352-0.512-1.695-0.098 0.48-0.383 1.215-0.097-0.543c-0.063-0.32-0.082-0.543-0.063-0.672l-0.191 0.383c-0.086 0.152-0.149 0.355-0.192 0.609l-0.035 0.352-0.062-0.961c0.043-0.383 0.097-0.703 0.16-0.957l-0.289 0.543c-0.125 0.215-0.235 0.543-0.321 0.992l-0.093 0.641c-0.129-0.172-0.246-0.426-0.352-0.77-0.129-0.363-0.16-0.777-0.098-1.246-0.062 0.149-0.128 0.383-0.191 0.703v1.442c-0.129-0.129-0.34-0.715-0.641-1.762-0.191-0.66-0.203-1.441-0.031-2.336 0.086-0.469 0.192-0.863 0.321-1.184-0.149 0.129-0.332 0.801-0.543 2.016-0.235 1.215-0.258 2.336-0.067 3.359-0.148-0.277-0.265-0.609-0.351-0.992-0.086-0.363-0.086-0.801 0-1.312-0.106 0.191-0.18 0.523-0.223 0.992-0.024 0.449 0.031 0.98 0.16 1.601-0.277-0.726-0.449-1.527-0.512-2.402-0.086-0.875 0.075-1.621 0.481-2.238-0.363 0.277-0.598 1.004-0.707 2.176-0.106 1.172-0.039 2.027 0.191 2.558l-0.191-0.316c-0.149-0.215-0.254-0.567-0.32-1.059-0.083 0.215-0.075 0.641 0.035 1.281 0.105 0.641 0.414 1.141 0.925 1.504l-0.289-0.418c-0.105-0.105-0.191-0.277-0.254-0.511l0.321 0.418c0.086 0.129 0.191 0.211 0.32 0.254l-0.226-0.415c-0.082-0.171-0.082-0.32 0-0.449 0.109 0.235 0.238 0.461 0.386 0.672 0.168 0.235 0.36 0.383 0.574 0.449-0.128-0.191-0.246-0.418-0.351-0.672-0.106-0.277-0.149-0.46-0.129-0.542l0.449 0.703c0.172 0.297 0.34 0.488 0.512 0.574l-0.16-0.574c-0.106-0.301-0.106-0.535 0-0.703l0.543 0.863c0.234 0.32 0.492 0.555 0.769 0.703l-0.449-0.77c-0.148-0.296-0.211-0.519-0.191-0.671l0.32 0.578c0.148 0.254 0.34 0.468 0.574 0.64l-0.125-0.578c-0.066-0.277-0.086-0.523-0.066-0.734l0.289 0.543c0.129 0.277 0.383 0.629 0.769 1.054-0.066-0.062-0.148-0.351-0.257-0.863-0.106-0.488-0.149-0.851-0.129-1.086l0.48 0.863c0.192 0.321 0.406 0.524 0.641 0.606l-0.254-0.383c-0.067-0.105-0.086-0.332-0.067-0.672 0-0.148 0.012-0.297 0.032-0.449 0.023 0.109 0.14 0.363 0.351 0.77 0.196 0.406 0.504 0.82 0.93 1.25l-0.289-0.832c-0.106-0.301-0.117-0.629-0.031-0.993l0.64 0.672c-0.062-0.258-0.097-0.504-0.097-0.738 0-0.254 0.054-0.395 0.16-0.414 0.215 0.445 0.344 0.777 0.386 0.992 0.02 0.234 0.149 0.512 0.383 0.832-0.086-0.301-0.105-0.621-0.062-0.961 0.019-0.363 0.117-0.652 0.285-0.863 0.086 0.148 0.098 0.414 0.031 0.801l-0.125 0.797 0.446-0.704 0.289-0.703c0.109 0.149 0.128 0.309 0.066 0.481-0.066 0.277-0.172 0.523-0.32 0.734l0.543-0.48 0.543-0.672c-0.063 0.344-0.204 0.672-0.414 0.992l-0.512 0.77 0.383-0.227c0.296-0.168 0.543-0.352 0.734-0.543 0.301-0.277 0.523-0.684 0.672-1.215z" inkscape:connector-curvature="0"/>
    </clipPath>
    <clipPath id="clipPath956">
      <path id="path958" d="m-1012.6-1164.1h20.449v16.426h-20.449v-16.426z" inkscape:connector-curvature="0"/>
    </clipPath>
    <radialGradient id="radialGradient960" gradientUnits="userSpaceOnUse" cy="-1158.5" cx="-1005.7" r="10.833">
      <stop id="stop962" style="stop-color:#ffffff" offset="0"/>
      <stop id="stop964" style="stop-color:#ffffff;stop-opacity:0" offset="1"/>
    </radialGradient>
    <mask id="mask966">
      <g id="g968">
        <g id="g970" clip-path="url(#clipPath956)">
          <path id="path972" style="fill:url(#radialGradient960)" d="m-1012.6-1164.1h20.449v16.426h-20.449v-16.426z" inkscape:connector-curvature="0"/>
        </g>
      </g>
    </mask>
    <radialGradient id="radialGradient974" gradientUnits="userSpaceOnUse" cy="-1158.5" cx="-1005.7" r="10.833">
      <stop id="stop976" style="stop-color:#ffffff" offset="0"/>
      <stop id="stop978" style="stop-color:#ffffff" offset="1"/>
    </radialGradient>
    <clipPath id="clipPath1010">
      <path id="path1012" d="m13 12.177h6v2h-6v-2z" inkscape:connector-curvature="0"/>
    </clipPath>
    <mask id="mask1014">
      <g id="g1016">
        <g id="g1018" clip-path="url(#clipPath1010)">
          <path id="path1020" style="fill:#000000;fill-opacity:.30860" d="m13 12.177h6v2h-6v-2z" inkscape:connector-curvature="0"/>
        </g>
      </g>
    </mask>
    <clipPath id="clipPath1026">
      <path id="path1028" d="m13 12.177h6v2h-6v-2z" inkscape:connector-curvature="0"/>
    </clipPath>
    <clipPath id="clipPath1030">
      <path id="path1032" d="m13 13h6v2h-6v-2z" inkscape:connector-curvature="0"/>
    </clipPath>
    <linearGradient id="linearGradient1060" y2="18.131" gradientUnits="userSpaceOnUse" x2="18.661" gradientTransform="matrix(.62184 .15144 .15144 -.62184 .0072649 23.159)" y1="18.131" x1="16.654">
      <stop id="stop1062" style="stop-color:#69a815" offset="0"/>
      <stop id="stop1064" style="stop-color:#508010" offset="1"/>
    </linearGradient>
    <linearGradient id="linearGradient1078" y2="-9.2539" gradientUnits="userSpaceOnUse" x2="26.55" gradientTransform="matrix(.4044 -.49608 -.49608 -.4044 .0068834 23.159)" y1="-9.2539" x1="23.583">
      <stop id="stop1080" style="stop-color:#69a815" offset="0"/>
      <stop id="stop1082" style="stop-color:#508010" offset="1"/>
    </linearGradient>
    <clipPath id="clipPath1094">
      <path id="path1096" d="m17 13.177h2v1h-2v-1z" inkscape:connector-curvature="0"/>
    </clipPath>
    <mask id="mask1098">
      <g id="g1100">
        <g id="g1102" clip-path="url(#clipPath1094)">
          <path id="path1104" style="fill:#000000;fill-opacity:.60940" d="m17 13.177h2v1h-2v-1z" inkscape:connector-curvature="0"/>
        </g>
      </g>
    </mask>
    <clipPath id="clipPath1110">
      <path id="path1112" d="m17 13.177h2v1h-2v-1z" inkscape:connector-curvature="0"/>
    </clipPath>
    <clipPath id="clipPath1114">
      <path id="path1116" d="m17 14h2v1h-2v-1z" inkscape:connector-curvature="0"/>
    </clipPath>
  </defs>
  <g id="g10" transform="matrix(1.25 0 0 -1.25 0 28.972)">
    <g id="g12">
      <g id="g14">
        <g id="g16">
          <g id="g22">
            <path id="path30" style="fill-rule:evenodd;fill:url(#radialGradient24)" d="m26.918 19.669c1.602-1.066 2.305-2.718 2.113-4.957-0.148-1.879-0.777-3.543-1.886-4.992-0.813-1.023-1.45-1.539-1.922-1.539-0.446 0.172-0.844 0.184-1.184 0.035-0.68-0.301-1.227-0.472-1.629-0.515-0.578-0.063-1.133 0.078-1.664 0.418-0.621 0.019-1.101 0.054-1.441 0.097-0.66 0.043-1.442 0.746-2.336 2.11-1.172 1.836-1.664 3.714-1.473 5.632 0.172 1.75 0.813 2.954 1.922 3.618 0.746 0.425 1.566 0.66 2.461 0.703 0.516 0.023 1.187 0 2.019-0.063 0.957 0.02 1.942 0.074 2.942 0.16 0.68 0 1.375-0.234 2.078-0.707z" inkscape:connector-curvature="0"/>
          </g>
        </g>
      </g>
      <g id="g32">
        <g id="g48" mask="url(#mask40)">
          <g id="g60">
            <g id="g62" clip-path="url(#clipPath52)">
              <g id="g64" transform="translate(0 -.82280)">
                <g id="g68">
                  <g id="g70" clip-path="url(#clipPath56)">
                    <g id="g72">
                      <path id="path74" style="fill-rule:evenodd;fill:#ffffff" d="m24.438 20.949c0.343-0.105 0.312-0.137-0.094-0.094-0.215 0.043-0.555 0.008-1.024-0.097h-0.129c-0.105 0.019-0.054 0.062 0.161 0.129 0.492 0.105 0.851 0.129 1.086 0.062z" inkscape:connector-curvature="0"/>
                    </g>
                  </g>
                </g>
              </g>
            </g>
          </g>
        </g>
      </g>
      <g id="g76">
        <g id="g92" mask="url(#mask84)">
          <g id="g104">
            <g id="g106" clip-path="url(#clipPath96)">
              <g id="g108" transform="translate(0 -.82280)">
                <g id="g112">
                  <g id="g114" clip-path="url(#clipPath100)">
                    <g id="g116">
                      <path id="path118" style="fill-rule:evenodd;fill:#000000" d="m23.648 9.703c0.079 0.086 0.168 0.184 0.27 0.285-0.027 0.02-0.063 0.043-0.094 0.067-0.019-0.059-0.043-0.114-0.066-0.16-0.039-0.083-0.078-0.149-0.11-0.192zm-0.128 0.543c-0.11 0.066-0.215 0.137-0.321 0.207l-0.113-0.785 0.32 0.418c0.035 0.047 0.074 0.098 0.114 0.16zm-1.711 0.129c0.019-0.387 0.082-0.629 0.191-0.738l0.062 0.578c0.024 0.168 0.055 0.32 0.098 0.445l0.094 0.16 0.035-0.765c0-0.235 0.051-0.45 0.156-0.641 0.067 0.297 0.184 0.66 0.356 1.086 0.019 0.055 0.047 0.109 0.078 0.16-0.375 0.254-0.738 0.508-1.086 0.77l0.016-1.055zm5.117 10.109c1.601-1.066 2.304-2.718 2.113-4.961-0.148-1.875-0.777-3.539-1.887-4.988-0.812-1.027-1.453-1.539-1.922-1.539-0.449 0.172-0.843 0.184-1.183 0.035-0.684-0.301-1.227-0.472-1.633-0.515-0.574-0.063-1.129 0.078-1.664 0.418-0.211 0.148-0.574 0.179-1.086 0.097-0.449-0.066-0.875 0.074-1.281 0.414l-0.094 0.895 0.191-0.606c0.082-0.257 0.235-0.386 0.446-0.386l-0.223 0.64 0.031 0.864 0.129-0.446c0.043-0.234 0.117-0.344 0.223-0.32v0.223l0.191 0.863 0.161-1.086c0.085-0.34 0.214-0.469 0.386-0.383l-0.031 0.445 0.094 0.481 0.191-0.832c0.086-0.254 0.172-0.289 0.258-0.094l-0.031 1.024c0 0.253 0.031 0.5 0.093 0.734l0.098 0.289 0.031-1.41c0-0.402 0.161-0.66 0.481-0.766-0.067 0.254-0.098 0.5-0.098 0.735l0.031 0.543 0.161-0.797c0.043-0.192 0.152-0.344 0.32-0.45v0.993c-0.02 0.191 0.035 0.457 0.16 0.8l0.066 0.125c-0.089 0.067-0.175 0.133-0.257 0.196-1.579 1.238-1.719 2.324-0.414 3.261 1.554 1.133 3.199 1.43 4.925 0.899 0.856-0.258 1.559-0.629 2.114-1.121 0.382 1.43 0.449 2.601 0.191 3.519-0.086 0.426-0.289 0.875-0.609 1.344-0.469 0.684-1.086 1.164-1.856 1.441 0.278-0.085 0.672-0.277 1.184-0.578z" inkscape:connector-curvature="0"/>
                    </g>
                  </g>
                </g>
              </g>
            </g>
          </g>
        </g>
      </g>
      <g id="g120">
        <g id="g136" mask="url(#mask128)">
          <g id="g176">
            <g id="g178" clip-path="url(#clipPath140)">
              <g id="g180" transform="translate(0 -.82280)">
                <g id="g184">
                  <g id="g186" clip-path="url(#clipPath144)">
                    <g id="g188">
                      <g id="g190">
                        <g id="g192" clip-path="url(#clipPath148)">
                          <g id="g194" transform="matrix(.63526 -.077504 -.076544 -.62752 525.64 -713.4)">
                            <g id="g198" mask="url(#mask162)">
                              <path id="path200" style="fill-rule:evenodd;fill:url(#radialGradient170)" d="m25.879 17.191c0.023-0.257-0.055-0.523-0.223-0.8l-0.129 0.574c-0.019 0.129-0.062 0.234-0.129 0.32l-0.093 0.129 0.125-0.672c0.023-0.32-0.051-0.758-0.223-1.312 0.043 0.234 0.055 0.5 0.031 0.8 0 0.192-0.062 0.426-0.191 0.704l-0.223 0.351 0.031-0.961-0.191-0.765-0.191 1.086c-0.024 0.363-0.184 0.664-0.481 0.898l-0.066-1.219c-0.02-0.445-0.106-0.851-0.254-1.215-0.067 0.278-0.11 0.579-0.129 0.895-0.02 0.195-0.105 0.418-0.254 0.672l-0.195 0.32 0.035-1.246c-0.024-0.383-0.098-0.949-0.227-1.695l-0.129 1.726c-0.019 0.301-0.082 0.555-0.191 0.77l-0.125 0.254-0.195-1.184-0.032 0.543c0 0.172-0.05 0.375-0.16 0.609l-0.16 0.289-0.703-2.335c0 0.425-0.031 0.863-0.098 1.312l-0.285 1.152-0.449-1.57c0 0.109-0.043 0.258-0.129 0.449l-0.32 1.086-0.125-0.48c-0.043-0.297-0.055-0.5-0.035-0.606l-0.192 0.321c-0.062 0.129-0.117 0.308-0.16 0.543l-0.031 0.32-0.063-0.863 0.16-0.864-0.289 0.512c-0.105 0.191-0.203 0.488-0.289 0.895l-0.129 0.574c-0.082-0.149-0.179-0.383-0.285-0.703-0.109-0.34-0.129-0.723-0.066-1.153-0.063 0.129-0.125 0.352-0.192 0.672l-0.031 1.313c-0.105-0.129-0.301-0.672-0.574-1.633-0.258-0.957-0.152-2.024 0.316-3.199-0.125 0.109-0.308 0.715-0.543 1.824-0.21 1.109-0.234 2.125-0.062 3.039-0.129-0.254-0.234-0.555-0.32-0.895-0.086-0.339-0.086-0.734 0-1.183-0.086 0.172-0.149 0.469-0.192 0.894-0.043 0.43 0 0.918 0.125 1.473-0.254-0.66-0.414-1.395-0.476-2.207-0.043-0.789 0.117-1.473 0.476-2.047-0.34 0.277-0.562 0.949-0.672 2.016-0.105 1.066-0.05 1.843 0.161 2.336l-0.192-0.289c-0.129-0.215-0.223-0.543-0.285-0.993-0.066 0.192-0.055 0.586 0.031 1.184 0.106 0.578 0.383 1.023 0.832 1.344-0.066-0.129-0.148-0.246-0.258-0.352-0.105-0.105-0.179-0.265-0.222-0.48l0.289 0.386c0.082 0.106 0.179 0.18 0.285 0.223l-0.191-0.383c-0.086-0.152-0.086-0.289 0-0.418l0.351 0.641c0.149 0.211 0.32 0.352 0.512 0.414l-0.32-0.605c-0.082-0.258-0.118-0.43-0.094-0.512l0.383 0.64c0.171 0.274 0.332 0.457 0.48 0.543l-0.16-0.543c-0.063-0.257-0.055-0.472 0.031-0.64 0.11 0.234 0.27 0.5 0.481 0.801 0.234 0.296 0.468 0.519 0.703 0.672l-0.383-0.739c-0.149-0.254-0.215-0.449-0.191-0.574l0.289 0.512c0.148 0.234 0.32 0.425 0.511 0.574l-0.097-0.512c-0.063-0.254-0.075-0.492-0.032-0.703l0.254 0.512c0.11 0.258 0.332 0.586 0.672 0.992-0.039-0.062-0.105-0.332-0.191-0.801-0.106-0.449-0.149-0.777-0.125-0.992l0.414 0.801c0.191 0.277 0.394 0.457 0.609 0.543l-0.226-0.321c-0.063-0.105-0.082-0.308-0.063-0.605 0-0.152 0.012-0.289 0.031-0.418l0.321 0.672c0.191 0.387 0.48 0.769 0.863 1.152l-0.285-0.765c-0.086-0.278-0.086-0.578 0-0.899l0.16 0.192 0.414 0.418c-0.043-0.215-0.062-0.438-0.062-0.672-0.024-0.215 0.019-0.332 0.125-0.352 0.195 0.402 0.312 0.703 0.355 0.895 0.02 0.214 0.137 0.457 0.352 0.734-0.067-0.254-0.086-0.543-0.067-0.863 0.024-0.321 0.117-0.574 0.289-0.766 0.063 0.149 0.063 0.395 0 0.735l-0.097 0.703 0.418-0.606 0.253-0.64c0.11 0.128 0.129 0.265 0.067 0.414-0.067 0.257-0.16 0.48-0.289 0.671l0.48-0.445c0.215-0.195 0.395-0.387 0.543-0.578-0.062 0.301-0.203 0.598-0.414 0.898l-0.48 0.704 0.351-0.192c0.278-0.172 0.5-0.344 0.672-0.512 0.277-0.257 0.5-0.621 0.672-1.089 0.043 0.234 0.02 0.511-0.062 0.832-0.067 0.234-0.161 0.437-0.29 0.609l0.641-0.707c0.211-0.297 0.34-0.734 0.383-1.309z" inkscape:connector-curvature="0"/>
                            </g>
                          </g>
                        </g>
                      </g>
                    </g>
                  </g>
                </g>
              </g>
            </g>
          </g>
        </g>
      </g>
      <g id="g202">
        <g id="g218" mask="url(#mask210)">
          <g id="g230">
            <g id="g232" clip-path="url(#clipPath222)">
              <g id="g234" transform="translate(0 -.82280)">
                <g id="g238">
                  <g id="g240" clip-path="url(#clipPath226)">
                    <g id="g242">
                      <path id="path244" style="fill-rule:evenodd;fill:#000000" d="m20.168 20.598c0.598 0.257 1.141 0.246 1.633-0.032 0.105-0.066 0.203-0.054 0.285 0.032 0.109 0.105 0.234 0.16 0.387 0.16 0.32 0 0.617-0.055 0.894-0.16 0.129 0 0.735 0.129 1.824 0.382-0.062-0.21-0.246-0.371-0.543-0.48-0.468-0.211-1.367-0.297-2.687-0.254-0.813 0.02-1.41 0.137-1.793 0.352z" inkscape:connector-curvature="0"/>
                    </g>
                  </g>
                </g>
              </g>
            </g>
          </g>
        </g>
      </g>
      <g id="g246">
        <g id="g248">
          <g id="g254">
            <path id="path262" style="fill-rule:evenodd;fill:url(#linearGradient256)" d="m25.766 22.486c-0.043-0.383-0.168-0.789-0.383-1.215-0.449-0.856-1.117-1.375-2.016-1.566l-1.25-0.196c-0.082-0.039-0.105 0.055-0.062 0.289 0.105 0.66 0.789 1.133 2.047 1.41 0.769 0.149 1.324 0.575 1.664 1.278z" inkscape:connector-curvature="0"/>
          </g>
        </g>
      </g>
      <g id="g264">
        <g id="g266">
          <g id="g272">
            <path id="path280" style="fill-rule:evenodd;fill:url(#linearGradient274)" d="m24.102 21.208c0.769 0.149 1.324 0.575 1.664 1.278v-0.031c-0.321-0.747-0.875-1.29-1.664-1.633-0.747-0.321-1.215-0.532-1.407-0.641-0.32-0.191-0.535-0.402-0.64-0.637-0.02 0.02-0.02 0.106 0 0.254 0.105 0.66 0.789 1.133 2.047 1.41z" inkscape:connector-curvature="0"/>
          </g>
        </g>
      </g>
      <path id="path282" style="fill-rule:evenodd;fill:#ffffff" d="m20.773 17.013c0.192-0.148 0.11-0.242-0.253-0.285-0.301-0.023-0.618-0.012-0.961 0.031-0.661 0.063-1.121 0.129-1.375 0.192-0.407 0.129-0.383 0.269 0.062 0.418 0.406 0.129 0.93 0.086 1.57-0.129 0.168-0.043 0.372-0.086 0.606-0.129 0.152 0 0.269-0.031 0.351-0.098z" inkscape:connector-curvature="0"/>
      <path id="path284" style="fill-rule:evenodd;fill:#ffffff" d="m17.414 17.369c0.215-0.024 0.289-0.079 0.223-0.161-0.125-0.109-0.211-0.171-0.254-0.195-0.043-0.039-0.106-0.051-0.192-0.031-0.105 0.023-0.183 0.074-0.222 0.16-0.067 0.148 0.082 0.227 0.445 0.227z" inkscape:connector-curvature="0"/>
      <path id="path286" style="fill-rule:evenodd;fill:#7d6630" d="m22.086 21.72c-0.02-0.258-0.02-0.597 0-1.023 0.043-0.43 0.098-0.707 0.16-0.832l0.16-0.356h-0.191l-0.129 0.098c-0.34 0.961-0.5 1.695-0.481 2.207 0.024 0.512 0.075 0.906 0.161 1.184v0.066l0.418-0.066c0.234 0 0.375 0.023 0.414 0.066-0.321-0.555-0.489-1.004-0.512-1.344z" inkscape:connector-curvature="0"/>
      <path id="path288" style="fill-rule:evenodd;fill:#614f25" d="m22.598 23.064c-0.321-0.555-0.489-1.004-0.512-1.344-0.02-0.258-0.02-0.597 0-1.023 0.043-0.43 0.098-0.707 0.16-0.832l0.16-0.356h-0.191l-0.129 0.098-0.289 0.93 0.258-0.641c-0.172 0.723-0.258 1.215-0.258 1.473 0 0.234 0.035 0.445 0.098 0.636v-0.511c0-0.278 0.031-0.606 0.097-0.993 0.063-0.382 0.168-0.671 0.317-0.863-0.125 0.363-0.204 0.629-0.223 0.801-0.106 0.789-0.117 1.375-0.031 1.762l0.093 0.797h0.036c0.234 0 0.375 0.023 0.414 0.066z" inkscape:connector-curvature="0"/>
      <path id="path290" style="fill-rule:evenodd;fill:#c9a44d" d="m22.023 22.775c0.043-0.024-0.011-0.149-0.16-0.383 0-0.258-0.019-0.504-0.062-0.738 0-0.043-0.012-0.223-0.035-0.543 0-0.149-0.008-0.137-0.032 0.031-0.062 0.449-0.043 0.93 0.067 1.441 0.043 0.149 0.074 0.235 0.094 0.254 0.023 0.024 0.062 0 0.128-0.062z" inkscape:connector-curvature="0"/>
      <path id="path292" style="fill-rule:evenodd;fill:#c9a44d" d="m22.375 22.935c-0.148-0.02-0.266-0.02-0.352 0l-0.257 0.129 0.418 0.094c0.449 0.043 0.586 0.011 0.418-0.094-0.067-0.086-0.141-0.129-0.227-0.129z" inkscape:connector-curvature="0"/>
      <g id="g294">
        <g id="g296">
          <g id="g302">
            <path id="path310" style="fill-rule:evenodd;fill:url(#radialGradient304)" d="m6.473 15.669c0.98 0 1.98 0.043 3.007 0.129 0.661 0 1.352-0.234 2.079-0.703 1.621-1.086 2.336-2.773 2.144-5.055-0.148-1.921-0.789-3.617-1.918-5.089-0.812-1.067-1.465-1.598-1.953-1.598-0.449 0.191-0.844 0.215-1.184 0.062-0.683-0.32-1.226-0.5-1.632-0.542-0.578-0.043-1.133 0.105-1.664 0.445-0.215 0.152-0.469 0.203-0.77 0.16-0.426-0.063-0.66-0.094-0.703-0.094-0.66 0.043-1.438 0.766-2.336 2.176-1.195 1.879-1.695 3.785-1.504 5.727 0.191 1.793 0.844 3.019 1.953 3.683 0.746 0.445 1.578 0.692 2.496 0.735 0.489 0.019 1.153 0.007 1.985-0.036z" inkscape:connector-curvature="0"/>
          </g>
        </g>
      </g>
      <g id="g312">
        <g id="g328" mask="url(#mask320)">
          <g id="g340">
            <g id="g342" clip-path="url(#clipPath332)">
              <g id="g344" transform="translate(0 -.82280)">
                <g id="g348">
                  <g id="g350" clip-path="url(#clipPath336)">
                    <g id="g352">
                      <path id="path354" style="fill-rule:evenodd;fill:#ffffff" d="m9.07 16.391c0.492-0.129 0.45-0.149-0.129-0.067-0.211 0.024-0.554-0.019-1.023-0.125l-0.129 0.031c-0.062 0-0.082 0.012-0.062 0.032 0.043 0.019 0.128 0.043 0.257 0.062 0.489 0.11 0.852 0.129 1.086 0.067z" inkscape:connector-curvature="0"/>
                    </g>
                  </g>
                </g>
              </g>
            </g>
          </g>
        </g>
      </g>
      <g id="g356">
        <g id="g372" mask="url(#mask364)">
          <g id="g384">
            <g id="g386" clip-path="url(#clipPath376)">
              <g id="g388" transform="translate(0 -.82280)">
                <g id="g392">
                  <g id="g394" clip-path="url(#clipPath380)">
                    <g id="g396">
                      <path id="path398" style="fill-rule:evenodd;fill:#000000" d="m11.551 15.926c1.621-1.09 2.336-2.774 2.144-5.059-0.148-1.918-0.789-3.613-1.922-5.086-0.808-1.066-1.461-1.601-1.949-1.601-0.449 0.195-0.844 0.215-1.183 0.066-0.684-0.32-1.231-0.504-1.633-0.547-0.578-0.039-1.133 0.11-1.664 0.449-0.235 0.149-0.598 0.184-1.09 0.098-0.469-0.066-0.906 0.074-1.313 0.414l-0.093 0.93 0.191-0.641c0.086-0.258 0.234-0.383 0.449-0.383l-0.226 0.641 0.031 0.895 0.129-0.45c0.043-0.234 0.129-0.34 0.258-0.32v0.227l0.16 0.863 0.191-1.121c0.086-0.34 0.203-0.469 0.352-0.383l-0.031 0.445 0.093 0.516 0.196-0.867c0.082-0.278 0.179-0.309 0.285-0.094l-0.063 1.023c0 0.254 0.043 0.512 0.129 0.77l0.094 0.285 0.031-1.406c0-0.426 0.16-0.695 0.481-0.801-0.082 0.258-0.125 0.5-0.125 0.734l0.062 0.579 0.129-0.832c0.063-0.192 0.18-0.344 0.352-0.45l-0.032 1.024c0 0.195 0.063 0.461 0.192 0.801l0.191 0.449 0.031-1.504c0.024-0.383 0.086-0.629 0.192-0.738l0.066 0.578c0.02 0.191 0.051 0.351 0.094 0.48l0.098 0.129 0.031-0.769c0-0.235 0.055-0.461 0.16-0.672 0.063 0.32 0.18 0.703 0.352 1.152 0.105 0.254 0.246 0.52 0.418 0.801l0.222 0.351-0.32-2.015 0.289 0.414c0.121 0.16 0.27 0.422 0.445 0.785-0.035 0.476-0.07 0.969-0.093 1.488-0.086 1.707 0.363 3.188 1.343 4.446 0.407 0.511 1.012 0.343 1.825-0.512 0.425-0.426 0.8-0.906 1.121-1.438 0.359 1.45 0.437 2.657 0.222 3.614-0.129 0.468-0.34 0.918-0.64 1.343-0.493 0.707-1.11 1.196-1.856 1.473 0.278-0.086 0.672-0.277 1.184-0.574z" inkscape:connector-curvature="0"/>
                    </g>
                  </g>
                </g>
              </g>
            </g>
          </g>
        </g>
      </g>
      <g id="g400">
        <g id="g416" mask="url(#mask408)">
          <g id="g456">
            <g id="g458" clip-path="url(#clipPath420)">
              <g id="g460" transform="translate(0 -.82280)">
                <g id="g464">
                  <g id="g466" clip-path="url(#clipPath424)">
                    <g id="g468">
                      <g id="g470">
                        <g id="g472" clip-path="url(#clipPath428)">
                          <g id="g474" transform="matrix(.63526 -.077632 -.077632 -.63526 509.78 -727.41)">
                            <g id="g478" mask="url(#mask442)">
                              <path id="path480" style="fill-rule:evenodd;fill:url(#radialGradient450)" d="m10.504 12.559c0.019-0.258-0.055-0.536-0.227-0.832l-0.093 0.605-0.223 0.449 0.094-0.703c0.043-0.301-0.02-0.734-0.192-1.312l0.032 0.8c0 0.192-0.075 0.426-0.223 0.704l-0.227 0.382c0.086-0.359 0.098-0.691 0.035-0.992l-0.16-0.765c-0.109 0.382-0.172 0.757-0.191 1.121-0.024 0.234-0.109 0.445-0.258 0.636l-0.223 0.258-0.066-1.215c-0.043-0.492-0.137-0.91-0.285-1.25-0.067 0.278-0.109 0.578-0.129 0.899-0.023 0.191-0.109 0.426-0.258 0.703l-0.191 0.32 0.031-1.281c0-0.406-0.074-0.981-0.223-1.727l-0.129 1.758c-0.019 0.301-0.086 0.567-0.191 0.801l-0.129 0.258-0.191-1.219-0.032 0.578c0 0.149-0.054 0.34-0.16 0.574l-0.16 0.321-0.703-2.399c0 0.446-0.031 0.895-0.098 1.344-0.043 0.277-0.105 0.555-0.191 0.832l-0.129 0.352-0.414-1.602-0.48 1.57-0.161-1.121-0.191 0.321-0.191 0.894-0.036-0.894c0.024-0.34 0.079-0.641 0.161-0.899l-0.286 0.547c-0.128 0.191-0.234 0.5-0.32 0.926l-0.098 0.578c-0.105-0.149-0.21-0.395-0.32-0.738-0.105-0.321-0.129-0.703-0.062-1.153-0.067 0.129-0.129 0.356-0.192 0.672l-0.031 1.348c-0.109-0.129-0.301-0.684-0.578-1.664-0.254-0.985-0.149-2.071 0.32-3.266-0.129 0.106-0.308 0.727-0.543 1.856-0.234 1.132-0.269 2.164-0.097 3.105-0.129-0.258-0.223-0.555-0.29-0.898-0.082-0.34-0.082-0.746 0-1.215-0.105 0.172-0.179 0.469-0.222 0.894-0.02 0.43 0.031 0.93 0.16 1.504-0.254-0.66-0.414-1.406-0.481-2.238-0.062-0.813 0.098-1.504 0.481-2.078-0.34 0.254-0.574 0.937-0.703 2.047-0.11 1.086-0.043 1.879 0.191 2.367l-0.191-0.289c-0.149-0.211-0.246-0.543-0.289-0.992-0.086 0.191-0.074 0.589 0.031 1.183 0.086 0.598 0.363 1.071 0.832 1.41l-0.254-0.382c-0.109-0.129-0.191-0.301-0.258-0.512l0.289 0.383c0.086 0.129 0.18 0.211 0.289 0.254l-0.16-0.383c-0.086-0.149-0.086-0.289 0-0.414 0.082 0.211 0.203 0.425 0.352 0.636 0.129 0.215 0.297 0.352 0.512 0.418-0.129-0.172-0.235-0.382-0.321-0.64-0.105-0.235-0.148-0.406-0.129-0.512l0.418 0.672c0.168 0.277 0.328 0.457 0.481 0.543l-0.16-0.543c-0.086-0.277-0.078-0.492 0.031-0.641l0.48 0.801c0.235 0.297 0.469 0.524 0.704 0.672l-0.383-0.734c-0.153-0.278-0.215-0.481-0.196-0.61l0.289 0.543c0.149 0.235 0.332 0.426 0.543 0.578l-0.125-0.511c-0.066-0.258-0.074-0.493-0.035-0.707l0.258 0.511c0.106 0.258 0.344 0.59 0.703 0.992-0.043-0.062-0.117-0.328-0.222-0.796-0.086-0.45-0.129-0.79-0.129-1.028l0.449 0.832c0.172 0.301 0.363 0.492 0.574 0.578l-0.223-0.351c-0.043-0.11-0.062-0.321-0.062-0.641 0-0.148 0.008-0.289 0.031-0.418l0.352 0.707c0.172 0.383 0.457 0.766 0.863 1.153l-0.289-0.739c-0.082-0.297-0.082-0.605 0-0.925l0.578 0.605c-0.043-0.211-0.066-0.437-0.066-0.672-0.02-0.234 0.023-0.363 0.129-0.383 0.191 0.407 0.308 0.715 0.351 0.926 0.024 0.215 0.141 0.473 0.352 0.77-0.063-0.278-0.082-0.575-0.063-0.895 0.043-0.344 0.141-0.609 0.289-0.801 0.063 0.149 0.074 0.407 0.032 0.77l-0.129 0.734 0.418-0.64 0.285-0.672c0.086 0.129 0.109 0.277 0.066 0.449l-0.32 0.672 0.512-0.449 0.511-0.61c-0.062 0.321-0.191 0.629-0.383 0.93l-0.511 0.703 0.351-0.191c0.278-0.172 0.512-0.34 0.703-0.512 0.278-0.258 0.493-0.629 0.641-1.121 0.063 0.258 0.043 0.547-0.066 0.863-0.043 0.238-0.125 0.442-0.254 0.609l0.64-0.734c0.235-0.32 0.352-0.758 0.352-1.312z" inkscape:connector-curvature="0"/>
                            </g>
                          </g>
                        </g>
                      </g>
                    </g>
                  </g>
                </g>
              </g>
            </g>
          </g>
        </g>
      </g>
      <g id="g482">
        <g id="g498" mask="url(#mask490)">
          <g id="g510">
            <g id="g512" clip-path="url(#clipPath502)">
              <g id="g514" transform="translate(0 -.82280)">
                <g id="g518">
                  <g id="g520" clip-path="url(#clipPath506)">
                    <g id="g522">
                      <path id="path524" style="fill-rule:evenodd;fill:#000000" d="m4.727 16.039c0.621 0.277 1.171 0.266 1.664-0.031 0.105-0.067 0.203-0.055 0.289 0.031 0.105 0.106 0.234 0.16 0.382 0.16 0.321 0 0.622-0.054 0.895-0.16 0.129 0 0.738 0.125 1.824 0.383-0.043-0.215-0.211-0.375-0.511-0.481-0.469-0.211-1.375-0.296-2.719-0.253-0.832 0.019-1.442 0.136-1.824 0.351z" inkscape:connector-curvature="0"/>
                    </g>
                  </g>
                </g>
              </g>
            </g>
          </g>
        </g>
      </g>
      <g id="g526">
        <g id="g528">
          <g id="g534">
            <path id="path542" style="fill-rule:evenodd;fill:url(#linearGradient536)" d="m10.406 17.974c-0.043-0.406-0.168-0.82-0.383-1.246-0.449-0.875-1.121-1.41-2.015-1.602l-1.281-0.191c-0.086-0.043-0.106 0.055-0.063 0.289 0.106 0.684 0.801 1.152 2.078 1.406 0.77 0.172 1.324 0.618 1.664 1.344z" inkscape:connector-curvature="0"/>
          </g>
        </g>
      </g>
      <g id="g544">
        <g id="g546">
          <g id="g552">
            <path id="path560" style="fill-rule:evenodd;fill:url(#linearGradient554)" d="m8.742 16.63c0.77 0.172 1.324 0.618 1.664 1.344v-0.031c-0.383-0.789-0.937-1.344-1.664-1.664-0.726-0.301-1.203-0.524-1.437-0.672-0.321-0.192-0.535-0.406-0.641-0.641-0.023 0.02-0.023 0.106 0 0.254 0.106 0.688 0.801 1.156 2.078 1.41z" inkscape:connector-curvature="0"/>
          </g>
        </g>
      </g>
      <path id="path562" style="fill-rule:evenodd;fill:#ffffff" d="m5.383 12.376c0.191-0.152 0.109-0.246-0.254-0.289-0.32-0.019-0.641-0.011-0.961 0.032-0.684 0.066-1.152 0.129-1.41 0.191-0.383 0.129-0.36 0.277 0.066 0.449 0.34 0.11 0.864 0.063 1.567-0.129 0.191-0.062 0.406-0.105 0.64-0.125 0.149-0.023 0.266-0.066 0.352-0.129z" inkscape:connector-curvature="0"/>
      <path id="path564" style="fill-rule:evenodd;fill:#ffffff" d="m1.992 12.728c0.211-0.023 0.285-0.066 0.223-0.129-0.043-0.043-0.129-0.105-0.254-0.191-0.043-0.063-0.109-0.086-0.195-0.063-0.106 0.02-0.18 0.074-0.223 0.16-0.129 0.192 0.019 0.266 0.449 0.223z" inkscape:connector-curvature="0"/>
      <path id="path566" style="fill-rule:evenodd;fill:#7d6630" d="m6.855 15.318 0.161-0.383h-0.192l-0.129 0.098c-0.363 0.98-0.523 1.726-0.48 2.238 0.105 0.769 0.16 1.172 0.16 1.215v0.066l0.383-0.066c0.258 0 0.406 0.023 0.449 0.066l-0.258-0.48c-0.168-0.364-0.265-0.664-0.285-0.899-0.023-0.277-0.012-0.617 0.031-1.023 0.043-0.445 0.098-0.727 0.16-0.832z" inkscape:connector-curvature="0"/>
      <path id="path568" style="fill-rule:evenodd;fill:#614f25" d="m7.207 18.552-0.258-0.48c-0.168-0.364-0.265-0.664-0.285-0.899-0.023-0.277-0.012-0.617 0.031-1.023 0.043-0.445 0.098-0.727 0.16-0.832l0.161-0.383h-0.192l-0.129 0.098-0.289 0.957 0.067-0.192c0.039-0.168 0.105-0.328 0.191-0.48-0.172 0.75-0.258 1.25-0.258 1.504l0.098 0.64v-0.511c0-0.278 0.031-0.618 0.094-1.024 0.066-0.383 0.172-0.672 0.32-0.863-0.148 0.359-0.223 0.629-0.223 0.797-0.086 0.855-0.097 1.461-0.031 1.824l0.094 0.801c0.258 0 0.406 0.023 0.449 0.066z" inkscape:connector-curvature="0"/>
      <path id="path570" style="fill-rule:evenodd;fill:#c9a44d" d="m6.633 18.263c0.039-0.019-0.012-0.16-0.16-0.414l-0.067-0.738c0-0.043-0.008-0.223-0.031-0.543 0-0.153-0.012-0.141-0.031 0.031-0.067 0.469-0.043 0.961 0.062 1.473 0.043 0.234 0.117 0.297 0.227 0.191z" inkscape:connector-curvature="0"/>
      <path id="path572" style="fill-rule:evenodd;fill:#c9a44d" d="m6.984 18.423h-0.386l-0.223 0.129 0.098 0.063c0.082 0.043 0.191 0.062 0.32 0.062 0.402 0 0.543-0.039 0.414-0.125-0.086-0.086-0.16-0.129-0.223-0.129z" inkscape:connector-curvature="0"/>
      <g id="g574">
        <g id="g576">
          <g id="g582">
            <path id="path590" style="fill-rule:evenodd;fill:url(#radialGradient584)" d="m26.184 15.415c0.98 0.086 1.992 0.215 3.039 0.383 0.683 0.067 1.41-0.117 2.175-0.543 1.75-0.961 2.637-2.625 2.657-4.992 0-1.984-0.512-3.777-1.535-5.375-0.727-1.152-1.336-1.75-1.825-1.793-0.468 0.149-0.875 0.141-1.218-0.031-0.68-0.363-1.223-0.586-1.629-0.672-0.578-0.109-1.153-0.012-1.731 0.285-0.66-0.039-1.172-0.062-1.535-0.062-0.66-0.024-1.516 0.652-2.559 2.015-1.386 1.817-2.07 3.723-2.046 5.727 0.019 1.836 0.562 3.148 1.628 3.937 0.75 0.536 1.579 0.864 2.497 0.993 0.535 0.062 1.226 0.109 2.082 0.128z" inkscape:connector-curvature="0"/>
          </g>
        </g>
      </g>
      <g id="g592">
        <g id="g608" mask="url(#mask600)">
          <g id="g620">
            <g id="g622" clip-path="url(#clipPath612)">
              <g id="g624" transform="translate(0 -.82280)">
                <g id="g628">
                  <g id="g630" clip-path="url(#clipPath616)">
                    <g id="g632">
                      <path id="path634" style="fill-rule:evenodd;fill:#000000" d="m21.926 6.207c-0.383 1.129-0.649 3.723-0.797 7.773l0.191-0.093c0.34-0.192 0.715-0.481 1.118-0.864 0.832-0.812 1.429-1.742 1.792-2.785 0.383-1.047 0.493-2.199 0.321-3.457-0.086-0.64-0.211-1.172-0.383-1.597-0.109-0.961 0.051-1.442 0.48-1.442h0.957l-0.062-0.129c-0.449-0.129-0.813-0.179-1.086-0.16-0.492 0.043-1.078 0.438-1.762 1.184-0.3 0.429-0.554 0.949-0.769 1.57z" inkscape:connector-curvature="0"/>
                    </g>
                  </g>
                </g>
              </g>
            </g>
          </g>
        </g>
      </g>
      <g id="g636">
        <g id="g652" mask="url(#mask644)">
          <g id="g664">
            <g id="g666" clip-path="url(#clipPath656)">
              <g id="g668" transform="translate(0 -.82280)">
                <g id="g672">
                  <g id="g674" clip-path="url(#clipPath660)">
                    <g id="g676">
                      <path id="path678" style="fill-rule:evenodd;fill:#000000" d="m31.414 16.07c1.75-0.961 2.637-2.625 2.656-4.992 0-1.984-0.511-3.777-1.535-5.375-0.726-1.152-1.332-1.75-1.824-1.793-0.469 0.149-0.875 0.137-1.215-0.031-0.684-0.363-1.226-0.586-1.633-0.672-0.574-0.109-1.152-0.012-1.726 0.285-0.258 0.129-0.641 0.129-1.153 0-0.468-0.125-0.929-0.031-1.379 0.289-0.062 0.192-0.105 0.407-0.125 0.641l-0.035 0.32 0.227-0.672c0.129-0.234 0.308-0.343 0.543-0.32-0.129 0.191-0.235 0.406-0.32 0.641-0.043 0.148-0.063 0.351-0.063 0.605l0.031 0.32 0.16-0.476c0.063-0.238 0.161-0.344 0.289-0.32l-0.035 0.222 0.129 0.926 0.258-1.117c0.129-0.363 0.266-0.481 0.414-0.352l-0.062 0.446 0.031 0.511 0.289-0.863c0.105-0.254 0.203-0.277 0.289-0.063l-0.129 1.055c-0.023 0.258-0.012 0.512 0.031 0.77l0.063 0.32 0.16-1.441c0.043-0.426 0.234-0.684 0.578-0.77-0.109 0.258-0.172 0.504-0.191 0.738v0.575l0.222-0.832c0.086-0.192 0.211-0.329 0.383-0.415l-0.094 1.055c-0.023 0.192 0.02 0.469 0.125 0.832l0.161 0.481 0.128-1.536c0.067-0.382 0.161-0.628 0.29-0.738-0.024 0.086-0.024 0.278 0 0.578 0 0.192 0.031 0.364 0.093 0.512l0.067 0.16 0.062-0.801c0.024-0.253 0.098-0.48 0.227-0.671 0.043 0.339 0.137 0.738 0.285 1.183 0.086 0.277 0.203 0.567 0.352 0.863l0.195 0.387-0.16-2.113 0.285 0.48c0.129 0.192 0.258 0.5 0.387 0.926l0.191 0.578v-0.578c-0.024-0.445-0.098-0.808-0.227-1.086-0.105-0.301-0.082-0.383 0.067-0.258 0.043 0.024 0.222 0.196 0.543 0.512 0.043 0.066 0.289 0.172 0.738 0.32 0.402 0.129 0.797 0.461 1.184 0.993 0.636 0.875 1.109 2.175 1.406 3.906 0.277 1.558 0.246 2.781-0.098 3.68-0.148 0.449-0.402 0.894-0.765 1.343-0.426 0.547-0.946 0.942-1.551 1.184 0.25-0.094 0.508-0.211 0.781-0.352z" inkscape:connector-curvature="0"/>
                    </g>
                  </g>
                </g>
              </g>
            </g>
          </g>
        </g>
      </g>
      <g id="g680">
        <g id="g696" mask="url(#mask688)">
          <g id="g736">
            <g id="g738" clip-path="url(#clipPath700)">
              <g id="g740" transform="translate(0 -.82280)">
                <g id="g744">
                  <g id="g746" clip-path="url(#clipPath704)">
                    <g id="g748">
                      <g id="g750">
                        <g id="g752" clip-path="url(#clipPath708)">
                          <g id="g754" transform="matrix(.63962 -.0224 -.0224 -.63962 193.27 -180.94)">
                            <g id="g758" mask="url(#mask722)">
                              <path id="path760" style="fill-rule:evenodd;fill:url(#radialGradient730)" d="m30.168 13.879c0.234-0.277 0.394-0.715 0.48-1.313 0.063-0.277 0.02-0.566-0.128-0.867l-0.192 0.61-0.258 0.418 0.16-0.672c0.067-0.321 0.032-0.782-0.093-1.379 0.019 0.234 0.008 0.512-0.035 0.832-0.02 0.191-0.118 0.43-0.286 0.707l-0.257 0.351c0.105-0.343 0.148-0.671 0.129-0.992-0.024-0.32-0.063-0.59-0.129-0.801-0.129 0.364-0.223 0.735-0.289 1.122-0.043 0.234-0.149 0.445-0.321 0.636l-0.254 0.227c0.043-0.363 0.063-0.781 0.063-1.25 0-0.488-0.051-0.926-0.16-1.313-0.106 0.301-0.192 0.61-0.254 0.93-0.024 0.191-0.117 0.418-0.289 0.672l-0.254 0.32 0.16-1.312c0.019-0.407 0-1.004-0.066-1.793l-0.29 1.793c-0.043 0.3-0.125 0.566-0.253 0.8l-0.161 0.254v-0.605l-0.097-0.641-0.063 0.575c-0.019 0.171-0.105 0.374-0.258 0.609l-0.191 0.289-0.512-2.496c-0.019 0.426-0.086 0.875-0.191 1.344l-0.414 1.183-0.32-1.664-0.61 1.567-0.062-0.543c-0.024-0.297-0.024-0.512 0-0.641l-0.227 0.32c-0.086 0.129-0.16 0.321-0.223 0.578l-0.062 0.321 0.031-0.93c0.063-0.34 0.149-0.641 0.254-0.895l-0.351 0.512c-0.129 0.192-0.254 0.5-0.383 0.926l-0.16 0.609c-0.106-0.172-0.192-0.437-0.258-0.8-0.082-0.34-0.074-0.735 0.035-1.184-0.086 0.129-0.172 0.352-0.258 0.672l-0.16 1.375c-0.106-0.149-0.246-0.735-0.414-1.758-0.195-1.004 0.008-2.102 0.605-3.297-0.148 0.086-0.394 0.703-0.734 1.856-0.344 1.132-0.461 2.187-0.352 3.168l-0.257-0.961c-0.043-0.364 0-0.778 0.129-1.246-0.106 0.171-0.204 0.468-0.29 0.894-0.086 0.449-0.086 0.973 0 1.57-0.21-0.707-0.308-1.484-0.289-2.336 0.024-0.855 0.246-1.558 0.672-2.113-0.383 0.258-0.672 0.938-0.863 2.047-0.211 1.109-0.234 1.934-0.063 2.465l-0.16-0.352c-0.105-0.215-0.172-0.554-0.191-1.023-0.109 0.191-0.141 0.598-0.098 1.215s0.289 1.121 0.739 1.504l-0.227-0.414c-0.082-0.129-0.16-0.301-0.223-0.512l0.289 0.414c0.082 0.129 0.18 0.223 0.286 0.289l-0.161-0.418c-0.062-0.168-0.05-0.32 0.036-0.445l0.32 0.703c0.105 0.211 0.265 0.371 0.476 0.48-0.105-0.191-0.199-0.418-0.285-0.672-0.066-0.277-0.086-0.46-0.066-0.546l0.351 0.707c0.153 0.296 0.301 0.5 0.45 0.605l-0.094-0.574c-0.067-0.278-0.043-0.504 0.062-0.672 0.106 0.254 0.254 0.543 0.45 0.863 0.191 0.34 0.402 0.598 0.636 0.77l-0.316-0.77c-0.129-0.301-0.184-0.511-0.16-0.64l0.254 0.578c0.129 0.234 0.3 0.445 0.511 0.636l-0.062-0.543c-0.043-0.277-0.043-0.523 0-0.734 0.062 0.106 0.137 0.297 0.223 0.574 0.085 0.258 0.289 0.61 0.609 1.059-0.043-0.066-0.086-0.344-0.129-0.832-0.063-0.492-0.074-0.844-0.031-1.059l0.351 0.864c0.172 0.32 0.364 0.535 0.575 0.64l-0.192-0.383c-0.062-0.105-0.074-0.32-0.031-0.64 0.019-0.149 0.043-0.289 0.062-0.414l0.289 0.734c0.149 0.426 0.407 0.852 0.77 1.281l-0.191-0.8c-0.086-0.301-0.067-0.622 0.062-0.961l0.512 0.671v-0.703c0.019-0.234 0.086-0.351 0.191-0.351 0.172 0.426 0.258 0.746 0.258 0.961 0.02 0.234 0.117 0.511 0.289 0.832-0.023-0.278-0.012-0.59 0.031-0.93 0.063-0.34 0.192-0.598 0.383-0.769 0.043 0.152 0.02 0.406-0.062 0.769l-0.196 0.734 0.481-0.636 0.351-0.641c0.086 0.149 0.098 0.309 0.035 0.481l-0.386 0.671 0.578-0.418 0.574-0.605c-0.086 0.316-0.242 0.629-0.48 0.926l-0.606 0.672 0.383-0.16c0.32-0.149 0.574-0.297 0.77-0.45 0.32-0.254 0.574-0.617 0.765-1.086 0.024 0.254-0.019 0.543-0.129 0.864-0.082 0.234-0.199 0.437-0.351 0.609l0.738-0.703z" inkscape:connector-curvature="0"/>
                            </g>
                          </g>
                        </g>
                      </g>
                    </g>
                  </g>
                </g>
              </g>
            </g>
          </g>
        </g>
      </g>
      <g id="g762">
        <g id="g778" mask="url(#mask770)">
          <g id="g790">
            <g id="g792" clip-path="url(#clipPath782)">
              <g id="g794" transform="translate(0 -.82280)">
                <g id="g798">
                  <g id="g800" clip-path="url(#clipPath786)">
                    <g id="g802">
                      <path id="path804" style="fill-rule:evenodd;fill:#000000" d="m24.246 15.621c0.598 0.32 1.164 0.352 1.695 0.098 0.11-0.067 0.204-0.055 0.289 0.031 0.11 0.129 0.235 0.203 0.383 0.223 0.321 0.023 0.633-0.012 0.93-0.094l1.09 0.223-0.516-0.258c-0.469-0.235-1.129-0.383-1.98-0.446-0.856-0.043-1.485 0.032-1.891 0.223z" inkscape:connector-curvature="0"/>
                    </g>
                  </g>
                </g>
              </g>
            </g>
          </g>
        </g>
      </g>
      <path id="path806" style="fill-rule:evenodd;fill:#ffffff" d="m25.32 11.927c0.211-0.129 0.137-0.222-0.226-0.289-0.317-0.062-0.649-0.086-0.989-0.062-0.707 0-1.195 0.019-1.472 0.062-0.195 0.043-0.278 0.11-0.258 0.192 0 0.085 0.098 0.171 0.289 0.257 0.34 0.149 0.883 0.149 1.633 0 0.191-0.043 0.414-0.066 0.672-0.066 0.148 0 0.265-0.031 0.351-0.094z" inkscape:connector-curvature="0"/>
      <path id="path808" style="fill-rule:evenodd;fill:#ffffff" d="m21.832 12.021c0.211 0 0.285-0.051 0.223-0.156-0.11-0.11-0.184-0.184-0.223-0.227-0.043-0.043-0.117-0.062-0.227-0.062-0.085 0.019-0.16 0.074-0.222 0.16-0.106 0.148 0.043 0.246 0.449 0.285z" inkscape:connector-curvature="0"/>
      <g id="g810">
        <g id="g826" mask="url(#mask818)">
          <g id="g838">
            <g id="g840" clip-path="url(#clipPath830)">
              <g id="g842" transform="translate(0 -.82280)">
                <g id="g846">
                  <g id="g848" clip-path="url(#clipPath834)">
                    <g id="g850">
                      <path id="path852" style="fill-rule:evenodd;fill:#ffffff" d="m27.672 16.191c0.512 0.149 0.883 0.2 1.121 0.161 0.383-0.067 0.352-0.098-0.098-0.098-0.234 0-0.586-0.074-1.054-0.223l-0.129 0.031c-0.129 0-0.074 0.043 0.16 0.129z" inkscape:connector-curvature="0"/>
                    </g>
                  </g>
                </g>
              </g>
            </g>
          </g>
        </g>
      </g>
      <path id="path854" style="fill-rule:evenodd;fill:#7d6630" d="m26.438 14.775c-0.446 0.961-0.68 1.707-0.704 2.238-0.019 0.32-0.011 0.621 0.032 0.899l0.031 0.351v0.063l0.418-0.032c0.254 0.043 0.406 0.086 0.449 0.129l-0.191-0.511c-0.153-0.387-0.227-0.696-0.227-0.93 0-0.277 0.043-0.641 0.129-1.086 0.063-0.449 0.141-0.727 0.223-0.832l0.195-0.352-0.227-0.035-0.128 0.098z" inkscape:connector-curvature="0"/>
      <path id="path856" style="fill-rule:evenodd;fill:#614f25" d="m26.664 18.423-0.195-0.511c-0.149-0.383-0.223-0.696-0.223-0.93 0-0.277 0.043-0.641 0.129-1.086 0.063-0.449 0.137-0.727 0.223-0.832l0.191-0.352-0.223-0.031-0.128 0.094-0.321 0.769 0.258-0.48c-0.234 0.746-0.363 1.246-0.383 1.504-0.023 0.148-0.023 0.308 0 0.48l0.063 0.192 0.031-0.512c0-0.215 0.062-0.555 0.191-1.023 0.086-0.407 0.215-0.696 0.387-0.868-0.172 0.344-0.281 0.61-0.32 0.801-0.043 0.277-0.086 0.535-0.129 0.77-0.067 0.445-0.086 0.797-0.067 1.054l0.036 0.832h0.031c0.254 0.043 0.406 0.086 0.449 0.129z" inkscape:connector-curvature="0"/>
      <path id="path858" style="fill-rule:evenodd;fill:#c9a44d" d="m26.086 18.072c0.043-0.024 0-0.16-0.125-0.418v-0.766c0-0.109 0.008-0.301 0.031-0.578 0.02-0.148 0.008-0.137-0.031 0.031-0.129 0.43-0.16 0.93-0.098 1.504 0.043 0.258 0.117 0.332 0.223 0.227z" inkscape:connector-curvature="0"/>
      <path id="path860" style="fill-rule:evenodd;fill:#c9a44d" d="m26.438 18.263-0.383-0.031-0.254 0.098 0.094 0.062c0.085 0.043 0.191 0.074 0.32 0.094 0.383 0.043 0.531 0.023 0.449-0.063-0.043-0.066-0.117-0.117-0.226-0.16z" inkscape:connector-curvature="0"/>
      <g id="g862">
        <g id="g864">
          <g id="g870">
            <path id="path878" style="fill-rule:evenodd;fill:url(#radialGradient872)" d="m15.879 13.72c1.047 0 2.113 0.043 3.199 0.125 0.746-0.019 1.492-0.285 2.238-0.797 1.731-1.195 2.477-3.019 2.243-5.472-0.192-2.051-0.907-3.864-2.145-5.442-0.875-1.109-1.566-1.664-2.078-1.664-0.492 0.192-0.918 0.215-1.281 0.067-0.727-0.321-1.313-0.493-1.762-0.516-0.617-0.063-1.215 0.086-1.793 0.449-0.234 0.149-0.5 0.215-0.797 0.192-0.492-0.063-0.758-0.094-0.801-0.094-0.703 0.062-1.527 0.851-2.464 2.367-1.258 2.047-1.77 4.105-1.536 6.176 0.211 1.918 0.926 3.23 2.145 3.937 0.808 0.469 1.703 0.723 2.687 0.766 0.536 0 1.25-0.031 2.145-0.094z" inkscape:connector-curvature="0"/>
          </g>
        </g>
      </g>
      <g id="g880">
        <g id="g896" mask="url(#mask888)">
          <g id="g908">
            <g id="g910" clip-path="url(#clipPath900)">
              <g id="g912" transform="translate(0 -.82280)">
                <g id="g916">
                  <g id="g918" clip-path="url(#clipPath904)">
                    <g id="g920">
                      <path id="path922" style="fill-rule:evenodd;fill:#000000" d="m22.047 12.902c-0.445 0.668-1.012 1.157-1.695 1.473 0.32-0.137 0.64-0.305 0.96-0.516 1.727-1.191 2.473-3.015 2.239-5.468-0.192-2.051-0.906-3.864-2.145-5.442-0.875-1.109-1.566-1.664-2.078-1.664-0.492 0.192-0.918 0.215-1.281 0.063-0.727-0.321-1.313-0.489-1.758-0.512-0.621-0.063-1.219 0.086-1.793 0.449-0.258 0.149-0.652 0.192-1.184 0.129-0.492-0.086-0.949 0.063-1.378 0.445-0.063 0.196-0.094 0.418-0.094 0.672v0.321l0.191-0.672c0.106-0.278 0.266-0.414 0.481-0.414-0.11 0.211-0.184 0.449-0.223 0.703-0.043 0.148-0.043 0.351 0 0.609l0.063 0.352 0.093-0.512c0.043-0.258 0.129-0.375 0.258-0.352v0.254l0.223 0.93 0.16-1.219c0.086-0.359 0.215-0.488 0.387-0.383v0.481l0.093 0.512 0.192-0.926c0.086-0.277 0.183-0.313 0.289-0.098l-0.031 1.121c0 0.278 0.043 0.543 0.129 0.801l0.125 0.316v-1.535c0-0.425 0.16-0.703 0.48-0.832-0.062 0.258-0.094 0.524-0.094 0.801l0.063 0.574 0.16-0.863c0.043-0.211 0.16-0.371 0.351-0.48v1.089c0 0.211 0.075 0.493 0.227 0.832l0.191 0.481v-1.602c0.02-0.406 0.094-0.672 0.223-0.8l0.031 0.64c0.024 0.192 0.075 0.363 0.16 0.512l0.098 0.129v-0.801c0-0.277 0.051-0.523 0.16-0.734 0.063 0.339 0.192 0.746 0.383 1.214 0.129 0.278 0.289 0.567 0.481 0.864l0.254 0.351-0.415-2.175 0.352 0.48c0.148 0.191 0.32 0.504 0.512 0.93l0.222 0.574-0.031-0.606c-0.062-0.449-0.168-0.812-0.32-1.089-0.149-0.297-0.137-0.395 0.035-0.289 0.019 0.023 0.223 0.183 0.605 0.48 0.043 0.043 0.309 0.117 0.801 0.227 0.426 0.105 0.863 0.414 1.313 0.925 0.746 0.856 1.375 2.157 1.886 3.907 0.426 1.535 0.524 2.824 0.29 3.871-0.129 0.511-0.34 1.004-0.641 1.472z" inkscape:connector-curvature="0"/>
                    </g>
                  </g>
                </g>
              </g>
            </g>
          </g>
        </g>
      </g>
      <g id="g924">
        <g id="g940" mask="url(#mask932)">
          <g id="g980">
            <g id="g982" clip-path="url(#clipPath944)">
              <g id="g984" transform="translate(0 -.82280)">
                <g id="g988">
                  <g id="g990" clip-path="url(#clipPath948)">
                    <g id="g992">
                      <g id="g994">
                        <g id="g996" clip-path="url(#clipPath952)">
                          <g id="g998" transform="matrix(.63437 -.084928 -.084928 -.63437 552.71 -808.9)">
                            <g id="g1002" mask="url(#mask966)">
                              <path id="path1004" style="fill-rule:evenodd;fill:url(#radialGradient974)" d="m19.422 10.91c0.066 0.278 0.055 0.586-0.031 0.93-0.063 0.254-0.172 0.476-0.321 0.672l0.703-0.801c0.215-0.301 0.344-0.77 0.387-1.41 0.02-0.297-0.066-0.598-0.258-0.895l-0.129 0.641c-0.019 0.129-0.062 0.246-0.125 0.351l-0.097 0.129 0.097-0.738c0.043-0.34-0.035-0.809-0.226-1.406l0.035 0.863c0 0.192-0.078 0.449-0.227 0.77l-0.222 0.382c0.086-0.382 0.094-0.738 0.031-1.054-0.062-0.321-0.137-0.59-0.223-0.801-0.086 0.383-0.14 0.777-0.16 1.184-0.023 0.234-0.117 0.468-0.289 0.703l-0.222 0.258-0.098-1.313c-0.043-0.512-0.137-0.949-0.289-1.313-0.082 0.297-0.137 0.618-0.16 0.961-0.02 0.192-0.094 0.438-0.223 0.735l-0.223 0.351v-1.375c0-0.425-0.086-1.046-0.257-1.855l-0.129 1.887c-0.02 0.511-0.125 0.894-0.321 1.152l-0.191-1.313-0.031 0.61c-0.02 0.191-0.086 0.414-0.192 0.672l-0.16 0.32-0.801-2.562c0.024 0.468 0 0.949-0.062 1.441-0.043 0.301-0.11 0.598-0.192 0.894l-0.128 0.352-0.512-1.695-0.098 0.48-0.383 1.215-0.097-0.543c-0.063-0.32-0.082-0.543-0.063-0.672l-0.191 0.383c-0.086 0.152-0.149 0.355-0.192 0.609l-0.035 0.352-0.062-0.961c0.043-0.383 0.097-0.703 0.16-0.957l-0.289 0.543c-0.125 0.215-0.235 0.543-0.321 0.992l-0.093 0.641c-0.129-0.172-0.246-0.426-0.352-0.77-0.129-0.363-0.16-0.777-0.098-1.246-0.062 0.149-0.128 0.383-0.191 0.703v1.442c-0.129-0.129-0.34-0.715-0.641-1.762-0.191-0.66-0.203-1.441-0.031-2.336 0.086-0.469 0.192-0.863 0.321-1.184-0.149 0.129-0.332 0.801-0.543 2.016-0.235 1.215-0.258 2.336-0.067 3.359-0.148-0.277-0.265-0.609-0.351-0.992-0.086-0.363-0.086-0.801 0-1.312-0.106 0.191-0.18 0.523-0.223 0.992-0.024 0.449 0.031 0.98 0.16 1.601-0.277-0.726-0.449-1.527-0.512-2.402-0.086-0.875 0.075-1.621 0.481-2.238-0.363 0.277-0.598 1.004-0.707 2.176-0.106 1.172-0.039 2.027 0.191 2.558l-0.191-0.316c-0.149-0.215-0.254-0.567-0.32-1.059-0.083 0.215-0.075 0.641 0.035 1.281 0.105 0.641 0.414 1.141 0.925 1.504l-0.289-0.418c-0.105-0.105-0.191-0.277-0.254-0.511l0.321 0.418c0.086 0.129 0.191 0.211 0.32 0.254l-0.226-0.415c-0.082-0.171-0.082-0.32 0-0.449 0.109 0.235 0.238 0.461 0.386 0.672 0.168 0.235 0.36 0.383 0.574 0.449-0.128-0.191-0.246-0.418-0.351-0.672-0.106-0.277-0.149-0.46-0.129-0.542l0.449 0.703c0.172 0.297 0.34 0.488 0.512 0.574l-0.16-0.574c-0.106-0.301-0.106-0.535 0-0.703l0.543 0.863c0.234 0.32 0.492 0.555 0.769 0.703l-0.449-0.77c-0.148-0.296-0.211-0.519-0.191-0.671l0.32 0.578c0.148 0.254 0.34 0.468 0.574 0.64l-0.125-0.578c-0.066-0.277-0.086-0.523-0.066-0.734l0.289 0.543c0.129 0.277 0.383 0.629 0.769 1.054-0.066-0.062-0.148-0.351-0.257-0.863-0.106-0.488-0.149-0.851-0.129-1.086l0.48 0.863c0.192 0.321 0.406 0.524 0.641 0.606l-0.254-0.383c-0.067-0.105-0.086-0.332-0.067-0.672 0-0.148 0.012-0.297 0.032-0.449 0.023 0.109 0.14 0.363 0.351 0.77 0.196 0.406 0.504 0.82 0.93 1.25l-0.289-0.832c-0.106-0.301-0.117-0.629-0.031-0.993l0.64 0.672c-0.062-0.258-0.097-0.504-0.097-0.738 0-0.254 0.054-0.395 0.16-0.414 0.215 0.445 0.344 0.777 0.386 0.992 0.02 0.234 0.149 0.512 0.383 0.832-0.086-0.301-0.105-0.621-0.062-0.961 0.019-0.363 0.117-0.652 0.285-0.863 0.086 0.148 0.098 0.414 0.031 0.801l-0.125 0.797 0.446-0.704 0.289-0.703c0.109 0.149 0.128 0.309 0.066 0.481-0.066 0.277-0.172 0.523-0.32 0.734l0.543-0.48 0.543-0.672c-0.063 0.344-0.204 0.672-0.414 0.992l-0.512 0.77 0.383-0.227c0.296-0.168 0.543-0.352 0.734-0.543 0.301-0.277 0.523-0.684 0.672-1.215z" inkscape:connector-curvature="0"/>
                            </g>
                          </g>
                        </g>
                      </g>
                    </g>
                  </g>
                </g>
              </g>
            </g>
          </g>
        </g>
      </g>
      <g id="g1006">
        <g id="g1022" mask="url(#mask1014)">
          <g id="g1034">
            <g id="g1036" clip-path="url(#clipPath1026)">
              <g id="g1038" transform="translate(0 -.82280)">
                <g id="g1042">
                  <g id="g1044" clip-path="url(#clipPath1030)">
                    <g id="g1046">
                      <path id="path1048" style="fill-rule:evenodd;fill:#000000" d="m18.445 14.18-0.574-0.254c-0.492-0.192-1.195-0.266-2.113-0.227-0.875 0.024-1.524 0.16-1.949 0.418 0 0.106 0.043 0.203 0.125 0.289 0.128 0.125 0.355 0.094 0.671-0.097 0.129-0.086 0.399-0.129 0.801-0.129 0.215 0 0.524 0.011 0.93 0.035 0.34 0 0.66-0.055 0.961-0.16l1.148 0.125z" inkscape:connector-curvature="0"/>
                    </g>
                  </g>
                </g>
              </g>
            </g>
          </g>
        </g>
      </g>
      <g id="g1050">
        <g id="g1052">
          <g id="g1058">
            <path id="path1066" style="fill-rule:evenodd;fill:url(#linearGradient1060)" d="m12.488 16.501 0.414-0.671c0.364-0.469 0.789-0.766 1.282-0.895 1.324-0.32 2.035-0.863 2.144-1.633 0.043-0.297 0.012-0.414-0.098-0.351l-1.281 0.226c-0.937 0.235-1.629 0.852-2.078 1.856l-0.383 1.468z" inkscape:connector-curvature="0"/>
          </g>
        </g>
      </g>
      <g id="g1068">
        <g id="g1070">
          <g id="g1076">
            <path id="path1084" style="fill-rule:evenodd;fill:url(#linearGradient1078)" d="m14.184 14.935c1.32-0.32 2.035-0.863 2.144-1.633v-0.32c-0.109 0.281-0.332 0.523-0.672 0.738-0.152 0.106-0.64 0.371-1.472 0.801-0.789 0.383-1.356 1.023-1.7 1.918v0.066l0.418-0.672c0.364-0.472 0.789-0.769 1.282-0.898z" inkscape:connector-curvature="0"/>
          </g>
        </g>
      </g>
      <path id="path1086" style="fill-rule:evenodd;fill:#ffffff" d="m14.664 10.201c0.191-0.153 0.082-0.246-0.32-0.289-0.344-0.043-0.684-0.032-1.024 0.031l-1.504 0.226c-0.214 0.063-0.312 0.137-0.289 0.223 0.02 0.082 0.149 0.172 0.383 0.254 0.406 0.105 0.973 0.055 1.695-0.16 0.196-0.063 0.407-0.117 0.641-0.16 0.172-0.02 0.313-0.063 0.418-0.125z" inkscape:connector-curvature="0"/>
      <path id="path1088" style="fill-rule:evenodd;fill:#ffffff" d="m11.016 10.646c0.234-0.02 0.308-0.082 0.222-0.191-0.043-0.043-0.129-0.106-0.254-0.192-0.191-0.148-0.351-0.105-0.48 0.129-0.066 0.172 0.105 0.254 0.512 0.254z" inkscape:connector-curvature="0"/>
      <g id="g1090">
        <g id="g1106" mask="url(#mask1098)">
          <g id="g1118">
            <g id="g1120" clip-path="url(#clipPath1110)">
              <g id="g1122" transform="translate(0 -.82280)">
                <g id="g1126">
                  <g id="g1128" clip-path="url(#clipPath1114)">
                    <g id="g1130">
                      <path id="path1132" style="fill-rule:evenodd;fill:#ffffff" d="m18.648 14.43c0.321-0.11 0.278-0.149-0.128-0.129-0.235 0.043-0.598 0.011-1.09-0.094h-0.125c-0.172 0.039-0.11 0.094 0.191 0.156 0.531 0.11 0.918 0.129 1.152 0.067z" inkscape:connector-curvature="0"/>
                    </g>
                  </g>
                </g>
              </g>
            </g>
          </g>
        </g>
      </g>
      <path id="path1134" style="fill-rule:evenodd;fill:#7d6630" d="m16.102 15.349c-0.02-0.277-0.02-0.648 0-1.117 0.043-0.469 0.097-0.77 0.16-0.899l0.191-0.382-0.223-0.032c-0.042 0-0.085 0.02-0.128 0.063l-0.032 0.066c-0.34 1.043-0.5 1.844-0.48 2.399 0.129 0.812 0.191 1.238 0.191 1.281v0.094l0.067-0.063c0.086-0.019 0.211-0.031 0.382-0.031 0.254 0 0.418 0.031 0.481 0.094l-0.289-0.512c-0.192-0.402-0.297-0.727-0.32-0.961z" inkscape:connector-curvature="0"/>
      <path id="path1136" style="fill-rule:evenodd;fill:#614f25" d="m16.711 16.822-0.289-0.512c-0.192-0.406-0.297-0.727-0.32-0.961-0.02-0.277-0.02-0.648 0-1.117 0.043-0.469 0.097-0.77 0.16-0.899l0.191-0.382-0.223-0.032c-0.042 0-0.085 0.02-0.128 0.063l-0.032 0.066c-0.105 0.297-0.203 0.641-0.289 1.024l0.067-0.223 0.222-0.516c-0.191 0.813-0.285 1.356-0.285 1.633 0 0.172 0.031 0.344 0.094 0.512l0.066 0.191-0.035-0.543c0-0.32 0.035-0.691 0.098-1.117 0.062-0.429 0.168-0.738 0.32-0.929-0.152 0.382-0.226 0.671-0.226 0.863-0.106 0.898-0.118 1.535-0.032 1.922 0.086 0.34 0.129 0.636 0.129 0.894l0.031-0.031c0.258 0 0.418 0.031 0.481 0.094z" inkscape:connector-curvature="0"/>
      <path id="path1138" style="fill-rule:evenodd;fill:#c9a44d" d="m16.07 16.501c0.043-0.019-0.019-0.16-0.191-0.414 0-0.277-0.02-0.543-0.063-0.8 0-0.043-0.011-0.247-0.035-0.61 0-0.168-0.008-0.16-0.031 0.035-0.062 0.512-0.043 1.043 0.066 1.598 0.043 0.172 0.082 0.266 0.125 0.289 0.024 0.02 0.067-0.012 0.129-0.098z" inkscape:connector-curvature="0"/>
      <path id="path1140" style="fill-rule:evenodd;fill:#c9a44d" d="m16.422 16.665h-0.383l-0.254 0.157 0.094 0.066c0.105 0.043 0.234 0.063 0.383 0.063 0.386 0 0.535-0.043 0.449-0.129-0.086-0.082-0.18-0.137-0.289-0.157z" inkscape:connector-curvature="0"/>
    </g>
  </g>
<metadata><rdf:RDF><cc:Work><dc:format>image/svg+xml</dc:format><dc:type rdf:resource="http://purl.org/dc/dcmitype/StillImage"/><cc:license rdf:resource="http://creativecommons.org/licenses/publicdomain/"/><dc:publisher><cc:Agent rdf:about="http://openclipart.org/"><dc:title>Openclipart</dc:title></cc:Agent></dc:publisher></cc:Work><cc:License rdf:about="http://creativecommons.org/licenses/publicdomain/"><cc:permits rdf:resource="http://creativecommons.org/ns#Reproduction"/><cc:permits rdf:resource="http://creativecommons.org/ns#Distribution"/><cc:permits rdf:resource="http://creativecommons.org/ns#DerivativeWorks"/></cc:License></rdf:RDF></metadata></svg>
