<?xml version="1.0" encoding="UTF-8" standalone="no"?>
<!-- Created with Inkscape (http://www.inkscape.org/) -->
<svg xmlns:inkscape="http://www.inkscape.org/namespaces/inkscape" xmlns:rdf="http://www.w3.org/1999/02/22-rdf-syntax-ns#" xmlns="http://www.w3.org/2000/svg" xmlns:xlink="http://www.w3.org/1999/xlink" xmlns:ns1="http://sozi.baierouge.fr" xmlns:cc="http://creativecommons.org/ns#" xmlns:sodipodi="http://sodipodi.sourceforge.net/DTD/sodipodi-0.dtd" xmlns:dc="http://purl.org/dc/elements/1.1/" id="svg2" xml:space="preserve" viewBox="0 0 77.888 37.005" version="1.1" inkscape:version="0.91 r13725">
  <g id="g10" transform="matrix(1.25 0 0 -1.25 0 37.005)">
    <g id="g12">
      <path id="path14" style="fill-rule:evenodd;fill:#f2e45e" d="m14.707 22.272c0.363-0.086 0.758-0.137 1.184-0.16l1.406-0.223c-1 0-1.684-0.183-2.047-0.547-0.234-0.21-0.062-0.371 0.512-0.48 0.3-0.039 0.609-0.062 0.929-0.062-0.3-0.172-0.898-0.161-1.793 0.031-0.554 0.109-0.746 0.277-0.574 0.511 0.082 0.129 0.223 0.247 0.414 0.352-0.961 0-1.707-0.137-2.238-0.414-0.344-0.191-0.43-0.438-0.258-0.734 0.086-0.172 0.203-0.313 0.352-0.418-0.168 0.023-0.34 0.074-0.512 0.16-0.32 0.191-0.457 0.469-0.414 0.832 0.062 0.363 0.457 0.617 1.184 0.769 0.359 0.063 0.714 0.094 1.054 0.094-0.129 0.043-0.246 0.117-0.351 0.227-0.215 0.191-0.258 0.394-0.129 0.605 0.129 0.192 0.449 0.332 0.961 0.418 0.16 0.027 0.316 0.043 0.465 0.047-0.258-0.043-0.551-0.199-0.883-0.465-0.254-0.234-0.008-0.414 0.738-0.543z" inkscape:connector-curvature="0"/>
      <path id="path16" style="fill-rule:evenodd;fill:#fffbd6" d="m15.059 21.983c0.683 0.106 0.875 0.031 0.574-0.223-0.192-0.171 0.035-0.332 0.672-0.48 0.32-0.086 0.664-0.148 1.027-0.191l-1.09 0.093c-0.363 0.024-0.703 0.11-1.023 0.258l-0.383 0.254-0.609-0.352c-0.254-0.148-0.438-0.339-0.543-0.574l-0.098-0.289-0.285 0.543c-0.11 0.215 0.062 0.395 0.511 0.547 0.211 0.063 0.434 0.117 0.672 0.16l-1.539 0.352c-0.617 0.148-0.988 0.34-1.117 0.574l0.031 0.289 0.512-0.418c0.215-0.191 0.609-0.316 1.184-0.383 0.34-0.043 0.843-0.093 1.504-0.16z" inkscape:connector-curvature="0"/>
      <path id="path18" style="fill-rule:evenodd;fill:#3e6e00" d="m31.953 26.143c-0.617 0.344-1.035 0.813-1.246 1.41-0.172 0.512-0.141 0.907 0.094 1.184 0.234 0.32 0.344 0.309 0.32-0.031l0.16-0.258c0.149-0.172 0.321-0.289 0.512-0.352 0.277-0.105 1.332-0.425 3.168-0.961 0.832-0.296 1.141-0.554 0.93-0.765-0.129-0.11-1.442-0.184-3.938-0.227z" inkscape:connector-curvature="0"/>
      <path id="path20" style="fill-rule:evenodd;fill:#f2e030" d="m28.051 26.882c8.875 0.511 13.429-0.875 13.664-4.161 0.105-1.644-1.078-2.914-3.551-3.808-2.285-0.832-5.269-1.238-8.961-1.219-2.539 0-5.48 0.535-8.832 1.602-3.476 1.129-5.109 2.164-4.894 3.105 0.168 0.789 1.621 1.684 4.351 2.688 2.793 1.023 5.535 1.621 8.223 1.793z" inkscape:connector-curvature="0"/>
      <path id="path22" style="fill-rule:evenodd;fill:#d9b100" d="m33.777 25.921c-0.617 0.597-1.215 0.851-1.793 0.765l-1.148-0.191c-0.898 0.086-1.59 0.097-2.082 0.031l-0.734-0.094c-0.708 0.278-1.379 0.309-2.016 0.094l-1.442-0.445c-0.726 0.062-1.312-0.024-1.761-0.258l-1.117-0.543c-0.641 0-1.239-0.117-1.793-0.352-0.364-0.171-0.703-0.363-1.024-0.578l-0.351-0.254c-0.45 0.106-0.844 0.02-1.184-0.257l-0.77-0.512h-0.32c1.024 0.769 2.68 1.504 4.961 2.211 2.391 0.746 4.672 1.195 6.848 1.344 8.875 0.511 13.429-0.875 13.664-4.161 0.105-1.644-1.078-2.914-3.551-3.808-2.285-0.832-5.269-1.238-8.961-1.219-2.539 0-5.48 0.535-8.832 1.602-3.476 1.129-5.109 2.164-4.894 3.105l0.062 0.125c0.191-0.254 0.523-0.488 0.992-0.703 0.617-0.277 0.907-0.285 0.864-0.031l0.351-0.383c0.301-0.258 0.629-0.375 0.992-0.352 0.578 0 0.961 0.137 1.153 0.414l0.449-0.449c0.406-0.277 0.863-0.394 1.375-0.351 0.851 0.043 1.355 0.234 1.504 0.578l0.64-0.418c0.555-0.254 1.11-0.383 1.664-0.383 0.575 0.023 0.95 0.141 1.122 0.352 0.085 0.128 0.117 0.246 0.093 0.351l0.543-0.351c0.516-0.192 1.153-0.247 1.922-0.161 0.746 0.086 1.258 0.235 1.535 0.45 0.129 0.105 0.184 0.203 0.16 0.289l0.739-0.321c0.574-0.195 1.14-0.226 1.695-0.097 0.555 0.148 1.012 0.468 1.375 0.961 0.191 0.234 0.32 0.457 0.383 0.671h0.801c0.64 0.086 1.183 0.297 1.632 0.641 0.489 0.383 0.661 0.852 0.512 1.406-0.148 0.536-0.48 0.907-0.992 1.121-1.43 0.575-2.355 0.723-2.785 0.446l-0.481-0.285z" inkscape:connector-curvature="0"/>
      <path id="path24" style="fill-rule:evenodd;fill:#549400" d="m32.531 27.745c-0.855 0.383-1.367 0.66-1.535 0.832-0.195 0.211 0.082 0.437 0.832 0.672 0.254 0.105 0.754 0.191 1.5 0.254-0.273-0.125-0.519-0.286-0.734-0.481-0.406-0.402-0.426-0.832-0.063-1.277z" inkscape:connector-curvature="0"/>
      <path id="path26" style="fill-rule:evenodd;fill:#69ab00" d="m41.395 24.19c0.043-0.531-0.032-0.906-0.227-1.117l-0.285-0.129-0.418 0.801c-0.277 0.363-0.629 0.734-1.055 1.117-0.746 0.684-1.523 1.176-2.336 1.473-0.769 0.3-1.781 0.64-3.039 1.023l-1.297 0.387c0.301-0.059 0.754-0.102 1.36-0.129 1.109-0.063 1.824-0.129 2.144-0.191 1.215-0.235 2.356-0.672 3.426-1.313 1.105-0.684 1.684-1.324 1.727-1.922z" inkscape:connector-curvature="0"/>
      <path id="path28" style="fill-rule:evenodd;fill:#a3d90f" d="m40.305 23.264c-0.575 0.875-1.086 1.516-1.535 1.918-0.856 0.75-1.965 1.282-3.329 1.602-3.371 0.789-4.918 1.441-4.64 1.953 0.344 0.617 0.937 0.906 1.793 0.863 0.531-0.019 0.777-0.054 0.734-0.097-0.789-0.125-1.351-0.286-1.695-0.481-0.235-0.125-0.289-0.285-0.16-0.476 0.152-0.235 0.566-0.45 1.25-0.641 0.722-0.191 1.843-0.469 3.359-0.832 1.301-0.383 2.391-0.973 3.262-1.762 0.664-0.574 1.09-1.066 1.281-1.472 0.086-0.211 0.109-0.364 0.066-0.45l-0.386-0.125z" inkscape:connector-curvature="0"/>
      <path id="path30" style="fill-rule:evenodd;fill:#69ab00" d="m39.152 22.21c0.789 0.511 1.344 1.105 1.664 1.789 0.172 0.343 0.258 0.629 0.258 0.863l0.641-0.957c0.34-0.813 0.328-1.645-0.035-2.496-0.403-0.961-1.246-1.836-2.528-2.625-1.148-0.703-2.175-1.078-3.07-1.121-0.875-0.043-1.91-0.235-3.105-0.574l-1.536-0.481c-0.234 0.149-0.414 0.352-0.543 0.609-0.257 0.512-0.152 1.024 0.321 1.536 0.34 0.363 1.363 0.8 3.07 1.312 1.965 0.594 3.586 1.313 4.863 2.145z" inkscape:connector-curvature="0"/>
      <path id="path32" style="fill-rule:evenodd;fill:#549400" d="m41.68 21.409c-0.403-0.961-1.246-1.836-2.528-2.625-1.148-0.703-2.175-1.078-3.07-1.121-0.875-0.043-1.91-0.235-3.105-0.574l-1.536-0.481c-0.363 0.254-0.586 0.574-0.671 0.961l0.609 1.344c0.34 0.277 1.086 0.629 2.238 1.054l1.024 0.161c-0.746-0.34-1.227-0.672-1.438-0.993-0.258-0.339-0.117-0.617 0.414-0.832 0.555-0.211 1.301-0.211 2.242 0 0.895 0.192 1.782 0.524 2.653 0.993 1.347 0.726 2.254 1.429 2.722 2.113 0.254 0.383 0.383 0.832 0.383 1.344 0 0.894-0.183 1.597-0.543 2.113l0.321-0.387c0.64-0.961 0.734-1.984 0.285-3.07z" inkscape:connector-curvature="0"/>
      <path id="path34" style="fill-rule:evenodd;fill:#549400" d="m29.875 16.128c-0.512 0.832-0.234 1.695 0.832 2.593 0.531 0.446 1.117 0.809 1.758 1.086l-0.832-1.086c-0.449-0.875-0.363-1.644 0.258-2.304 0.511-0.578 1.289-0.981 2.336-1.219 0.531-0.125 1.011-0.191 1.437-0.191-0.723-0.192-1.512-0.286-2.367-0.286-1.703 0-2.848 0.469-3.422 1.407z" inkscape:connector-curvature="0"/>
      <path id="path36" style="fill-rule:evenodd;fill:#a3d90f" d="m41.074 24.862c0.043-0.297-0.043-0.66-0.258-1.086-0.449-0.894-1.312-1.707-2.589-2.434-0.899-0.511-1.868-0.882-2.915-1.117-1.128-0.258-1.874-0.472-2.238-0.64-0.683-0.344-1.109-0.684-1.281-1.024-0.129-0.258-0.16-0.652-0.094-1.183 0.063-0.77 0.746-1.399 2.047-1.891 0.641-0.234 1.281-0.395 1.918-0.477-1.234 0.02-2.293 0.254-3.168 0.704-0.66 0.363-1.098 0.863-1.312 1.503-0.211 0.684-0.082 1.313 0.386 1.887 0.469 0.578 1.332 1.012 2.59 1.313 1.707 0.406 3.137 0.925 4.289 1.566 0.938 0.512 1.653 1.141 2.145 1.891 0.254 0.383 0.414 0.711 0.48 0.988z" inkscape:connector-curvature="0"/>
      <path id="path38" style="fill-rule:evenodd;fill:#fff59c" d="m34.195 25.182c0.129 0.344 0.489 0.512 1.086 0.512 0.598 0 0.992-0.199 1.184-0.605 0.172-0.383 0.117-0.727-0.16-1.024-0.254-0.277-0.575-0.418-0.961-0.418-0.383 0-0.703 0.153-0.957 0.449-0.278 0.34-0.344 0.704-0.192 1.086z" inkscape:connector-curvature="0"/>
      <path id="path40" style="fill-rule:evenodd;fill:#fff59c" d="m31.156 25.28c0.082 0.277 0.371 0.426 0.864 0.449 0.488 0.02 0.808-0.152 0.957-0.512 0.152-0.343 0.117-0.683-0.094-1.027-0.215-0.297-0.469-0.445-0.77-0.445-0.277-0.024-0.535 0.148-0.769 0.512-0.235 0.363-0.297 0.703-0.188 1.023z" inkscape:connector-curvature="0"/>
      <path id="path42" style="fill-rule:evenodd;fill:#fff59c" d="m28.336 25.44c0.32 0.34 0.715 0.457 1.187 0.352 0.489-0.129 0.672-0.469 0.543-1.024-0.152-0.535-0.425-0.906-0.832-1.121-0.343-0.191-0.64-0.234-0.898-0.129-0.211 0.086-0.34 0.344-0.383 0.77-0.043 0.449 0.086 0.832 0.383 1.152z" inkscape:connector-curvature="0"/>
      <path id="path44" style="fill-rule:evenodd;fill:#fff59c" d="m26.738 25.378c0-0.942-0.32-1.453-0.961-1.539-0.406-0.043-0.672 0.128-0.8 0.511-0.106 0.387-0.008 0.782 0.289 1.188 0.234 0.297 0.543 0.437 0.929 0.414 0.383-0.024 0.563-0.215 0.543-0.574z" inkscape:connector-curvature="0"/>
      <path id="path46" style="fill-rule:evenodd;fill:#fff59c" d="m22.516 24.928c0.191 0.254 0.445 0.407 0.765 0.45 0.344 0.019 0.5-0.118 0.481-0.418-0.043-0.727-0.321-1.098-0.832-1.121-0.297-0.043-0.5 0.035-0.606 0.226-0.129 0.211-0.066 0.5 0.192 0.863z" inkscape:connector-curvature="0"/>
      <path id="path48" style="fill-rule:evenodd;fill:#fff59c" d="m20.242 24.448c0.129 0.258 0.371 0.414 0.735 0.48 0.363 0.043 0.515-0.117 0.449-0.48-0.086-0.426-0.371-0.66-0.864-0.703-0.468-0.043-0.574 0.191-0.32 0.703z" inkscape:connector-curvature="0"/>
      <path id="path50" style="fill-rule:evenodd;fill:#fff59c" d="m18.516 23.647c0.105 0.235 0.285 0.332 0.543 0.289 0.234-0.043 0.277-0.191 0.129-0.449-0.153-0.234-0.313-0.309-0.481-0.223-0.191 0.086-0.258 0.211-0.191 0.383z" inkscape:connector-curvature="0"/>
      <path id="path52" style="fill-rule:evenodd;fill:#fff59c" d="m16.82 23.135c0.278 0.215 0.586 0.309 0.926 0.29 0.34-0.024 0.375-0.141 0.098-0.352-0.258-0.215-0.547-0.301-0.867-0.258-0.297 0.067-0.352 0.172-0.157 0.32z" inkscape:connector-curvature="0"/>
      <path id="path54" style="fill-rule:evenodd;fill:#ffef59" d="m18.289 22.37c0.043 0.211 0.191 0.316 0.449 0.316s0.426-0.105 0.512-0.316c0.191-0.406 0.117-0.621-0.223-0.641-0.191-0.023-0.363 0.031-0.511 0.16-0.172 0.125-0.246 0.286-0.227 0.481z" inkscape:connector-curvature="0"/>
      <path id="path56" style="fill-rule:evenodd;fill:#ffef59" d="m20.562 22.335c-0.023 0.363 0.192 0.632 0.641 0.8 0.449 0.215 0.844 0.172 1.184-0.128 0.32-0.297 0.437-0.637 0.351-1.024-0.086-0.363-0.297-0.531-0.64-0.512-0.383 0.024-0.727 0.11-1.024 0.258-0.34 0.168-0.512 0.371-0.512 0.606z" inkscape:connector-curvature="0"/>
      <path id="path58" style="fill-rule:evenodd;fill:#ffef59" d="m24.691 23.042c0.211 0.125 0.512 0.082 0.895-0.129 0.406-0.235 0.617-0.535 0.641-0.899 0-0.359-0.129-0.617-0.387-0.765-0.235-0.149-0.488-0.18-0.766-0.098-0.34 0.129-0.597 0.375-0.769 0.738-0.235 0.469-0.106 0.852 0.386 1.153z" inkscape:connector-curvature="0"/>
      <path id="path60" style="fill-rule:evenodd;fill:#ffef59" d="m27.953 22.561c0.086 0.192 0.406 0.254 0.961 0.192 0.574-0.043 0.906-0.227 0.992-0.543 0.129-0.578-0.129-0.918-0.769-1.028-0.321-0.062-0.629 0.067-0.926 0.387-0.301 0.34-0.387 0.672-0.258 0.992z" inkscape:connector-curvature="0"/>
      <path id="path62" style="fill-rule:evenodd;fill:#ffef59" d="m31.539 22.432c0.063 0.301 0.383 0.438 0.957 0.414 0.555-0.019 0.942-0.191 1.152-0.511 0.172-0.297 0.11-0.555-0.191-0.766-0.234-0.191-0.492-0.289-0.769-0.289-0.211 0-0.469 0.129-0.766 0.387-0.297 0.273-0.426 0.531-0.383 0.765z" inkscape:connector-curvature="0"/>
      <path id="path64" style="fill-rule:evenodd;fill:#f2e030" d="m20.176 20.319 0.449-0.125c0.344-0.086 0.609-0.117 0.801-0.098 0.34 0.063 0.566 0.075 0.672 0.032-0.02-0.106-0.075-0.203-0.16-0.289-0.211-0.168-0.532-0.223-0.961-0.161-0.403 0.086-0.661 0.215-0.766 0.387l-0.035 0.254z" inkscape:connector-curvature="0"/>
      <path id="path66" style="fill-rule:evenodd;fill:#f2e030" d="m26.258 19.487c0.043-0.254-0.184-0.426-0.672-0.512-0.512-0.086-0.981 0.024-1.41 0.321-0.383 0.277-0.477 0.48-0.285 0.609l0.445-0.098c0.363-0.062 0.695-0.086 0.992-0.062l0.738 0.094 0.192-0.352z" inkscape:connector-curvature="0"/>
      <path id="path68" style="fill-rule:evenodd;fill:#f2e030" d="m27.633 19.585 1.859 0.351 0.477 0.16 0.097-0.289c-0.023-0.215-0.289-0.406-0.8-0.574-0.512-0.195-0.938-0.195-1.278 0l-0.355 0.352z" inkscape:connector-curvature="0"/>
      <path id="path70" style="fill-rule:evenodd;fill:#f2e030" d="m28.336 18.624c0.301 0.066 0.652 0.074 1.059 0.031 0.425-0.063 0.511-0.16 0.253-0.285-0.253-0.153-0.628-0.172-1.117-0.067-0.511 0.106-0.578 0.215-0.195 0.321z" inkscape:connector-curvature="0"/>
      <path id="path72" style="fill-rule:evenodd;fill:#f2e030" d="m26.227 18.37c-0.258-0.086-0.512-0.067-0.77 0.062-0.254 0.129-0.203 0.215 0.16 0.258 0.278 0.02 0.512-0.012 0.703-0.098 0.196-0.085 0.16-0.16-0.093-0.222z" inkscape:connector-curvature="0"/>
      <path id="path74" style="fill-rule:evenodd;fill:#f2e030" d="m21.746 19.393c0.149 0.02 0.289 0 0.418-0.066 0.106-0.063 0.106-0.117 0-0.16-0.129-0.039-0.277-0.032-0.449 0.035-0.192 0.082-0.184 0.148 0.031 0.191z" inkscape:connector-curvature="0"/>
      <path id="path76" style="fill-rule:evenodd;fill:#f2e030" d="m17.652 20.706c-0.086 0.105 0.032 0.105 0.352 0 0.469-0.129 0.746-0.196 0.832-0.196 0.383-0.062 0.309-0.113-0.227-0.16-0.382-0.039-0.703 0.078-0.957 0.356z" inkscape:connector-curvature="0"/>
      <path id="path78" style="fill-rule:evenodd;fill:#f2e030" d="m16.18 21.44c-0.024 0.086 0.105 0.098 0.382 0.031 0.278-0.043 0.395-0.105 0.352-0.191-0.019-0.086-0.137-0.105-0.352-0.063-0.214 0.043-0.339 0.118-0.382 0.223z" inkscape:connector-curvature="0"/>
      <path id="path80" style="fill-rule:evenodd;fill:#f2e45e" d="m58.035 18.69c1.684 0.192 2.301 0.457 1.856 0.797-0.301 0.215-0.579 0.344-0.832 0.383l-0.321 0.035h0.703c0.512-0.066 0.844-0.195 0.993-0.387 0.234-0.316 0.097-0.605-0.414-0.863l1.085-0.031c0.727-0.106 1.122-0.34 1.184-0.703 0.106-0.579-0.191-0.918-0.894-1.024 0.148 0.129 0.253 0.266 0.316 0.414 0.172 0.301 0.086 0.535-0.254 0.707-0.344 0.168-0.82 0.278-1.441 0.317h-0.832l0.449-0.317c0.191-0.238 0.012-0.418-0.543-0.547-0.555-0.148-1.016-0.222-1.379-0.222l-0.414 0.062c1.301 0.11 1.758 0.321 1.375 0.641-0.234 0.215-0.641 0.351-1.215 0.418l-0.832 0.031 1.41 0.289z" inkscape:connector-curvature="0"/>
      <path id="path82" style="fill-rule:evenodd;fill:#fffbd6" d="m56.625 17.6c1.43 0.278 1.984 0.535 1.664 0.77-0.191 0.148-0.16 0.234 0.098 0.254 0.148 0 0.308-0.012 0.48-0.032 0.321 0.063 0.821 0.137 1.504 0.223 0.574 0.11 0.957 0.258 1.152 0.449l0.481 0.45c0.082-0.086 0.094-0.184 0.031-0.289-0.109-0.235-0.469-0.438-1.09-0.61l-1.504-0.414c0.961-0.086 1.368-0.309 1.219-0.672l-0.258-0.547c-0.019 0.344-0.246 0.621-0.672 0.832l-0.64 0.321c-0.34-0.34-0.801-0.543-1.375-0.606l-1.09-0.129z" inkscape:connector-curvature="0"/>
      <path id="path84" style="fill-rule:evenodd;fill:#3e6e00" d="m42.449 24.479 0.031 0.192c0.043 0.086 0.153 0.035 0.321-0.161 0.234-0.277 0.277-0.671 0.129-1.183-0.172-0.598-0.567-1.086-1.184-1.473-0.617-0.019-1.25-0.031-1.887-0.031-1.281-0.02-1.953 0-2.019 0.066-0.235 0.192 0.055 0.457 0.867 0.797 0.551 0.235 1.598 0.621 3.133 1.153 0.281 0.109 0.484 0.32 0.609 0.64z" inkscape:connector-curvature="0"/>
      <path id="path86" style="fill-rule:evenodd;fill:#f2e030" d="m58.449 18.975c0.235-0.914-1.355-2.027-4.769-3.328-3.282-1.258-6.184-1.949-8.703-2.078-3.711-0.215-6.719 0.031-9.024 0.734-2.515 0.77-3.765 1.973-3.742 3.618 0.062 3.328 4.531 4.961 13.406 4.894 2.711-0.019 5.485-0.469 8.321-1.344 2.773-0.851 4.277-1.683 4.511-2.496z" inkscape:connector-curvature="0"/>
      <path id="path88" style="fill-rule:evenodd;fill:#d9b100" d="m57.617 19.874h-0.32c-0.192 0.062-0.457 0.222-0.801 0.476-0.234 0.153-0.5 0.227-0.797 0.227l-0.418-0.067c-0.34 0.301-0.801 0.555-1.375 0.77-0.363 0.129-0.781 0.215-1.25 0.258h-0.574l-1.152 0.476c-0.301 0.129-0.684 0.203-1.153 0.227l-0.64-0.031-1.442 0.351c-0.402 0.106-0.863 0.094-1.375-0.031l-0.64-0.195-0.735 0.066c-0.3 0.02-0.738 0.008-1.312-0.031l-0.77-0.098-1.152 0.129c-0.359 0.043-0.766-0.086-1.215-0.387l-0.543-0.48-0.48 0.289c-0.469 0.234-1.399 0.031-2.785-0.609-0.512-0.235-0.821-0.629-0.926-1.184-0.129-0.574 0.074-1.031 0.605-1.375 0.469-0.32 1.016-0.5 1.633-0.543 0.32-0.023 0.586-0.012 0.801 0.031l0.449-0.672c0.383-0.449 0.852-0.726 1.406-0.832 0.875-0.191 1.676-0.023 2.403 0.512l0.191-0.289c0.277-0.191 0.797-0.309 1.566-0.352 0.77-0.062 1.399 0.024 1.887 0.258 0.258 0.129 0.438 0.254 0.547 0.383l0.094-0.32c0.172-0.215 0.547-0.309 1.121-0.285 0.918 0.019 1.683 0.316 2.305 0.894l0.285-0.258c0.277-0.148 0.683-0.234 1.218-0.254 0.832 0 1.43 0.297 1.789 0.895l0.258-0.191c0.254-0.129 0.567-0.18 0.926-0.161 0.578 0.024 1.016 0.301 1.313 0.832l0.097-0.128c0.129-0.063 0.375 0 0.735 0.195 0.429 0.191 0.746 0.437 0.961 0.734l0.093-0.129c0.239-0.914-1.351-2.027-4.765-3.328-3.285-1.258-6.188-1.949-8.703-2.078-3.711-0.215-6.719 0.031-9.024 0.734-2.519 0.77-3.765 1.973-3.746 3.618 0.066 3.328 4.535 4.961 13.41 4.894 2.195-0.019 4.512-0.351 6.945-0.988 2.305-0.578 3.989-1.231 5.055-1.953z" inkscape:connector-curvature="0"/>
      <path id="path90" style="fill-rule:evenodd;fill:#549400" d="m41.105 23.425c0.34 0.468 0.297 0.894-0.128 1.281l-0.766 0.445 1.535-0.16c0.727-0.234 1.012-0.445 0.863-0.641-0.105-0.125-0.382-0.316-0.832-0.574l-0.672-0.351z" inkscape:connector-curvature="0"/>
      <path id="path92" style="fill-rule:evenodd;fill:#69ab00" d="m39.539 23.233c0.555 0.051 0.981 0.109 1.277 0.176-1.671-0.586-3.066-1.125-4.191-1.617-1.301-0.575-2.379-1.504-3.23-2.782l-0.352-0.8c-0.105-0.024-0.215 0.019-0.32 0.125-0.215 0.191-0.309 0.547-0.289 1.058 0.023 0.617 0.566 1.289 1.632 2.016 1.024 0.703 2.145 1.215 3.36 1.535 0.277 0.063 0.98 0.16 2.113 0.289z" inkscape:connector-curvature="0"/>
      <path id="path94" style="fill-rule:evenodd;fill:#a3d90f" d="m40.914 23.585c0.66 0.234 1.066 0.468 1.215 0.703 0.109 0.191 0.043 0.351-0.191 0.48-0.235 0.106-0.586 0.203-1.055 0.285l-0.672 0.098 0.062 0.031c0.106 0.043 0.332 0.075 0.672 0.098 0.875 0.062 1.493-0.191 1.856-0.77 0.301-0.488-1.215-1.214-4.543-2.175-1.363-0.383-2.453-0.969-3.262-1.758-0.43-0.43-0.91-1.102-1.441-2.02l-0.352 0.098c-0.043 0.086-0.031 0.234 0.031 0.449 0.172 0.426 0.567 0.949 1.184 1.567 0.852 0.812 1.918 1.453 3.199 1.921 0.746 0.254 1.848 0.586 3.297 0.993z" inkscape:connector-curvature="0"/>
      <path id="path96" style="fill-rule:evenodd;fill:#69ab00" d="m42.898 14.53c0.512-0.492 0.641-0.992 0.383-1.504-0.105-0.258-0.277-0.473-0.511-0.641-1.708 0.532-3.274 0.797-4.704 0.797-0.875-0.019-1.91 0.301-3.105 0.961-1.324 0.727-2.207 1.547-2.656 2.465-0.407 0.832-0.457 1.676-0.16 2.527l0.578 0.993 0.285-0.864c0.363-0.66 0.953-1.226 1.762-1.695 1.324-0.769 2.988-1.398 4.992-1.891 1.726-0.425 2.773-0.808 3.136-1.148z" inkscape:connector-curvature="0"/>
      <path id="path98" style="fill-rule:evenodd;fill:#549400" d="m40.434 15.616c1.132-0.32 1.89-0.629 2.273-0.926 0.297-0.515 0.523-0.953 0.672-1.312-0.043-0.407-0.246-0.739-0.609-0.993-1.708 0.532-3.274 0.797-4.704 0.797-0.875-0.019-1.91 0.301-3.105 0.961-1.32 0.727-2.207 1.547-2.656 2.465-0.512 1.047-0.469 2.082 0.129 3.102l0.289 0.418-0.258-0.575c-0.149-0.492-0.199-1.015-0.16-1.57 0.023-0.512 0.172-0.957 0.449-1.344 0.492-0.66 1.441-1.324 2.848-1.984 0.875-0.406 1.761-0.684 2.656-0.832 0.961-0.148 1.707-0.106 2.242 0.129 0.531 0.234 0.66 0.512 0.383 0.832-0.215 0.297-0.703 0.609-1.473 0.926l1.024-0.094z" inkscape:connector-curvature="0"/>
      <path id="path100" style="fill-rule:evenodd;fill:#549400" d="m44.371 11.967c-0.512-0.98-1.621-1.503-3.328-1.566l-2.402 0.16 1.441 0.254c1.047 0.301 1.805 0.746 2.273 1.344 0.575 0.683 0.618 1.453 0.125 2.305l-0.894 1.054 1.824-0.988c1.11-0.832 1.43-1.688 0.961-2.563z" inkscape:connector-curvature="0"/>
      <path id="path102" style="fill-rule:evenodd;fill:#a3d90f" d="m40.977 15.264c-0.364 0.149-1.118 0.321-2.27 0.512-1.047 0.191-2.027 0.512-2.945 0.961-1.324 0.66-2.231 1.43-2.719 2.305l-0.32 1.086 0.543-0.961c0.535-0.746 1.281-1.344 2.242-1.789 1.215-0.598 2.676-1.047 4.383-1.344 1.257-0.234 2.132-0.621 2.621-1.152 0.535-0.579 0.707-1.207 0.515-1.887-0.172-0.664-0.597-1.184-1.281-1.57-0.512-0.297-1.184-0.532-2.016-0.704l-1.089-0.16 1.886 0.578c1.282 0.551 1.934 1.215 1.953 1.981 0.024 0.555-0.031 0.941-0.16 1.152-0.191 0.363-0.64 0.695-1.343 0.992z" inkscape:connector-curvature="0"/>
      <path id="path104" style="fill-rule:evenodd;fill:#fff59c" d="m39.57 20.768c0.192-0.383 0.149-0.746-0.129-1.09-0.234-0.296-0.543-0.468-0.925-0.511-0.387-0.02-0.715 0.097-0.993 0.351-0.3 0.301-0.375 0.653-0.226 1.059 0.172 0.426 0.558 0.648 1.152 0.672 0.598 0.019 0.973-0.141 1.121-0.481z" inkscape:connector-curvature="0"/>
      <path id="path106" style="fill-rule:evenodd;fill:#fff59c" d="m42.609 21.057c0.129-0.32 0.086-0.672-0.129-1.058-0.21-0.36-0.468-0.543-0.765-0.543-0.301-0.02-0.567 0.117-0.801 0.418-0.215 0.32-0.258 0.66-0.129 1.023s0.449 0.543 0.961 0.543c0.469 0.02 0.758-0.105 0.863-0.383z" inkscape:connector-curvature="0"/>
      <path id="path108" style="fill-rule:evenodd;fill:#fff59c" d="m45.426 21.378c0.32-0.301 0.469-0.684 0.449-1.153-0.02-0.429-0.148-0.695-0.383-0.8-0.258-0.11-0.554-0.075-0.898 0.093-0.426 0.192-0.715 0.555-0.864 1.09-0.171 0.535-0.011 0.875 0.481 1.024 0.445 0.148 0.851 0.066 1.215-0.254z" inkscape:connector-curvature="0"/>
      <path id="path110" style="fill-rule:evenodd;fill:#fff59c" d="m48.496 21.6c0.32-0.383 0.43-0.769 0.32-1.152-0.082-0.406-0.328-0.586-0.734-0.543-0.641 0.02-1.004 0.512-1.09 1.473-0.019 0.363 0.16 0.566 0.547 0.605 0.383 0.043 0.703-0.086 0.957-0.383z" inkscape:connector-curvature="0"/>
      <path id="path112" style="fill-rule:evenodd;fill:#fff59c" d="m51.25 21.151c0.277-0.34 0.363-0.617 0.254-0.832-0.106-0.191-0.309-0.285-0.606-0.285-0.492 0.019-0.789 0.371-0.898 1.055-0.043 0.32 0.109 0.468 0.449 0.449 0.344-0.024 0.61-0.153 0.801-0.387z" inkscape:connector-curvature="0"/>
      <path id="path114" style="fill-rule:evenodd;fill:#fff59c" d="m53.555 20.768c0.297-0.492 0.203-0.726-0.289-0.703-0.493 0.02-0.789 0.246-0.895 0.672-0.086 0.363 0.051 0.523 0.414 0.48 0.363-0.042 0.617-0.191 0.77-0.449z" inkscape:connector-curvature="0"/>
      <path id="path116" style="fill-rule:evenodd;fill:#fff59c" d="m55.312 20.065c0.086-0.152 0.032-0.277-0.16-0.383-0.168-0.086-0.328-0.011-0.48 0.223-0.149 0.234-0.117 0.371 0.098 0.418 0.234 0.062 0.418-0.023 0.542-0.258z" inkscape:connector-curvature="0"/>
      <path id="path118" style="fill-rule:evenodd;fill:#fff59c" d="m57.043 19.647c0.191-0.129 0.137-0.234-0.16-0.32-0.301-0.063-0.586 0-0.863 0.191-0.301 0.215-0.282 0.344 0.062 0.387 0.34 0.02 0.66-0.066 0.961-0.258z" inkscape:connector-curvature="0"/>
      <path id="path120" style="fill-rule:evenodd;fill:#ffef59" d="m55.602 18.815c0.043-0.191-0.02-0.363-0.192-0.512-0.148-0.128-0.32-0.191-0.512-0.191-0.32 0.02-0.406 0.246-0.257 0.672 0.086 0.234 0.257 0.351 0.515 0.351 0.254 0 0.403-0.105 0.446-0.32z" inkscape:connector-curvature="0"/>
      <path id="path122" style="fill-rule:evenodd;fill:#ffef59" d="m53.363 18.655c0-0.234-0.172-0.445-0.515-0.641-0.278-0.148-0.606-0.242-0.989-0.285-0.343-0.043-0.566 0.117-0.671 0.481-0.11 0.363 0 0.703 0.316 1.023 0.301 0.32 0.684 0.395 1.152 0.223 0.449-0.172 0.684-0.438 0.707-0.801z" inkscape:connector-curvature="0"/>
      <path id="path124" style="fill-rule:evenodd;fill:#ffef59" d="m49.203 19.135c0.488-0.277 0.641-0.64 0.449-1.085-0.172-0.407-0.429-0.672-0.769-0.801-0.258-0.086-0.504-0.074-0.738 0.031-0.278 0.152-0.415 0.406-0.415 0.77-0.023 0.363 0.168 0.671 0.575 0.925 0.386 0.235 0.683 0.289 0.898 0.16z" inkscape:connector-curvature="0"/>
      <path id="path126" style="fill-rule:evenodd;fill:#ffef59" d="m45.938 18.495c0.148-0.32 0.085-0.649-0.192-0.992-0.277-0.34-0.578-0.489-0.898-0.446-0.66 0.106-0.938 0.438-0.828 0.993 0.062 0.296 0.382 0.5 0.957 0.605 0.554 0.086 0.875 0.035 0.961-0.16z" inkscape:connector-curvature="0"/>
      <path id="path128" style="fill-rule:evenodd;fill:#ffef59" d="m42.387 18.175c0.043-0.211-0.075-0.469-0.352-0.766-0.301-0.277-0.555-0.426-0.769-0.449-0.254-0.02-0.512 0.054-0.77 0.222-0.297 0.215-0.371 0.473-0.223 0.77 0.172 0.344 0.547 0.531 1.122 0.578 0.574 0.062 0.906-0.055 0.992-0.355z" inkscape:connector-curvature="0"/>
      <path id="path130" style="fill-rule:evenodd;fill:#f2e030" d="m53.84 16.671c0.129-0.297-0.137-0.52-0.797-0.672-0.406-0.082-0.715-0.051-0.93 0.097l-0.191 0.289h0.672c0.32-0.023 0.734 0.075 1.246 0.286z" inkscape:connector-curvature="0"/>
      <path id="path132" style="fill-rule:evenodd;fill:#f2e030" d="m50.164 16.065c0.168-0.129 0.074-0.344-0.289-0.64-0.383-0.321-0.844-0.45-1.379-0.383-0.469 0.062-0.703 0.222-0.703 0.48l0.16 0.383 0.77-0.066c0.488-0.039 0.968 0.035 1.441 0.226z" inkscape:connector-curvature="0"/>
      <path id="path134" style="fill-rule:evenodd;fill:#f2e030" d="m46.418 15.553c-0.063-0.128-0.172-0.246-0.32-0.351-0.34-0.215-0.77-0.246-1.282-0.098-0.511 0.153-0.789 0.332-0.832 0.543l0.098 0.289 0.48-0.129c0.321-0.086 0.938-0.168 1.856-0.254z" inkscape:connector-curvature="0"/>
      <path id="path136" style="fill-rule:evenodd;fill:#f2e030" d="m45.777 14.561c0.407-0.086 0.352-0.191-0.16-0.32-0.488-0.149-0.875-0.16-1.152-0.031-0.254 0.125-0.18 0.234 0.226 0.32 0.426 0.082 0.786 0.094 1.086 0.031z" inkscape:connector-curvature="0"/>
      <path id="path138" style="fill-rule:evenodd;fill:#f2e030" d="m48.496 14.753c0.363-0.024 0.418-0.098 0.16-0.223-0.234-0.152-0.488-0.195-0.765-0.129-0.258 0.063-0.289 0.137-0.098 0.223 0.172 0.086 0.406 0.129 0.703 0.129z" inkscape:connector-curvature="0"/>
      <path id="path140" style="fill-rule:evenodd;fill:#f2e030" d="m52.305 15.647c0.215-0.019 0.234-0.074 0.062-0.16-0.168-0.082-0.316-0.105-0.445-0.062-0.11 0.042-0.11 0.093 0 0.16 0.105 0.062 0.234 0.086 0.383 0.062z" inkscape:connector-curvature="0"/>
      <path id="path142" style="fill-rule:evenodd;fill:#f2e030" d="m56.305 17.182c-0.364-0.445-0.746-0.531-1.153-0.254 0.067 0 0.344 0.086 0.832 0.254 0.321 0.11 0.426 0.11 0.321 0z" inkscape:connector-curvature="0"/>
      <path id="path144" style="fill-rule:evenodd;fill:#f2e030" d="m57.746 17.983c0-0.082-0.109-0.16-0.32-0.223-0.215-0.062-0.34-0.054-0.383 0.032-0.023 0.086 0.094 0.16 0.352 0.222 0.253 0.086 0.371 0.078 0.351-0.031z" inkscape:connector-curvature="0"/>
      <path id="path146" style="fill-rule:evenodd;fill:#f2e45e" d="m4.402 19.776 1.282-0.641c-0.961 0.301-1.664 0.332-2.114 0.098-0.449-0.215-0.054-0.535 1.184-0.961-0.34-0.043-0.906 0.149-1.695 0.578-0.493 0.254-0.618 0.481-0.383 0.672l0.512 0.192c-0.918 0.296-1.676 0.394-2.274 0.285-0.363-0.082-0.512-0.297-0.449-0.637 0.023-0.172 0.086-0.332 0.195-0.48-0.152 0.062-0.289 0.168-0.418 0.316-0.254 0.258-0.308 0.555-0.16 0.898 0.148 0.321 0.598 0.438 1.344 0.352 0.363-0.023 0.715-0.086 1.058-0.191-0.449 0.359-0.523 0.671-0.226 0.925 0.191 0.153 0.543 0.192 1.058 0.129 0.168-0.027 0.329-0.062 0.477-0.097-0.27 0.039-0.609-0.024-1.023-0.192-0.512-0.211 0.031-0.629 1.632-1.246z" inkscape:connector-curvature="0"/>
      <path id="path148" style="fill-rule:evenodd;fill:#fffbd6" d="m3.57 19.905c0.684-0.086 0.844-0.215 0.481-0.387-0.235-0.082-0.063-0.297 0.511-0.636 0.278-0.172 0.575-0.332 0.895-0.481l-0.992 0.383c-0.34 0.125-0.637 0.32-0.895 0.574l-0.289 0.352-0.703-0.16c-0.469-0.106-0.758-0.317-0.863-0.641l-0.098 0.609c-0.039 0.239 0.16 0.364 0.61 0.387 0.234 0 0.468-0.023 0.703-0.066l-1.344 0.769c-0.555 0.34-0.852 0.629-0.895 0.863l0.094 0.289 0.387-0.543c0.148-0.234 0.488-0.468 1.023-0.707 0.297-0.148 0.758-0.351 1.375-0.605z" inkscape:connector-curvature="0"/>
      <path id="path150" style="fill-rule:evenodd;fill:#3e6e00" d="m20.945 18.815c-0.488 0.535-0.746 1.11-0.765 1.731-0.024 0.531 0.117 0.906 0.414 1.117 0.344 0.215 0.449 0.172 0.32-0.125l0.098-0.289c0.086-0.215 0.203-0.375 0.351-0.481 0.235-0.191 1.141-0.82 2.719-1.886 0.727-0.536 0.949-0.864 0.672-0.993-0.149-0.086-1.418 0.223-3.809 0.926z" inkscape:connector-curvature="0"/>
      <path id="path152" style="fill-rule:evenodd;fill:#f2e030" d="m4.082 20.159c0.383 0.726 2.039 1.152 4.961 1.281 2.965 0.149 5.758-0.098 8.383-0.734 8.64-2.114 12.566-4.801 11.777-8.067-0.383-1.597-1.898-2.453-4.543-2.558-2.39-0.11-5.355 0.394-8.898 1.504-2.41 0.765-5.043 2.164-7.903 4.191-2.988 2.09-4.246 3.551-3.777 4.383z" inkscape:connector-curvature="0"/>
      <path id="path154" style="fill-rule:evenodd;fill:#d9b100" d="m17.234 20.288c-0.578 0.469-1.207 0.703-1.886 0.703h-1.473c-0.684 0.277-1.281 0.363-1.793 0.258l-1.215-0.192c-0.597 0.211-1.207 0.285-1.824 0.223-0.383-0.043-0.758-0.129-1.121-0.254l-0.414-0.16c-0.406 0.254-0.813 0.297-1.219 0.125l-0.894-0.254-0.321 0.094c1.238 0.429 3.039 0.64 5.406 0.64 2.52 0 4.832-0.254 6.946-0.765 8.64-2.114 12.566-4.801 11.777-8.067-0.383-1.597-1.898-2.449-4.543-2.558-2.39-0.106-5.355 0.394-8.898 1.504-2.41 0.769-5.043 2.164-7.903 4.191-2.988 2.09-4.246 3.551-3.777 4.383 0 0.023 0.031 0.066 0.098 0.129 0.105-0.297 0.351-0.629 0.734-0.992 0.32-0.278 0.555-0.407 0.703-0.383 0.063 0.019 0.098 0.062 0.098 0.129l0.223-0.481c0.214-0.32 0.492-0.535 0.832-0.64 0.578-0.172 0.992-0.149 1.25 0.062l0.285-0.543c0.3-0.383 0.707-0.64 1.218-0.769 0.832-0.211 1.364-0.18 1.598 0.097l0.512-0.578c0.429-0.426 0.918-0.715 1.472-0.863 0.555-0.172 0.938-0.172 1.153 0 0.129 0.086 0.191 0.183 0.191 0.289l0.418-0.481c0.426-0.363 1.024-0.609 1.789-0.738 0.75-0.125 1.282-0.137 1.602-0.031 0.172 0.066 0.254 0.141 0.254 0.226l0.578-0.546c0.512-0.34 1.047-0.52 1.601-0.543 0.575-0.024 1.11 0.136 1.598 0.48 0.258 0.168 0.449 0.34 0.578 0.512l0.766-0.223c0.621-0.109 1.195-0.066 1.73 0.125 0.598 0.215 0.907 0.61 0.926 1.184 0.023 0.554-0.18 1.015-0.609 1.379-1.215 0.957-2.059 1.375-2.528 1.246l-0.543-0.125c-0.406 0.765-0.894 1.183-1.472 1.246l-1.184 0.16c-0.832 0.363-1.492 0.586-1.984 0.672l-0.735 0.129z" inkscape:connector-curvature="0"/>
      <path id="path156" style="fill-rule:evenodd;fill:#549400" d="m21.938 20.194c-0.704 0.617-1.11 1.031-1.215 1.246-0.11 0.215 0.234 0.352 1.023 0.418 0.277 0.02 0.777-0.055 1.504-0.226-0.301-0.02-0.578-0.106-0.832-0.254-0.531-0.258-0.691-0.653-0.48-1.184z" inkscape:connector-curvature="0"/>
      <path id="path158" style="fill-rule:evenodd;fill:#69ab00" d="m27.668 15.393c-0.535 0.875-1.133 1.567-1.793 2.078-0.664 0.512-1.527 1.141-2.594 1.891l-1.152 0.781c0.254-0.136 0.68-0.324 1.281-0.558 1.047-0.364 1.707-0.629 1.985-0.801 1.109-0.598 2.07-1.356 2.878-2.274 0.875-0.98 1.239-1.769 1.09-2.367-0.129-0.511-0.308-0.843-0.543-0.992l-0.32-0.031c-0.043 0.383-0.098 0.672-0.16 0.863-0.11 0.363-0.332 0.832-0.672 1.41z" inkscape:connector-curvature="0"/>
      <path id="path160" style="fill-rule:evenodd;fill:#a3d90f" d="m28.051 13.6c-0.301 1.004-0.598 1.77-0.895 2.305-0.597 0.961-1.504 1.793-2.722 2.496-2.985 1.75-4.266 2.836-3.84 3.262 0.511 0.472 1.164 0.566 1.953 0.289 0.512-0.172 0.746-0.277 0.703-0.32-0.789 0.109-1.375 0.128-1.758 0.066-0.281-0.066-0.387-0.203-0.32-0.418 0.086-0.277 0.426-0.609 1.023-0.992 0.641-0.406 1.621-1.004 2.942-1.793 1.133-0.766 1.996-1.653 2.593-2.656 0.469-0.747 0.727-1.344 0.766-1.789 0.024-0.235 0-0.383-0.062-0.45h-0.383z" inkscape:connector-curvature="0"/>
      <path id="path162" style="fill-rule:evenodd;fill:#69ab00" d="m26.641 12.928c0.918 0.254 1.621 0.661 2.113 1.215 0.254 0.278 0.414 0.535 0.48 0.77l0.321-1.121c0.086-0.875-0.172-1.664-0.77-2.367-0.66-0.813-1.715-1.395-3.168-1.758-1.32-0.344-2.41-0.395-3.262-0.16-0.855 0.234-1.902 0.363-3.136 0.382h-1.633c-0.172 0.215-0.277 0.469-0.32 0.77-0.106 0.551 0.148 1 0.769 1.344 0.445 0.254 1.547 0.371 3.293 0.351 2.07-0.023 3.84 0.168 5.313 0.574z" inkscape:connector-curvature="0"/>
      <path id="path164" style="fill-rule:evenodd;fill:#549400" d="m28.785 11.425c-0.66-0.813-1.715-1.399-3.168-1.762-1.32-0.34-2.41-0.395-3.262-0.16-0.855 0.238-1.898 0.363-3.136 0.386h-1.633c-0.277 0.34-0.395 0.715-0.352 1.118 0.621 0.683 0.95 1.046 0.993 1.089 0.468 0.192 1.281 0.309 2.433 0.352l1.055-0.16c-0.832-0.11-1.399-0.278-1.695-0.512-0.344-0.258-0.278-0.566 0.191-0.93 0.449-0.363 1.152-0.586 2.113-0.671 0.895-0.086 1.832-0.032 2.817 0.16 1.511 0.297 2.589 0.703 3.23 1.215 0.34 0.281 0.598 0.664 0.77 1.152 0.168 0.535 0.234 1.058 0.191 1.57l-0.098 0.637 0.192-0.477c0.32-1.129 0.105-2.132-0.641-3.007z" inkscape:connector-curvature="0"/>
      <path id="path166" style="fill-rule:evenodd;fill:#549400" d="m15.953 9.889c-0.234 0.957 0.301 1.707 1.602 2.239 0.64 0.257 1.3 0.425 1.984 0.511-0.406-0.191-0.781-0.457-1.121-0.797-0.684-0.683-0.844-1.441-0.48-2.273 0.339-0.703 0.98-1.324 1.921-1.855 0.469-0.278 0.907-0.481 1.309-0.61-0.766 0.024-1.555 0.16-2.367 0.418-1.621 0.488-2.571 1.278-2.848 2.367z" inkscape:connector-curvature="0"/>
      <path id="path168" style="fill-rule:evenodd;fill:#a3d90f" d="m29.234 14.913c-0.043-0.301-0.234-0.629-0.574-0.992-0.664-0.727-1.719-1.239-3.168-1.536-1.004-0.234-2.039-0.3-3.105-0.191-1.153 0.106-1.93 0.125-2.336 0.063-0.746-0.129-1.258-0.344-1.535-0.641-0.192-0.191-0.344-0.555-0.45-1.086-0.171-0.77 0.301-1.57 1.407-2.402 0.554-0.426 1.121-0.766 1.699-1.024-1.195 0.383-2.137 0.918-2.817 1.602-0.535 0.554-0.812 1.16-0.832 1.824 0 0.723 0.317 1.289 0.957 1.695 0.598 0.407 1.547 0.567 2.848 0.481 1.731-0.129 3.242-0.055 4.547 0.222 1.043 0.215 1.918 0.61 2.621 1.184 0.344 0.277 0.59 0.543 0.738 0.801z" inkscape:connector-curvature="0"/>
      <path id="path170" style="fill-rule:evenodd;fill:#fff59c" d="m22.77 17.249c0.257 0.297 0.66 0.363 1.214 0.191 0.578-0.191 0.887-0.512 0.93-0.961 0.063-0.426-0.086-0.734-0.449-0.926-0.32-0.191-0.672-0.238-1.055-0.128-0.363 0.128-0.617 0.375-0.769 0.734-0.168 0.387-0.125 0.75 0.129 1.09z" inkscape:connector-curvature="0"/>
      <path id="path172" style="fill-rule:evenodd;fill:#fff59c" d="m19.922 18.272c0.172 0.235 0.488 0.289 0.961 0.16 0.469-0.129 0.722-0.382 0.765-0.769 0.024-0.383-0.117-0.703-0.414-0.957-0.277-0.235-0.566-0.313-0.863-0.227-0.277 0.086-0.469 0.332-0.578 0.738-0.125 0.426-0.086 0.778 0.129 1.055z" inkscape:connector-curvature="0"/>
      <path id="path174" style="fill-rule:evenodd;fill:#fff59c" d="m17.266 19.264c0.406 0.235 0.82 0.223 1.25-0.031 0.425-0.277 0.488-0.66 0.191-1.152-0.277-0.449-0.652-0.727-1.121-0.832-0.363-0.063-0.648-0.012-0.863 0.16-0.192 0.148-0.246 0.426-0.161 0.832 0.086 0.469 0.321 0.809 0.704 1.023z" inkscape:connector-curvature="0"/>
      <path id="path176" style="fill-rule:evenodd;fill:#fff59c" d="m14.355 20.257c0.321 0.214 0.661 0.253 1.024 0.128 0.363-0.128 0.48-0.375 0.351-0.738-0.148-0.426-0.308-0.734-0.48-0.926-0.234-0.238-0.543-0.32-0.926-0.257-0.406 0.086-0.597 0.332-0.578 0.738 0 0.402 0.203 0.758 0.609 1.055z" inkscape:connector-curvature="0"/>
      <path id="path178" style="fill-rule:evenodd;fill:#fff59c" d="m11.57 20.51c0.258 0.172 0.543 0.227 0.864 0.161 0.339-0.082 0.449-0.266 0.32-0.543-0.234-0.641-0.609-0.907-1.121-0.801-0.297 0.066-0.469 0.191-0.512 0.383-0.062 0.257 0.086 0.523 0.449 0.8z" inkscape:connector-curvature="0"/>
      <path id="path180" style="fill-rule:evenodd;fill:#fff59c" d="m9.234 20.706c0.211 0.211 0.5 0.285 0.864 0.222 0.363-0.043 0.461-0.234 0.289-0.578-0.192-0.383-0.535-0.519-1.024-0.414-0.492 0.106-0.535 0.364-0.129 0.77z" inkscape:connector-curvature="0"/>
      <path id="path182" style="fill-rule:evenodd;fill:#fff59c" d="m7.379 20.448c0.172 0.191 0.363 0.234 0.574 0.129 0.215-0.106 0.215-0.258 0-0.449-0.211-0.192-0.394-0.223-0.543-0.094-0.148 0.148-0.16 0.285-0.031 0.414z" inkscape:connector-curvature="0"/>
      <path id="path184" style="fill-rule:evenodd;fill:#fff59c" d="m5.586 20.479c0.32 0.106 0.641 0.106 0.961 0 0.32-0.105 0.32-0.234 0-0.383-0.32-0.129-0.617-0.117-0.895 0.032-0.281 0.148-0.3 0.265-0.066 0.351z" inkscape:connector-curvature="0"/>
      <path id="path186" style="fill-rule:evenodd;fill:#ffef59" d="m6.77 19.296c0.085 0.214 0.257 0.277 0.511 0.191 0.258-0.062 0.399-0.211 0.418-0.449 0.02-0.446-0.117-0.637-0.418-0.574-0.191 0.043-0.34 0.148-0.445 0.32-0.129 0.191-0.148 0.363-0.066 0.512z" inkscape:connector-curvature="0"/>
      <path id="path188" style="fill-rule:evenodd;fill:#ffef59" d="m8.914 18.592c0.106 0.34 0.395 0.543 0.863 0.61 0.493 0.043 0.856-0.117 1.09-0.481 0.235-0.386 0.254-0.75 0.063-1.089-0.192-0.321-0.457-0.426-0.801-0.321-0.359 0.153-0.66 0.332-0.895 0.547-0.277 0.254-0.382 0.5-0.32 0.734z" inkscape:connector-curvature="0"/>
      <path id="path190" style="fill-rule:evenodd;fill:#ffef59" d="m13.043 18.014c0.254 0.067 0.531-0.062 0.832-0.382 0.32-0.321 0.437-0.661 0.352-1.024-0.106-0.363-0.309-0.574-0.61-0.641-0.254-0.062-0.5-0.011-0.734 0.161-0.278 0.214-0.457 0.523-0.543 0.929-0.086 0.512 0.148 0.832 0.703 0.957z" inkscape:connector-curvature="0"/>
      <path id="path192" style="fill-rule:evenodd;fill:#ffef59" d="m16.051 16.608c0.148 0.172 0.469 0.141 0.961-0.098 0.531-0.234 0.789-0.511 0.765-0.828 0-0.554-0.339-0.8-1.023-0.738-0.32 0.043-0.566 0.258-0.734 0.641-0.192 0.425-0.184 0.765 0.031 1.023z" inkscape:connector-curvature="0"/>
      <path id="path194" style="fill-rule:evenodd;fill:#ffef59" d="m19.441 15.425c0.129 0.253 0.469 0.285 1.024 0.093 0.535-0.168 0.844-0.445 0.93-0.828 0.082-0.344-0.043-0.578-0.387-0.707-0.278-0.082-0.551-0.094-0.832-0.031-0.211 0.062-0.414 0.277-0.606 0.64-0.195 0.364-0.234 0.641-0.129 0.833z" inkscape:connector-curvature="0"/>
      <path id="path196" style="fill-rule:evenodd;fill:#f2e030" d="m7.953 16.8 0.383-0.254c0.301-0.192 0.555-0.301 0.769-0.321 0.321-0.062 0.524-0.129 0.61-0.191-0.192-0.363-0.59-0.395-1.184-0.098-0.363 0.192-0.566 0.395-0.609 0.61l0.031 0.254z" inkscape:connector-curvature="0"/>
      <path id="path198" style="fill-rule:evenodd;fill:#f2e030" d="m11.348 15.296 0.414-0.254c0.32-0.172 0.64-0.278 0.961-0.321l0.734-0.129 0.066-0.414c-0.043-0.257-0.312-0.351-0.8-0.289-0.535 0.063-0.95 0.301-1.25 0.703-0.278 0.383-0.317 0.618-0.125 0.704z" inkscape:connector-curvature="0"/>
      <path id="path200" style="fill-rule:evenodd;fill:#f2e030" d="m14.867 13.858 0.735-0.098c0.554-0.085 0.929-0.117 1.121-0.097h0.511c0.067-0.106 0.075-0.211 0.032-0.321-0.106-0.191-0.426-0.296-0.957-0.316-0.536-0.023-0.93 0.117-1.184 0.414l-0.258 0.418z" inkscape:connector-curvature="0"/>
      <path id="path202" style="fill-rule:evenodd;fill:#f2e030" d="m15.25 12.737c0.301-0.023 0.641-0.117 1.023-0.289 0.383-0.191 0.438-0.309 0.161-0.352-0.297-0.062-0.672 0.032-1.122 0.289-0.468 0.278-0.488 0.395-0.062 0.352z" inkscape:connector-curvature="0"/>
      <path id="path204" style="fill-rule:evenodd;fill:#f2e030" d="m12.66 13.6c0.278-0.062 0.488-0.16 0.637-0.289 0.172-0.125 0.129-0.191-0.125-0.191-0.277 0-0.524 0.097-0.738 0.289-0.211 0.215-0.137 0.277 0.226 0.191z" inkscape:connector-curvature="0"/>
      <path id="path206" style="fill-rule:evenodd;fill:#f2e030" d="m9.172 15.425c0.148-0.02 0.266-0.075 0.351-0.161 0.082-0.105 0.075-0.16-0.031-0.16-0.129-0.019-0.269 0.031-0.418 0.16-0.148 0.129-0.117 0.18 0.098 0.161z" inkscape:connector-curvature="0"/>
      <path id="path208" style="fill-rule:evenodd;fill:#f2e030" d="m5.652 17.889c-0.066 0.125 0.051 0.094 0.352-0.097 0.426-0.254 0.672-0.395 0.734-0.418 0.321-0.168 0.223-0.199-0.289-0.094-0.363 0.086-0.629 0.289-0.797 0.609z" inkscape:connector-curvature="0"/>
      <path id="path210" style="fill-rule:evenodd;fill:#f2e030" d="m4.465 19.042c0.023 0.086 0.152 0.062 0.387-0.067 0.234-0.125 0.328-0.222 0.285-0.285-0.063-0.086-0.192-0.078-0.383 0.031-0.192 0.106-0.289 0.211-0.289 0.321z" inkscape:connector-curvature="0"/>
      <path id="path212" style="fill-rule:evenodd;fill:#f2e45e" d="m52.145 11.999c0.085 0.363-0.063 0.59-0.45 0.672-0.359 0.086-0.863 0.086-1.504 0l-0.863-0.157 0.512-0.226c0.234-0.211 0.098-0.446-0.414-0.703-0.535-0.278-0.992-0.45-1.379-0.512l-0.414-0.031c1.32 0.383 1.75 0.703 1.281 0.957-0.277 0.172-0.726 0.226-1.348 0.16l-0.832-0.16 1.379 0.609c1.664 0.578 2.231 0.992 1.696 1.25-0.321 0.149-0.618 0.223-0.895 0.223l-0.352-0.031 0.735 0.128c0.535 0.063 0.894 0 1.09-0.195 0.297-0.277 0.199-0.594-0.289-0.957l1.121 0.191c0.765 0.043 1.215-0.117 1.343-0.48 0.235-0.555 0.008-0.973-0.671-1.25 0.129 0.152 0.211 0.32 0.254 0.512z" inkscape:connector-curvature="0"/>
      <path id="path214" style="fill-rule:evenodd;fill:#fffbd6" d="m52.02 14.241c-0.067-0.258-0.395-0.543-0.993-0.863l-1.41-0.77 0.738 0.031c0.469-0.043 0.672-0.191 0.606-0.445l-0.125-0.609c-0.109 0.34-0.398 0.574-0.867 0.703l-0.703 0.191c-0.297-0.426-0.727-0.722-1.282-0.894l-1.054-0.383c1.386 0.574 1.886 0.957 1.504 1.148-0.235 0.11-0.215 0.192 0.062 0.258 0.152 0.043 0.313 0.074 0.481 0.094 0.3 0.129 0.789 0.32 1.472 0.578 0.555 0.234 0.906 0.469 1.059 0.703l0.414 0.578 0.098-0.32z" inkscape:connector-curvature="0"/>
      <path id="path216" style="fill-rule:evenodd;fill:#3e6e00" d="m31.473 15.393c0.3-0.215 0.425-0.609 0.382-1.183-0.043-0.664-0.339-1.258-0.894-1.793-0.617-0.149-1.246-0.297-1.887-0.45-1.301-0.296-1.996-0.414-2.082-0.351-0.105 0.066-0.105 0.184 0 0.351 0.129 0.192 0.375 0.418 0.738 0.672 0.512 0.364 1.493 0.985 2.942 1.856 0.258 0.172 0.418 0.437 0.484 0.801-0.023 0.086-0.035 0.148-0.035 0.191 0.043 0.086 0.16 0.055 0.352-0.094z" inkscape:connector-curvature="0"/>
      <path id="path218" style="fill-rule:evenodd;fill:#f2e030" d="m48.465 13.026c0.449-0.898-0.926-2.391-4.125-4.484-3.074-2.004-5.879-3.348-8.418-4.032-3.692-1.023-6.774-1.418-9.246-1.179-2.735 0.234-4.258 1.215-4.578 2.941-0.618 3.5 3.586 6.156 12.609 7.969 2.731 0.555 5.633 0.684 8.703 0.383 2.988-0.297 4.672-0.832 5.055-1.598z" inkscape:connector-curvature="0"/>
      <path id="path220" style="fill-rule:evenodd;fill:#d9b100" d="m46.195 14.014c-0.234 0.129-0.515 0.153-0.832 0.067l-0.418-0.16c-0.406 0.234-0.925 0.406-1.566 0.511-0.383 0.043-0.813 0.032-1.281-0.031l-0.61-0.098-1.246 0.258c-0.344 0.082-0.75 0.074-1.219-0.031l-0.64-0.16-1.535 0.062c-0.426 0.02-0.883-0.074-1.375-0.289l-0.61-0.351-0.765-0.094c-0.301-0.043-0.739-0.16-1.317-0.352l-0.765-0.257-1.215-0.094c-0.363-0.043-0.739-0.266-1.121-0.672l-0.481-0.609-0.543 0.16c-0.258 0.086-0.664-0.012-1.218-0.289-0.489-0.235-0.981-0.543-1.469-0.926-0.469-0.344-0.707-0.813-0.707-1.41 0-0.617 0.312-1.055 0.929-1.313 0.852-0.363 1.707-0.363 2.559 0l0.578-0.605c0.488-0.387 1.024-0.578 1.598-0.578 0.941 0 1.719 0.351 2.336 1.054l0.258-0.254c0.32-0.128 0.875-0.14 1.664-0.031 0.765 0.106 1.386 0.328 1.855 0.672 0.234 0.191 0.383 0.363 0.449 0.512l0.157-0.321c0.238-0.171 0.64-0.191 1.218-0.062 0.918 0.234 1.633 0.715 2.145 1.437l0.32-0.191c0.317-0.105 0.758-0.105 1.313 0 0.851 0.172 1.394 0.609 1.629 1.313l0.289-0.161c0.277-0.062 0.597-0.05 0.961 0.036 0.597 0.148 0.98 0.531 1.152 1.148l0.125-0.125c0.152-0.043 0.394 0.074 0.738 0.352 0.406 0.339 0.684 0.679 0.832 1.023l0.094-0.129c0.449-0.894-0.926-2.391-4.125-4.48-3.074-2.004-5.879-3.352-8.418-4.032-3.691-1.023-6.773-1.418-9.246-1.183-2.734 0.234-4.258 1.215-4.578 2.941-0.617 3.5 3.586 6.156 12.609 7.969 2.219 0.449 4.629 0.609 7.231 0.48 2.453-0.105 4.289-0.425 5.504-0.957l-0.321-0.066c-0.211 0.019-0.519 0.125-0.922 0.316z" inkscape:connector-curvature="0"/>
      <path id="path222" style="fill-rule:evenodd;fill:#549400" d="m30.004 13.921c0.254 0.554 0.125 0.992-0.387 1.312l-0.863 0.285 1.57 0.16c0.766-0.105 1.098-0.265 0.988-0.48-0.105-0.231-0.542-0.66-1.308-1.277z" inkscape:connector-curvature="0"/>
      <path id="path224" style="fill-rule:evenodd;fill:#69ab00" d="m28.465 13.342c0.543 0.176 0.953 0.333 1.234 0.465-1.551-0.949-2.847-1.808-3.887-2.574-0.726-0.516-1.378-1.219-1.953-2.113-0.339-0.535-0.597-1.016-0.765-1.442l-0.227-0.925c-0.105-0.043-0.211-0.024-0.32 0.062-0.254 0.149-0.426 0.5-0.512 1.055-0.105 0.64 0.309 1.461 1.25 2.465 0.895 0.918 1.93 1.675 3.102 2.273 0.277 0.149 0.968 0.395 2.078 0.734z" inkscape:connector-curvature="0"/>
      <path id="path226" style="fill-rule:evenodd;fill:#a3d90f" d="m26.641 12.288c0.683 0.426 1.73 1.015 3.136 1.762 0.641 0.382 1.004 0.714 1.09 0.988 0.082 0.215-0.012 0.363-0.289 0.449-0.258 0.043-0.64 0.066-1.152 0.066l-0.672-0.035 0.703 0.289c0.855 0.278 1.527 0.141 2.016-0.414 0.406-0.449-0.969-1.527-4.129-3.234-1.278-0.703-2.25-1.547-2.91-2.527-0.364-0.532-0.727-1.332-1.09-2.399l-0.383 0.031c-0.063 0.086-0.074 0.246-0.031 0.481 0.062 0.469 0.351 1.086 0.863 1.855 0.684 1.047 1.633 1.942 2.848 2.688z" inkscape:connector-curvature="0"/>
      <path id="path228" style="fill-rule:evenodd;fill:#69ab00" d="m29.043 2.624c-0.918-0.192-2.039-0.086-3.363 0.32-1.492 0.469-2.559 1.141-3.2 2.016-0.574 0.769-0.8 1.621-0.671 2.558l0.386 1.153 0.477-0.832c0.492-0.598 1.195-1.055 2.113-1.375 1.492-0.512 3.309-0.813 5.442-0.895 1.832-0.066 2.964-0.234 3.39-0.512 0.617-0.386 0.856-0.879 0.707-1.472-0.066-0.321-0.195-0.586-0.386-0.801-1.856 0.191-3.489 0.141-4.895-0.16z" inkscape:connector-curvature="0"/>
      <path id="path230" style="fill-rule:evenodd;fill:#549400" d="m26.195 3.616c0.981-0.254 1.95-0.352 2.91-0.285 0.985 0.039 1.719 0.242 2.207 0.605 0.493 0.364 0.567 0.696 0.227 0.992-0.277 0.254-0.844 0.457-1.695 0.61l1.086 0.094c1.195-0.086 2.027-0.235 2.496-0.45l0.961-1.246c0-0.406-0.153-0.789-0.449-1.152-1.856 0.191-3.489 0.141-4.895-0.16-0.918-0.192-2.039-0.086-3.363 0.32-1.492 0.469-2.559 1.141-3.2 2.016-0.722 0.98-0.894 2.05-0.511 3.199l0.226 0.512-0.129-0.637c-0.066-0.555-0.023-1.121 0.129-1.695 0.125-0.516 0.371-0.942 0.735-1.282 0.64-0.578 1.726-1.054 3.265-1.441z" inkscape:connector-curvature="0"/>
      <path id="path232" style="fill-rule:evenodd;fill:#549400" d="m35.633 2.721c-0.321-1.132-1.332-1.921-3.039-2.371l-2.465-0.347c0.43 0.125 0.887 0.316 1.379 0.574 1 0.535 1.683 1.164 2.047 1.887 0.449 0.855 0.332 1.664-0.352 2.433l-1.121 0.895 2.047-0.641c1.305-0.617 1.805-1.43 1.504-2.43z" inkscape:connector-curvature="0"/>
      <path id="path234" style="fill-rule:evenodd;fill:#a3d90f" d="m25.938 5.792c-1.473 0.406-2.54 1.015-3.2 1.824l-0.543 1.055 0.735-0.895c0.703-0.641 1.59-1.098 2.656-1.375 1.32-0.344 2.879-0.492 4.672-0.449 1.32 0.019 2.293-0.192 2.91-0.641 0.641-0.469 0.941-1.078 0.898-1.824-0.043-0.723-0.363-1.363-0.961-1.918-0.746-0.684-1.738-1.207-2.976-1.57 0.617 0.258 1.215 0.597 1.793 1.023 1.195 0.836 1.726 1.656 1.601 2.465-0.085 0.578-0.226 0.973-0.418 1.184-0.277 0.32-0.8 0.566-1.57 0.738-0.402 0.082-1.203 0.094-2.398 0.031-1.11-0.043-2.176 0.074-3.199 0.352z" inkscape:connector-curvature="0"/>
      <path id="path236" style="fill-rule:evenodd;fill:#fff59c" d="m29.008 10.846c0.234-0.359 0.258-0.746 0.066-1.148-0.172-0.387-0.449-0.629-0.832-0.738-0.383-0.106-0.746-0.051-1.09 0.16-0.34 0.234-0.48 0.578-0.414 1.023 0.086 0.469 0.426 0.782 1.024 0.93 0.597 0.172 1.011 0.098 1.246-0.227z" inkscape:connector-curvature="0"/>
      <path id="path238" style="fill-rule:evenodd;fill:#fff59c" d="m32.02 11.776c0.191-0.32 0.21-0.691 0.062-1.117-0.129-0.43-0.344-0.676-0.641-0.738-0.296-0.086-0.597 0-0.894 0.257-0.301 0.274-0.418 0.618-0.352 1.024 0.063 0.406 0.34 0.672 0.832 0.797 0.489 0.109 0.821 0.035 0.993-0.223z" inkscape:connector-curvature="0"/>
      <path id="path240" style="fill-rule:evenodd;fill:#fff59c" d="m34.801 12.706c0.387-0.258 0.609-0.621 0.672-1.09 0.066-0.445-0.008-0.746-0.223-0.895-0.215-0.191-0.512-0.234-0.895-0.129-0.468 0.11-0.843 0.418-1.121 0.93-0.277 0.531-0.191 0.938 0.258 1.215 0.446 0.234 0.883 0.223 1.309-0.031z" inkscape:connector-curvature="0"/>
      <path id="path242" style="fill-rule:evenodd;fill:#fff59c" d="m37.84 13.6c0.406-0.32 0.598-0.691 0.578-1.121-0.02-0.445-0.234-0.691-0.641-0.734-0.382-0.063-0.691 0.043-0.929 0.32-0.168 0.192-0.317 0.524-0.446 0.992-0.109 0.36 0.032 0.606 0.414 0.735 0.387 0.129 0.727 0.066 1.024-0.192z" inkscape:connector-curvature="0"/>
      <path id="path244" style="fill-rule:evenodd;fill:#fff59c" d="m40.723 13.729c0.363-0.301 0.511-0.578 0.445-0.832-0.063-0.215-0.242-0.344-0.543-0.383-0.531-0.086-0.918 0.211-1.152 0.895-0.082 0.297 0.043 0.48 0.386 0.543 0.34 0.066 0.629-0.012 0.864-0.223z" inkscape:connector-curvature="0"/>
      <path id="path246" style="fill-rule:evenodd;fill:#fff59c" d="m43.152 13.823c0.407-0.445 0.352-0.715-0.156-0.797-0.492-0.086-0.832 0.082-1.027 0.512-0.168 0.363-0.063 0.562 0.32 0.605 0.383 0.024 0.672-0.082 0.863-0.32z" inkscape:connector-curvature="0"/>
      <path id="path248" style="fill-rule:evenodd;fill:#fff59c" d="m45.074 13.471c0.106-0.148 0.086-0.285-0.066-0.414-0.168-0.152-0.352-0.117-0.543 0.094-0.211 0.215-0.211 0.375 0 0.481 0.234 0.109 0.437 0.054 0.609-0.161z" inkscape:connector-curvature="0"/>
      <path id="path250" style="fill-rule:evenodd;fill:#fff59c" d="m46.93 13.409c0.234-0.086 0.203-0.203-0.094-0.352-0.301-0.148-0.609-0.148-0.93 0-0.34 0.172-0.34 0.309 0 0.414 0.34 0.106 0.684 0.086 1.024-0.062z" inkscape:connector-curvature="0"/>
      <path id="path252" style="fill-rule:evenodd;fill:#ffef59" d="m45.617 12.225c0.086-0.172 0.055-0.351-0.094-0.547-0.128-0.168-0.289-0.277-0.48-0.316-0.32-0.066-0.449 0.148-0.387 0.637 0.043 0.234 0.192 0.386 0.449 0.449 0.258 0.066 0.426-0.012 0.512-0.223z" inkscape:connector-curvature="0"/>
      <path id="path254" style="fill-rule:evenodd;fill:#ffef59" d="m43.379 11.585c0.043-0.235-0.086-0.493-0.383-0.77-0.281-0.234-0.598-0.406-0.961-0.512-0.344-0.105-0.597 0.012-0.769 0.352-0.192 0.363-0.161 0.746 0.097 1.152 0.254 0.383 0.641 0.532 1.149 0.45 0.492-0.086 0.781-0.309 0.867-0.672z" inkscape:connector-curvature="0"/>
      <path id="path256" style="fill-rule:evenodd;fill:#ffef59" d="m39.059 11.202c0.554-0.192 0.777-0.547 0.671-1.059-0.085-0.468-0.289-0.789-0.609-0.957-0.234-0.172-0.48-0.226-0.734-0.16-0.321 0.082-0.512 0.316-0.578 0.703-0.082 0.383 0.043 0.746 0.386 1.086 0.34 0.32 0.629 0.449 0.864 0.387z" inkscape:connector-curvature="0"/>
      <path id="path258" style="fill-rule:evenodd;fill:#ffef59" d="m35.891 9.823c0.214-0.277 0.214-0.629 0-1.055-0.215-0.426-0.481-0.648-0.801-0.672-0.684-0.043-1.024 0.246-1.024 0.864 0 0.32 0.278 0.586 0.832 0.8 0.536 0.215 0.864 0.235 0.993 0.063z" inkscape:connector-curvature="0"/>
      <path id="path260" style="fill-rule:evenodd;fill:#ffef59" d="m32.371 8.737c0.082-0.215 0.008-0.512-0.226-0.895-0.211-0.363-0.426-0.566-0.641-0.609-0.277-0.062-0.551-0.043-0.832 0.063-0.36 0.152-0.488 0.406-0.383 0.769 0.106 0.383 0.449 0.66 1.023 0.832 0.555 0.172 0.907 0.117 1.059-0.16z" inkscape:connector-curvature="0"/>
      <path id="path262" style="fill-rule:evenodd;fill:#f2e030" d="m44.273 9.632c0.192-0.278-0.019-0.563-0.64-0.864-0.406-0.191-0.735-0.222-0.992-0.097l-0.254 0.226 0.16 0.063c0.125 0.066 0.297 0.109 0.512 0.129 0.339 0.019 0.746 0.203 1.214 0.543z" inkscape:connector-curvature="0"/>
      <path id="path264" style="fill-rule:evenodd;fill:#f2e030" d="m40.691 8.194c0.192-0.109 0.137-0.344-0.16-0.707-0.343-0.406-0.789-0.629-1.343-0.672-0.493-0.062-0.758 0.043-0.801 0.32l0.093 0.418 0.77 0.125c0.512 0.067 0.992 0.235 1.441 0.516z" inkscape:connector-curvature="0"/>
      <path id="path266" style="fill-rule:evenodd;fill:#f2e030" d="m36.977 6.882c-0.02-0.153-0.106-0.301-0.254-0.45-0.278-0.3-0.696-0.425-1.25-0.382-0.555 0.042-0.875 0.179-0.961 0.414l0.035 0.32 0.512-0.063c0.339-0.023 0.98 0.032 1.918 0.161z" inkscape:connector-curvature="0"/>
      <path id="path268" style="fill-rule:evenodd;fill:#f2e030" d="m36.531 5.698c0.426 0 0.395-0.129-0.097-0.387-0.469-0.254-0.852-0.34-1.153-0.254-0.277 0.063-0.211 0.192 0.192 0.383 0.386 0.172 0.738 0.258 1.058 0.258z" inkscape:connector-curvature="0"/>
      <path id="path270" style="fill-rule:evenodd;fill:#f2e030" d="m39.25 6.464c0.363 0.066 0.438 0 0.223-0.192-0.235-0.211-0.489-0.308-0.766-0.289-0.277 0.024-0.332 0.098-0.16 0.227 0.168 0.129 0.406 0.211 0.703 0.254z" inkscape:connector-curvature="0"/>
      <path id="path272" style="fill-rule:evenodd;fill:#f2e030" d="m42.93 8.257c0.234 0.019 0.265-0.043 0.097-0.192-0.152-0.129-0.3-0.183-0.449-0.16-0.105 0.02-0.105 0.074 0 0.16 0.086 0.106 0.203 0.168 0.352 0.192z" inkscape:connector-curvature="0"/>
      <path id="path274" style="fill-rule:evenodd;fill:#f2e030" d="m46.672 10.69c-0.277-0.535-0.649-0.707-1.117-0.515 0.082 0.023 0.34 0.16 0.765 0.417 0.301 0.192 0.418 0.223 0.352 0.098z" inkscape:connector-curvature="0"/>
      <path id="path276" style="fill-rule:evenodd;fill:#f2e030" d="m47.984 11.842c0-0.109-0.093-0.214-0.285-0.32-0.215-0.109-0.351-0.117-0.418-0.031-0.043 0.082 0.063 0.191 0.321 0.316 0.234 0.106 0.363 0.118 0.382 0.035z" inkscape:connector-curvature="0"/>
    </g>
  </g>
<metadata><rdf:RDF><cc:Work><dc:format>image/svg+xml</dc:format><dc:type rdf:resource="http://purl.org/dc/dcmitype/StillImage"/><cc:license rdf:resource="http://creativecommons.org/licenses/publicdomain/"/><dc:publisher><cc:Agent rdf:about="http://openclipart.org/"><dc:title>Openclipart</dc:title></cc:Agent></dc:publisher></cc:Work><cc:License rdf:about="http://creativecommons.org/licenses/publicdomain/"><cc:permits rdf:resource="http://creativecommons.org/ns#Reproduction"/><cc:permits rdf:resource="http://creativecommons.org/ns#Distribution"/><cc:permits rdf:resource="http://creativecommons.org/ns#DerivativeWorks"/></cc:License></rdf:RDF></metadata></svg>
