<?xml version="1.0" encoding="UTF-8" standalone="no"?>
<!-- Created with Inkscape (http://www.inkscape.org/) -->
<svg xmlns:inkscape="http://www.inkscape.org/namespaces/inkscape" xmlns:rdf="http://www.w3.org/1999/02/22-rdf-syntax-ns#" xmlns="http://www.w3.org/2000/svg" xmlns:xlink="http://www.w3.org/1999/xlink" xmlns:ns1="http://sozi.baierouge.fr" xmlns:cc="http://creativecommons.org/ns#" xmlns:sodipodi="http://sodipodi.sourceforge.net/DTD/sodipodi-0.dtd" xmlns:dc="http://purl.org/dc/elements/1.1/" id="svg2" xml:space="preserve" viewBox="0 0 52.509 17.508" version="1.1" inkscape:version="0.91 r13725">
  <defs id="defs6">
    <linearGradient id="linearGradient24" y2="1.9009" gradientUnits="userSpaceOnUse" x2="-4.1377" gradientTransform="matrix(.7604 0 0 .8584 24.121 12.361)" y1="-.22410" x1="1.7373">
      <stop id="stop26" style="stop-color:#454545" offset="0"/>
      <stop id="stop28" style="stop-color:#bababa" offset="1"/>
    </linearGradient>
    <linearGradient id="linearGradient48" y2="7.7303" gradientUnits="userSpaceOnUse" x2="-10.496" gradientTransform="matrix(.70618 0 0 .8584 24.197 6.3951)" y1="-7.4199" x1="-11.493">
      <stop id="stop50" style="stop-color:#cf8d8d" offset="0"/>
      <stop id="stop52" style="stop-color:#ca9e9e" offset=".17650"/>
      <stop id="stop54" style="stop-color:#c4b0b0" offset=".4314"/>
      <stop id="stop56" style="stop-color:#c0bbbb" offset="0.702"/>
      <stop id="stop58" style="stop-color:#bfbfbf" offset="1"/>
    </linearGradient>
    <linearGradient id="linearGradient76" y2="4.822" gradientUnits="userSpaceOnUse" x2="-18.264" gradientTransform="matrix(.70618 0 0 .8584 24.197 6.3951)" y1="3.397" x1="-17.139">
      <stop id="stop78" style="stop-color:#3b3b3b" offset="0"/>
      <stop id="stop80" style="stop-color:#919191" offset="1"/>
    </linearGradient>
    <linearGradient id="linearGradient96" y2="-2.3227" gradientUnits="userSpaceOnUse" x2="-23.309" gradientTransform="matrix(.70618 0 0 .8584 24.197 6.3951)" y1="-1.6211" x1="-18.084">
      <stop id="stop98" style="stop-color:#3b3b3b" offset="0"/>
      <stop id="stop100" style="stop-color:#a1a1a1" offset="1"/>
    </linearGradient>
    <linearGradient id="linearGradient124" y2="6.3194" gradientUnits="userSpaceOnUse" x2="10.944" gradientTransform="matrix(.7604 0 0 .8584 24.083 6.3951)" y1="-8.8306" x1="9.9438">
      <stop id="stop126" style="stop-color:#cf8d8d" offset="0"/>
      <stop id="stop128" style="stop-color:#ca9e9e" offset=".17650"/>
      <stop id="stop130" style="stop-color:#c4b0b0" offset=".4314"/>
      <stop id="stop132" style="stop-color:#c0bbbb" offset="0.702"/>
      <stop id="stop134" style="stop-color:#bfbfbf" offset="1"/>
    </linearGradient>
    <linearGradient id="linearGradient150" y2="-8.9484" gradientUnits="userSpaceOnUse" x2="9.7451" gradientTransform="matrix(.7604 0 0 .8584 24.083 6.3951)" y1="-1.8984" x1="19.87">
      <stop id="stop152" style="stop-color:#878787" offset="0"/>
      <stop id="stop154" style="stop-color:#a8a8a8" offset=".1882"/>
      <stop id="stop156" style="stop-color:#c2c2c2" offset=".37650"/>
      <stop id="stop158" style="stop-color:#d4d4d4" offset=".57250"/>
      <stop id="stop160" style="stop-color:#dfdfdf" offset=".77650"/>
      <stop id="stop162" style="stop-color:#e3e3e3" offset="1"/>
    </linearGradient>
    <linearGradient id="linearGradient182" y2="-4.4489" gradientUnits="userSpaceOnUse" x2="6.6123" gradientTransform="matrix(.7604 0 0 .8584 24.083 6.3951)" y1="2.6011" x1="16.737">
      <stop id="stop184" style="stop-color:#878787" offset="0"/>
      <stop id="stop186" style="stop-color:#a8a8a8" offset=".1882"/>
      <stop id="stop188" style="stop-color:#c2c2c2" offset=".37650"/>
      <stop id="stop190" style="stop-color:#d4d4d4" offset=".57250"/>
      <stop id="stop192" style="stop-color:#dfdfdf" offset=".77650"/>
      <stop id="stop194" style="stop-color:#e3e3e3" offset="1"/>
    </linearGradient>
    <linearGradient id="linearGradient212" y2=".1119" gradientUnits="userSpaceOnUse" x2="13.563" gradientTransform="matrix(.7604 0 0 .8584 24.083 6.3951)" y1="2.5869" x1="17.838">
      <stop id="stop214" style="stop-color:#878787" offset="0"/>
      <stop id="stop216" style="stop-color:#a8a8a8" offset=".1882"/>
      <stop id="stop218" style="stop-color:#c2c2c2" offset=".37650"/>
      <stop id="stop220" style="stop-color:#d4d4d4" offset=".57250"/>
      <stop id="stop222" style="stop-color:#dfdfdf" offset=".77650"/>
      <stop id="stop224" style="stop-color:#e3e3e3" offset="1"/>
    </linearGradient>
    <linearGradient id="linearGradient248" y2="-.68490" gradientUnits="userSpaceOnUse" x2="-6.9601" gradientTransform="matrix(.7604 0 0 .8584 27.049 3.648)" y1="-1.9849" x1=".56490">
      <stop id="stop250" style="stop-color:#3d3d3d" offset="0"/>
      <stop id="stop252" style="stop-color:#c7c7c7" offset="1"/>
    </linearGradient>
    <linearGradient id="linearGradient272" y2="-.43330" gradientUnits="userSpaceOnUse" x2="-11.705" gradientTransform="matrix(.78208 0 0 1.032 8.7591 6.9951)" y1=".99170" x1="-1.0298">
      <stop id="stop274" style="stop-color:#424242" offset="0"/>
      <stop id="stop276" style="stop-color:#d1d1d1" offset="1"/>
    </linearGradient>
    <linearGradient id="linearGradient292" y2="7.7579" gradientUnits="userSpaceOnUse" x2="-1.2808" gradientTransform="matrix(.78208 0 0 1.032 8.7591 6.9951)" y1="-7.3921" x1="-2.2808">
      <stop id="stop294" style="stop-color:#cf8d8d" offset="0"/>
      <stop id="stop296" style="stop-color:#ca9e9e" offset=".17650"/>
      <stop id="stop298" style="stop-color:#c4b0b0" offset=".4314"/>
      <stop id="stop300" style="stop-color:#c0bbbb" offset="0.702"/>
      <stop id="stop302" style="stop-color:#bfbfbf" offset="1"/>
    </linearGradient>
  </defs>
  <g id="g10" transform="matrix(1.25 0 0 -1.25 0 17.508)">
    <g id="g12">
      <g id="g14">
        <g id="g16">
          <g id="g22">
            <path id="path30" style="fill-rule:evenodd;fill:url(#linearGradient24)" d="m24.121 13.948c0.559-0.114 1.016-0.242 1.367-0.387 0.535-0.254 1.067-0.656 1.598-1.199-1.469 0.344-3.141 0.429-5.02 0.258-0.3-0.028-0.593-0.071-0.871-0.129 0.098 0.058 0.227 0.129 0.379 0.215l0.039 0.128c0.051 0.055 0.176 0.114 0.379 0.172l0.266 0.086 0.039 0.215c0.023 0.141 0.176 0.242 0.457 0.297l-0.078 0.086c-0.176 0.144-0.063 0.246 0.344 0.301 0.253 0.031 0.621 0.015 1.101-0.043z" inkscape:connector-curvature="0"/>
          </g>
        </g>
      </g>
      <path id="path32" style="fill-rule:evenodd;fill:#595959" d="m9.828 8.456c0.281 0.113 0.621 0.257 1.024 0.429 1.41 0.602 2.554 1.071 3.421 1.414 0.895 0.403 1.473 0.645 1.731 0.731 1.887 0.746 3.723 1.246 5.508 1.504 0.261 0.054 0.531 0.097 0.812 0.129 0.684 0.054 1.344 0.086 1.981 0.086v-0.473c-0.262 0.027-0.52 0.027-0.778 0h-0.566c-1.152-0.086-2.625-0.387-4.414-0.902-2.141-0.571-4.883-1.629-8.227-3.176-0.258-0.114-0.508-0.199-0.742-0.258v0.043c0 0.086-0.082 0.101-0.246 0.043-0.211-0.086-0.34-0.156-0.387-0.215-0.144-0.027-0.273-0.043-0.39-0.043h-0.317v0.344h0.106c0.304 0 0.801 0.113 1.484 0.344zm-0.144-0.903c-0.047-0.027-0.082-0.058-0.106-0.086-0.562-0.199-0.953-0.328-1.164-0.386-0.07-0.028-0.117-0.043-0.141-0.043h-0.035v0.472c0.164-0.086 0.387-0.156 0.668-0.215 0.285 0.086 0.543 0.172 0.778 0.258zm0.601 0.215c0.258 0.086 0.496 0.172 0.707 0.258 0-0.027 0.012-0.043 0.035-0.043-0.234-0.086-0.449-0.172-0.636-0.258-0.047 0.027-0.082 0.043-0.106 0.043z" inkscape:connector-curvature="0"/>
      <path id="path34" style="fill-rule:evenodd;fill:#969696" d="m24.305 10.385v-0.469c-0.075 0.028-0.157 0.04-0.25 0.04-0.727 0.058-1.457 0.085-2.188 0.085-1.484 0-3.203-0.167-5.156-0.511-1.223-0.231-2.106-0.446-2.649-0.645-0.046 0-0.093-0.015-0.14-0.043h-0.035c-0.328-0.086-0.672-0.172-1.024-0.258-0.07-0.027-0.152-0.058-0.246-0.085-0.023 0.027-0.058 0.042-0.109 0.042-0.211 0.028-0.492-0.015-0.844-0.128-0.449-0.172-0.672-0.301-0.672-0.387-0.211-0.086-0.449-0.172-0.707-0.258-0.07 0.027-0.176 0.016-0.316-0.043-0.121-0.055-0.215-0.113-0.285-0.172-0.235-0.086-0.493-0.172-0.778-0.258-0.281 0.059-0.504 0.129-0.668 0.215v0.258h0.317c0.117 0 0.246 0.016 0.39 0.043-0.047-0.027-0.058-0.055-0.039-0.086 0.047-0.086 0.18-0.101 0.391-0.043 0.117 0.086 0.211 0.172 0.281 0.258 0.234 0.059 0.484 0.144 0.742 0.258 3.344 1.547 6.086 2.605 8.227 3.176 1.789 0.515 3.262 0.816 4.414 0.902h0.566c0.258 0.027 0.516 0.027 0.778 0v-0.301c-0.075 0.027-0.157 0.027-0.25 0-0.305 0-0.61-0.016-0.918-0.043-0.754-0.086-1.446-0.187-2.082-0.301-0.047 0.086-0.153 0.114-0.317 0.086-0.332-0.086-0.566-0.172-0.707-0.258-0.801-0.171-1.426-0.359-1.871-0.558-0.164-0.027-0.332-0.07-0.496-0.129-0.777-0.285-1.105-0.484-0.988-0.602 0.332-0.113 0.531-0.214 0.601-0.296 0.094-0.086 0.27-0.075 0.528 0.042 0.144 0.028 0.437 0.168 0.883 0.426 0.093 0.032 0.203 0.059 0.32 0.086 0.14 0 0.293 0.031 0.457 0.086-0.047-0.027-0.082-0.055-0.106-0.086-0.047-0.172 0.141-0.215 0.567-0.129 0.726 0.203 1.269 0.301 1.625 0.301 0.445 0.031 0.82 0 1.129-0.086 0.375-0.113 0.742-0.183 1.093-0.215h0.282c0.117 0.032 0.199 0.059 0.25 0.086zm-11.055-1.113c-0.094 0.027-0.27 0-0.527-0.086-0.59-0.285-0.754-0.43-0.496-0.43 0.281-0.027 0.578 0.043 0.882 0.215 0.211 0.172 0.262 0.27 0.141 0.301zm2.438 0.602c-0.094-0.032-0.176-0.059-0.247-0.086-0.449-0.172-0.507-0.274-0.175-0.301 0.304-0.059 0.656 0.012 1.058 0.215 0.305 0.226 0.317 0.328 0.035 0.297-0.093 0-0.191-0.012-0.285-0.043 0.215 0.117 0.332 0.214 0.356 0.3 0 0.118-0.094 0.16-0.282 0.129-0.636-0.086-0.968-0.242-0.992-0.469 0.074 0.028 0.145 0.012 0.215-0.042 0.07-0.032 0.176-0.032 0.317 0zm-1.626-0.129c-0.07 0.027-0.187 0-0.351-0.086-0.426-0.172-0.566-0.274-0.426-0.301 0.094-0.086 0.262-0.086 0.496 0 0.024 0 0.047-0.016 0.071-0.043 0.187-0.117 0.41-0.086 0.671 0.086 0.211 0.086 0.247 0.183 0.106 0.301-0.141 0.14-0.281 0.183-0.426 0.129-0.07-0.032-0.117-0.059-0.141-0.086zm5.793 0.941c0.071 0.059 0.153 0.117 0.247 0.172 0.281 0.144 0.613 0.187 0.988 0.129-0.047 0-0.082-0.016-0.106-0.043-0.046-0.028-0.316-0.086-0.812-0.172-0.117-0.027-0.223-0.055-0.317-0.086z" inkscape:connector-curvature="0"/>
      <path id="path36" style="fill-rule:evenodd;fill:#737373" d="m21.055 11.631c-0.375-0.058-0.719-0.113-1.024-0.172 0.141 0.086 0.375 0.172 0.707 0.258 0.164 0.028 0.27 0 0.317-0.086zm3.25-1.246c-0.051-0.027-0.133-0.054-0.25-0.086h-0.282c-0.351 0.032-0.718 0.102-1.093 0.215-0.309 0.086-0.684 0.117-1.129 0.086-0.356 0-0.899-0.098-1.625-0.301-0.426-0.086-0.614-0.043-0.567 0.129 0.024 0.031 0.059 0.059 0.106 0.086 0.07 0.086 0.199 0.145 0.39 0.172 0.094 0.031 0.2 0.059 0.317 0.086 0.496 0.086 0.766 0.144 0.812 0.172 0.024 0.031 0.059 0.043 0.106 0.043h0.14c0.356-0.059 0.754-0.086 1.2-0.086 0.285 0.058 0.648 0 1.097-0.172 0.164-0.086 0.34-0.129 0.528-0.129h0.25v-0.215zm-14.727-2.445c-0.07-0.086-0.164-0.172-0.281-0.258-0.211-0.058-0.34-0.043-0.391 0.043-0.019 0.031-0.011 0.059 0.039 0.086 0.047 0.059 0.176 0.129 0.387 0.215 0.164 0.058 0.246 0.043 0.246-0.043v-0.043zm3.672 1.332c0.121-0.031 0.07-0.129-0.141-0.301-0.304-0.172-0.601-0.242-0.882-0.215-0.258 0-0.094 0.145 0.496 0.43 0.257 0.086 0.433 0.113 0.527 0.086zm0.812 0.473c0.024 0.027 0.071 0.054 0.141 0.086 0.145 0.054 0.285 0.011 0.426-0.129 0.141-0.118 0.105-0.215-0.106-0.301-0.261-0.172-0.484-0.203-0.671-0.086-0.024 0.027-0.047 0.043-0.071 0.043 0.024 0.027 0.047 0.043 0.071 0.043 0.234 0.055 0.316 0.14 0.246 0.258 0 0.054-0.012 0.086-0.036 0.086zm1.626 0.129c0.046 0 0.128 0.011 0.246 0.042 0.046 0.028 0.093 0.04 0.14 0.04 0.094 0.031 0.192 0.043 0.285 0.043 0.282 0.031 0.27-0.071-0.035-0.297-0.402-0.203-0.754-0.274-1.058-0.215-0.332 0.027-0.274 0.129 0.175 0.301 0.071 0.027 0.153 0.054 0.247 0.086zm2.472 1.027c-0.047-0.027-0.082-0.043-0.105-0.043-0.684-0.313-0.848-0.559-0.496-0.731 0.07-0.054 0.175-0.054 0.316 0 0.238 0.086 0.508 0.161 0.813 0.215-0.446-0.258-0.739-0.398-0.883-0.426-0.258-0.117-0.434-0.128-0.528-0.042-0.07 0.082-0.269 0.183-0.601 0.296-0.117 0.118 0.211 0.317 0.988 0.602 0.164 0.059 0.332 0.102 0.496 0.129z" inkscape:connector-curvature="0"/>
      <g id="g38">
        <g id="g40">
          <g id="g46">
            <path id="path60" style="fill-rule:evenodd;fill:url(#linearGradient48)" d="m24.305 6.354c-0.168-0.086-0.215-0.215-0.145-0.387 0.024-0.058 0.07-0.117 0.145-0.172v-0.558c-0.121-0.059-0.121-0.156 0-0.301v-3.262c-2.121-0.058-3.84 0.016-5.157 0.215-1.695 0.258-3.39 0.785-5.086 1.586-1.695 0.801-2.871 1.359-3.531 1.676-0.633 0.316-1.281 0.515-1.941 0.601-0.117 0.055-0.235 0.086-0.352 0.086h-0.035l0.035 0.344v0.856h0.035c0.024 0 0.071 0.015 0.141 0.043 0.211 0.058 0.602 0.187 1.164 0.386-0.07-0.058-0.058-0.097 0.035-0.129 0.164-0.086 0.367-0.054 0.602 0.086 0.164 0.114 0.223 0.215 0.176 0.301 0.187 0.086 0.398 0.172 0.636 0.258 0.024-0.059 0.129-0.102 0.317-0.129 0.379-0.059 0.742 0.102 1.094 0.473 0.144 0.086 0.203 0.144 0.179 0.172 0.094 0.027 0.176 0.054 0.246 0.085 0.352 0.086 0.696 0.172 1.024 0.258-0.071-0.027-0.141-0.058-0.211-0.086-0.235-0.058-0.176-0.113 0.176-0.172 0.351-0.027 0.73-0.015 1.128 0.043l1.129 0.172c0.426 0.086 0.766 0.086 1.028 0 0.258-0.086 0.586-0.086 0.988 0 0.469 0.059 0.859 0.114 1.164 0.172 0.352 0.059 0.578 0.086 0.672 0.086 0.141-0.113 0.328-0.215 0.562-0.301 0.286-0.113 0.59-0.113 0.918 0 0.497 0.2 0.813 0.301 0.954 0.301 0.238-0.027 0.496-0.086 0.777-0.172 0.355-0.172 0.637-0.273 0.848-0.301 0.07-0.027 0.152-0.043 0.25-0.043h0.035v-0.644c-0.051 0.113-0.121 0.156-0.215 0.129h-0.035c-0.399-0.027-0.528-0.145-0.387-0.344 0.117-0.113 0.246-0.172 0.387-0.172h0.14c0.051 0 0.086 0.016 0.11 0.043v-0.086h-0.11c-0.047 0-0.093-0.015-0.14-0.043-0.305-0.054-0.434-0.156-0.387-0.3 0-0.028 0.012-0.055 0.035-0.086v-0.043c0.07-0.086 0.188-0.129 0.352-0.129 0.047 0 0.093 0.015 0.14 0.043h0.11v-0.555zm-12.75-2.707h0.035l-0.633 0.344c-0.07 0.027-0.141 0.07-0.211 0.129 0.352-0.172 0.738-0.371 1.164-0.602 2.258-1.172 4.047-1.988 5.367-2.445 1.625-0.602 3.614-0.914 5.965-0.946 0.356 0 0.707-0.011 1.063-0.043v-0.085h-0.993c-1.386 0.031-2.644 0.144-3.777 0.343-0.375 0.086-0.742 0.172-1.094 0.258-0.164 0.059-0.316 0.102-0.457 0.129l-0.636 0.258c-0.141 0.058-0.282 0.101-0.426 0.129-1.27 0.484-2.918 1.258-4.942 2.316-0.14 0.086-0.281 0.16-0.425 0.215zm1.519 3.992c0.071-0.113 0.199-0.129 0.391-0.043 0.164 0.059 0.199 0.145 0.105 0.258-0.093 0.059-0.203 0.07-0.32 0.043-0.211-0.086-0.27-0.172-0.176-0.258zm-0.953-0.172c-0.258-0.027-0.328-0.097-0.211-0.215 0.07-0.113 0.199-0.14 0.387-0.086 0.191 0.059 0.234 0.129 0.141 0.215-0.071 0.059-0.176 0.086-0.317 0.086zm-0.777-0.429c-0.071 0.117-0.211 0.128-0.422 0.043-0.402-0.172-0.508-0.27-0.32-0.301 0.144-0.055 0.343-0.055 0.601 0 0.188 0.031 0.235 0.117 0.141 0.258zm2.648 0.859c0.047-0.086 0.164-0.102 0.356-0.043 0.187 0.059 0.234 0.129 0.14 0.215-0.07 0.058-0.179 0.086-0.32 0.086-0.164-0.059-0.223-0.145-0.176-0.258zm0.953 0.129c-0.164-0.055-0.187-0.145-0.07-0.258 0.094-0.086 0.211-0.113 0.355-0.086 0.141 0.027 0.176 0.102 0.106 0.215-0.094 0.113-0.227 0.156-0.391 0.129zm1.801-0.086c-0.445-0.145-0.578-0.258-0.387-0.344 0.164-0.086 0.411-0.086 0.743 0 0.257 0.086 0.293 0.188 0.105 0.301-0.164 0.086-0.32 0.102-0.461 0.043zm-0.07-0.645c-0.399-0.086-0.492-0.214-0.281-0.386 0.234-0.2 0.48-0.243 0.742-0.129 0.258 0.058 0.328 0.187 0.211 0.386-0.141 0.145-0.368 0.188-0.672 0.129zm-0.918 0.215c-0.047 0.114-0.141 0.145-0.281 0.086-0.286-0.086-0.368-0.172-0.247-0.258 0.118-0.086 0.258-0.113 0.422-0.086 0.141 0.059 0.176 0.145 0.106 0.258zm-1.59 0.043c-0.305-0.144-0.375-0.242-0.211-0.301 0.141-0.054 0.305-0.043 0.496 0.043 0.164 0.086 0.199 0.172 0.106 0.258-0.071 0.086-0.2 0.086-0.391 0zm-0.281-0.773c0.234 0.086 0.293 0.172 0.175 0.258-0.14 0.086-0.304 0.117-0.492 0.086-0.238-0.028-0.297-0.129-0.179-0.301 0.097-0.086 0.261-0.098 0.496-0.043zm5.718 0.902c-0.421-0.144-0.527-0.301-0.316-0.473 0.234-0.171 0.461-0.226 0.672-0.171 0.141 0.058 0.164 0.203 0.07 0.429-0.117 0.199-0.261 0.274-0.426 0.215zm-0.667 0.902c0.07-0.085 0.199-0.113 0.386-0.085 0.188 0.027 0.235 0.085 0.141 0.171-0.047 0.086-0.153 0.114-0.317 0.086-0.187-0.027-0.257-0.086-0.21-0.172zm1.445-0.343c-0.164 0.086-0.375 0.101-0.633 0.043-0.449-0.059-0.543-0.172-0.285-0.344 0.285-0.172 0.543-0.184 0.777-0.043 0.235 0.144 0.281 0.258 0.141 0.344zm-2.047-0.817c0.211 0.059 0.293 0.172 0.246 0.344-0.047 0.199-0.152 0.301-0.316 0.301-0.426-0.059-0.578-0.188-0.461-0.387 0.121-0.23 0.297-0.312 0.531-0.258zm3.215 0.602c0.164-0.145 0.316-0.188 0.457-0.129 0.14 0.059 0.176 0.156 0.105 0.301-0.07 0.144-0.152 0.199-0.246 0.172-0.355-0.086-0.461-0.2-0.316-0.344zm-0.18-0.945c0.262 0.144 0.285 0.273 0.07 0.386-0.211 0.086-0.468 0.129-0.773 0.129-0.168 0-0.156-0.129 0.035-0.387 0.188-0.199 0.41-0.242 0.668-0.128zm1.981-0.301c-0.168 0.086-0.332 0.043-0.497-0.129-0.117-0.168-0.152-0.297-0.105-0.383s0.188-0.129 0.422-0.129c0.215 0 0.414 0.07 0.601 0.215 0.235 0.141 0.094 0.285-0.421 0.426zm-0.532 0.816c0.094-0.172 0.27-0.226 0.532-0.172 0.257 0.028 0.339 0.129 0.246 0.301-0.118 0.086-0.321 0.145-0.602 0.172-0.211 0.027-0.269-0.07-0.176-0.301zm-5.261-1.801c0.14 0.055 0.152 0.157 0.035 0.301-0.141 0.113-0.282 0.141-0.422 0.086-0.309-0.058-0.356-0.144-0.141-0.258 0.211-0.172 0.387-0.215 0.528-0.129zm1.093 0.602c-0.539-0.059-0.632-0.172-0.281-0.344 0.328-0.172 0.613-0.172 0.848 0 0.375 0.313 0.187 0.43-0.567 0.344zm0.989-1.16c0.168 0.027 0.203 0.113 0.109 0.258-0.121 0.086-0.262 0.129-0.426 0.129-0.258 0.027-0.304-0.059-0.14-0.258 0.14-0.172 0.293-0.215 0.457-0.129zm0.179 0.988c0.047-0.144 0.153-0.187 0.317-0.129 0.164 0.055 0.222 0.141 0.175 0.258-0.07 0.113-0.187 0.156-0.351 0.129-0.191-0.031-0.234-0.117-0.141-0.258zm1.164-0.73c0.164 0.113 0.176 0.226 0.036 0.343-0.165 0.172-0.34 0.215-0.532 0.129-0.375-0.144-0.433-0.289-0.176-0.429 0.235-0.086 0.461-0.102 0.672-0.043zm0.778-0.688c0.187-0.144 0.386-0.199 0.597-0.172 0.168 0.028 0.192 0.145 0.071 0.344-0.118 0.172-0.258 0.23-0.422 0.172-0.328-0.086-0.41-0.199-0.246-0.344zm0.211 1.246c0.187 0.141 0.187 0.258 0 0.344-0.141 0.055-0.258 0.07-0.352 0.043-0.332-0.031-0.414-0.129-0.25-0.301 0.215-0.172 0.414-0.203 0.602-0.086zm2.117-0.472c0.023 0.054 0.012 0.097-0.035 0.128-0.024 0.055-0.059 0.098-0.106 0.129-0.07 0.055-0.164 0.071-0.281 0.043-0.117 0-0.211-0.074-0.281-0.215-0.094-0.113-0.094-0.214 0-0.3 0.093-0.114 0.234-0.145 0.422-0.086 0.117 0.027 0.199 0.086 0.246 0.172 0.023 0.027 0.035 0.07 0.035 0.129zm-9.18 0.773c-0.328 0.027-0.445-0.059-0.351-0.258 0.07-0.144 0.234-0.215 0.492-0.215 0.191 0 0.25 0.071 0.179 0.215-0.074 0.172-0.179 0.258-0.32 0.258zm0.848-0.258c0.211 0.055 0.269 0.156 0.176 0.301-0.164 0.141-0.317 0.199-0.457 0.168-0.235-0.027-0.321-0.141-0.247-0.34 0.094-0.144 0.27-0.187 0.528-0.129z" inkscape:connector-curvature="0"/>
          </g>
        </g>
      </g>
      <path id="path62" style="fill-rule:evenodd;fill:#f1fced" d="m24.27 8.541c-0.075 0.028-0.145 0.043-0.215 0.043h-0.035c-0.211 0.028-0.493 0.129-0.848 0.301-0.281 0.086-0.539 0.145-0.777 0.172-0.141 0-0.457-0.101-0.954-0.301-0.328-0.113-0.632-0.113-0.918 0-0.234 0.086-0.421 0.188-0.562 0.301-0.094 0-0.32-0.027-0.672-0.086-0.305-0.058-0.695-0.113-1.164-0.172-0.402-0.086-0.73-0.086-0.988 0-0.262 0.086-0.602 0.086-1.028 0l-1.129-0.172c-0.398-0.058-0.777-0.07-1.128-0.043-0.352 0.059-0.411 0.114-0.176 0.172 0.07 0.028 0.14 0.059 0.211 0.086h0.035c0.047 0.028 0.094 0.043 0.14 0.043 0.543 0.199 1.426 0.414 2.649 0.645 1.953 0.344 3.672 0.511 5.156 0.511 0.731 0 1.457-0.027 2.188-0.085 0.093 0 0.175-0.012 0.25-0.04v-1.375h-0.035zm0.035-1.074v-0.558h-0.11c-0.047-0.028-0.093-0.043-0.14-0.043-0.164 0-0.282 0.043-0.352 0.129v0.043c-0.023 0.031-0.035 0.058-0.035 0.086-0.047 0.144 0.082 0.246 0.387 0.3 0.047 0.028 0.093 0.043 0.14 0.043h0.11zm0 0.086c-0.024-0.027-0.059-0.043-0.11-0.043h-0.14c-0.141 0-0.27 0.059-0.387 0.172-0.141 0.199-0.012 0.317 0.387 0.344h0.035c0.094 0.027 0.164-0.016 0.215-0.129v-0.344zm0-1.758c-0.075 0.055-0.121 0.114-0.145 0.172-0.07 0.172-0.023 0.301 0.145 0.387v-0.559zm-13.278 2.188c-0.023 0-0.035 0.016-0.035 0.043 0 0.086 0.223 0.215 0.672 0.387 0.352 0.113 0.633 0.156 0.844 0.128 0.047 0 0.086-0.015 0.109-0.042 0.024-0.032-0.035-0.086-0.179-0.172-0.352-0.371-0.715-0.532-1.094-0.473-0.188 0.027-0.293 0.07-0.317 0.129zm-1.343-0.43c0.07 0.059 0.164 0.113 0.285 0.172 0.14 0.059 0.246 0.07 0.316 0.043 0.024 0 0.059-0.016 0.106-0.043 0.047-0.086-0.012-0.184-0.176-0.301-0.235-0.14-0.438-0.172-0.602-0.086-0.093 0.032-0.105 0.071-0.035 0.129 0.024 0.028 0.059 0.059 0.106 0.086zm1.66-0.515c0.094-0.141 0.047-0.227-0.141-0.258-0.258-0.055-0.457-0.055-0.601 0-0.188 0.031-0.082 0.129 0.32 0.301 0.211 0.085 0.351 0.074 0.422-0.043zm0.777 0.429c0.141 0 0.246-0.027 0.317-0.086 0.093-0.086 0.046-0.156-0.141-0.215-0.188-0.054-0.317-0.027-0.387 0.086-0.117 0.118-0.047 0.188 0.211 0.215zm0.953 0.172c-0.094 0.086-0.035 0.172 0.176 0.258 0.121 0.027 0.227 0.016 0.32-0.043 0.094-0.113 0.059-0.199-0.105-0.258-0.192-0.086-0.32-0.07-0.391 0.043zm1.871 0.387c0.164 0.027 0.297-0.016 0.391-0.129 0.07-0.113 0.035-0.188-0.106-0.215-0.144-0.027-0.261 0-0.355 0.086-0.117 0.113-0.094 0.199 0.07 0.258zm-0.953-0.129c-0.047 0.113 0.012 0.199 0.176 0.258 0.141 0 0.25-0.028 0.32-0.086 0.094-0.086 0.047-0.156-0.14-0.215-0.192-0.059-0.309-0.043-0.356 0.043zm-0.105-1.117c-0.235-0.055-0.399-0.043-0.496 0.043-0.118 0.172-0.059 0.273 0.179 0.301 0.188 0.031 0.352 0 0.492-0.086 0.118-0.086 0.059-0.172-0.175-0.258zm0.281 0.773c0.191 0.086 0.32 0.086 0.391 0 0.093-0.086 0.058-0.172-0.106-0.258-0.191-0.086-0.355-0.097-0.496-0.043-0.164 0.059-0.094 0.157 0.211 0.301zm1.59-0.043c0.07-0.113 0.035-0.199-0.106-0.258-0.164-0.027-0.304 0-0.422 0.086-0.121 0.086-0.039 0.172 0.247 0.258 0.14 0.059 0.234 0.028 0.281-0.086zm0.918-0.215c0.304 0.059 0.531 0.016 0.672-0.129 0.117-0.199 0.047-0.328-0.211-0.386-0.262-0.114-0.508-0.071-0.742 0.129-0.211 0.172-0.118 0.3 0.281 0.386zm0.07 0.645c0.141 0.059 0.297 0.043 0.461-0.043 0.188-0.113 0.152-0.215-0.105-0.301-0.332-0.086-0.579-0.086-0.743 0-0.191 0.086-0.058 0.199 0.387 0.344zm1.59-0.516c-0.234-0.054-0.41 0.028-0.531 0.258-0.117 0.199 0.035 0.328 0.461 0.387 0.164 0 0.269-0.102 0.316-0.301 0.047-0.172-0.035-0.285-0.246-0.344zm2.047 0.817c0.14-0.086 0.094-0.2-0.141-0.344-0.234-0.145-0.492-0.129-0.777 0.043-0.258 0.172-0.164 0.285 0.285 0.344 0.258 0.058 0.469 0.043 0.633-0.043zm-1.445 0.343c-0.047 0.086 0.023 0.145 0.21 0.172 0.164 0.028 0.27 0 0.317-0.086 0.094-0.086 0.047-0.144-0.141-0.171-0.187-0.028-0.316 0-0.386 0.085zm0.667-0.902c0.165 0.059 0.309-0.016 0.426-0.215 0.094-0.226 0.071-0.371-0.07-0.429-0.211-0.055-0.438 0-0.672 0.171-0.211 0.172-0.105 0.329 0.316 0.473zm1.766-0.601c-0.258-0.114-0.48-0.071-0.668 0.128-0.191 0.258-0.203 0.387-0.035 0.387 0.305 0 0.562-0.043 0.773-0.129 0.215-0.113 0.192-0.242-0.07-0.386zm0.18 0.945c-0.145 0.144-0.039 0.258 0.316 0.344 0.094 0.027 0.176-0.028 0.246-0.172 0.071-0.145 0.035-0.242-0.105-0.301-0.141-0.059-0.293-0.016-0.457 0.129zm1.269-0.43c-0.093 0.231-0.035 0.328 0.176 0.301 0.281-0.027 0.484-0.086 0.602-0.172 0.093-0.172 0.011-0.269-0.246-0.301-0.262-0.054-0.438 0-0.532 0.172zm0.532-0.816c0.515-0.141 0.656-0.285 0.421-0.426-0.187-0.145-0.386-0.215-0.601-0.215-0.234 0-0.375 0.043-0.422 0.129s-0.012 0.215 0.105 0.383c0.165 0.172 0.329 0.215 0.497 0.129zm0.738-1.199c0-0.059-0.012-0.102-0.035-0.129-0.047-0.086-0.129-0.145-0.246-0.172-0.188-0.059-0.329-0.031-0.422 0.086-0.094 0.086-0.094 0.187 0 0.3 0.07 0.141 0.164 0.215 0.281 0.215 0.117 0.028 0.211 0.012 0.281-0.043 0.047-0.031 0.082-0.074 0.106-0.129 0.047-0.031 0.058-0.074 0.035-0.128zm-2.117 0.472c-0.188-0.117-0.387-0.086-0.602 0.086-0.164 0.172-0.082 0.27 0.25 0.301 0.094 0.027 0.211 0.012 0.352-0.043 0.187-0.086 0.187-0.203 0-0.344zm-0.211-1.246c-0.164 0.145-0.082 0.258 0.246 0.344 0.164 0.058 0.304 0 0.422-0.172 0.121-0.199 0.097-0.316-0.071-0.344-0.211-0.027-0.41 0.028-0.597 0.172zm-0.778 0.688c-0.211-0.059-0.437-0.043-0.672 0.043-0.257 0.14-0.199 0.285 0.176 0.429 0.192 0.086 0.367 0.043 0.532-0.129 0.14-0.117 0.128-0.23-0.036-0.343zm-1.164 0.73c-0.093 0.141-0.05 0.227 0.141 0.258 0.164 0.027 0.281-0.016 0.351-0.129 0.047-0.117-0.011-0.203-0.175-0.258-0.164-0.058-0.27-0.015-0.317 0.129zm-0.179-0.988c-0.164-0.086-0.317-0.043-0.457 0.129-0.164 0.199-0.118 0.285 0.14 0.258 0.164 0 0.305-0.043 0.426-0.129 0.094-0.145 0.059-0.231-0.109-0.258zm-0.989 1.16c0.754 0.086 0.942-0.031 0.567-0.344-0.235-0.172-0.52-0.172-0.848 0-0.351 0.172-0.258 0.285 0.281 0.344zm-1.093-0.602c-0.141-0.086-0.317-0.043-0.528 0.129-0.215 0.114-0.168 0.2 0.141 0.258 0.14 0.055 0.281 0.027 0.422-0.086 0.117-0.144 0.105-0.246-0.035-0.301zm-1.801 0.301c-0.258-0.058-0.434-0.015-0.528 0.129-0.074 0.199 0.012 0.313 0.247 0.34 0.14 0.031 0.293-0.027 0.457-0.168 0.093-0.145 0.035-0.246-0.176-0.301zm-0.848 0.258c0.141 0 0.246-0.086 0.32-0.258 0.071-0.144 0.012-0.215-0.179-0.215-0.258 0-0.422 0.071-0.492 0.215-0.094 0.199 0.023 0.285 0.351 0.258z" inkscape:connector-curvature="0"/>
      <path id="path64" style="fill-rule:evenodd;fill:#f7f7f7" d="m24.305 11.975v-1.375h-0.25c-0.188 0-0.364 0.043-0.528 0.129-0.449 0.172-0.812 0.23-1.097 0.172-0.446 0-0.844 0.027-1.2 0.086h-0.14c-0.375 0.058-0.707 0.015-0.988-0.129-0.094-0.055-0.176-0.113-0.247-0.172-0.191-0.027-0.32-0.086-0.39-0.172-0.164-0.055-0.317-0.086-0.457-0.086-0.117-0.027-0.227-0.054-0.32-0.086-0.305-0.054-0.575-0.129-0.813-0.215-0.141-0.054-0.246-0.054-0.316 0-0.352 0.172-0.188 0.418 0.496 0.731 0.023 0 0.058 0.016 0.105 0.043 0.445 0.199 1.07 0.387 1.871 0.558 0.305 0.059 0.649 0.114 1.024 0.172 0.636 0.114 1.328 0.215 2.082 0.301 0.308 0.027 0.613 0.043 0.918 0.043 0.093 0.027 0.175 0.027 0.25 0zm-8.617-2.101c-0.141-0.032-0.247-0.032-0.317 0-0.07 0.054-0.141 0.07-0.215 0.042 0.024 0.227 0.356 0.383 0.992 0.469 0.188 0.031 0.282-0.011 0.282-0.129-0.024-0.086-0.141-0.183-0.356-0.3-0.047 0-0.094-0.012-0.14-0.04-0.118-0.031-0.2-0.042-0.246-0.042zm-1.626-0.129c0.024 0 0.036-0.032 0.036-0.086 0.07-0.118-0.012-0.203-0.246-0.258-0.024 0-0.047-0.016-0.071-0.043-0.234-0.086-0.402-0.086-0.496 0-0.14 0.027 0 0.129 0.426 0.301 0.164 0.086 0.281 0.113 0.351 0.086z" inkscape:connector-curvature="0"/>
      <g id="g66">
        <g id="g68">
          <g id="g74">
            <path id="path82" style="fill-rule:evenodd;fill:url(#linearGradient76)" d="m14.273 10.299c-0.867-0.343-2.011-0.812-3.421-1.414-0.403-0.172-0.743-0.316-1.024-0.429 0 0.058 0.059 0.128 0.176 0.214-0.192-0.058-0.25-0.027-0.176 0.086 0 0.059 0.129 0.145 0.387 0.258l0.351 0.172c-0.187 0-0.187 0.07 0 0.215 0.122 0.086 0.274 0.129 0.461 0.129h0.106c-0.047 0.086 0.129 0.215 0.531 0.386 0.305 0.168 0.785 0.297 1.445 0.383 0.496 0.059 0.883 0.059 1.164 0z" inkscape:connector-curvature="0"/>
          </g>
        </g>
      </g>
      <path id="path84" style="fill-rule:evenodd;fill:#c68484" d="m8.906 5.581c0.239-0.114 0.496-0.258 0.778-0.43 0.636-0.402 1.601-0.945 2.898-1.633 1.293-0.656 2.625-1.215 3.988-1.672 1.34-0.457 2.707-0.758 4.098-0.902 1.199-0.113 2.41-0.172 3.637-0.172v-0.688c-0.356 0.032-0.707 0.043-1.063 0.043-2.351 0.032-4.34 0.344-5.965 0.946-1.32 0.457-3.109 1.273-5.367 2.445-0.426 0.231-0.812 0.43-1.164 0.602h-0.039c-0.352 0.257-0.918 0.714-1.691 1.375-0.047 0.027-0.086 0.058-0.11 0.086z" inkscape:connector-curvature="0"/>
      <g id="g86">
        <g id="g88">
          <g id="g94">
            <path id="path102" style="fill-rule:evenodd;fill:url(#linearGradient96)" d="m8.203 5.838h0.035c0.117 0 0.235-0.031 0.352-0.086 0.094-0.031 0.199-0.086 0.316-0.171 0.024-0.028 0.063-0.059 0.11-0.086 0.773-0.661 1.339-1.118 1.691-1.375h0.039c0.07-0.059 0.141-0.102 0.211-0.129l0.633-0.344h-0.035l-0.563 0.129c-0.449 0.144-0.812 0.199-1.094 0.172-0.589 0-0.894 0.058-0.918 0.172l-0.109 0.129-0.105-0.043c-0.071 0.027-0.164 0.085-0.282 0.171-0.14 0.145-0.187 0.286-0.14 0.43-0.047-0.027-0.082-0.058-0.106-0.086-0.14-0.113-0.261-0.086-0.355 0.086-0.071 0.172-0.106 0.317-0.106 0.43l0.106 0.129c-0.164-0.059-0.258-0.059-0.281 0v0.043c0 0.027 0.011 0.054 0.035 0.086 0 0.027 0.011 0.054 0.035 0.086 0.164 0.199 0.34 0.285 0.531 0.257z" inkscape:connector-curvature="0"/>
          </g>
        </g>
      </g>
      <path id="path104" style="fill-rule:evenodd;fill:#cc9191" d="m24.305 0.772c-1.227 0-2.438 0.059-3.637 0.172-1.391 0.144-2.758 0.445-4.098 0.902-1.367 0.457-2.695 1.016-3.988 1.672-1.297 0.688-2.262 1.231-2.898 1.633-0.282 0.172-0.539 0.316-0.778 0.43-0.117 0.085-0.222 0.14-0.316 0.171 0.66-0.086 1.308-0.285 1.941-0.601 0.66-0.317 1.836-0.875 3.531-1.676 1.696-0.801 3.391-1.328 5.086-1.586 1.317-0.199 3.036-0.273 5.157-0.215v-0.902z" inkscape:connector-curvature="0"/>
      <path id="path106" style="fill-rule:evenodd;fill:#595959" d="m41.648 6.866c-0.023 0.172-0.074 0.316-0.152 0.429l-0.039 0.086c-0.074 0.086-0.187 0.172-0.34 0.258-0.785 0.488-2.308 0.961-4.562 1.418-0.711 0.141-1.395 0.215-2.055 0.215-0.457 0.172-1.316 0.516-2.586 1.027-1.519 0.66-2.965 1.16-4.332 1.504l-3.195 0.473c-0.051 0.027-0.114 0.027-0.192 0v0.473c1.043-0.032 2.004-0.145 2.891-0.344 0.102-0.028 0.215-0.059 0.344-0.086 1.695-0.457 3.992-1.274 6.879-2.445 0.433-0.118 0.992-0.231 1.675-0.344 1.164-0.203 2-0.403 2.508-0.602 1.469-0.429 2.344-0.73 2.625-0.902 0.785-0.402 1.051-0.914 0.797-1.543-0.254-0.602-0.644-1.09-1.18-1.461-0.046-0.059-0.101-0.102-0.152-0.129l0.23 0.43 0.114 0.129c0.508 0.484 0.762 0.945 0.762 1.371l-0.04 0.043z" inkscape:connector-curvature="0"/>
      <path id="path108" style="fill-rule:evenodd;fill:#969696" d="m34.5 9.272c-0.457-0.031-0.887-0.086-1.293-0.172-0.023 0.055-0.062 0.129-0.113 0.215-0.125 0.285-0.379 0.414-0.762 0.387-0.605 0-0.758-0.129-0.453-0.387 0.148-0.203 0.34-0.328 0.57-0.387-0.152-0.058-0.293-0.113-0.422-0.172-0.175 0.2-0.367 0.301-0.57 0.301-0.633 0.086-0.797 0-0.492-0.258 0.176-0.113 0.344-0.199 0.492-0.258-0.074-0.027-0.148-0.07-0.227-0.128-0.101 0.027-0.203 0.058-0.304 0.086l-0.723 0.171c-0.226 0.059-0.441 0.114-0.644 0.172-0.204 0.059-0.395 0.102-0.571 0.129-0.609 0.172-1.242 0.344-1.902 0.516-0.125 0.027-0.254 0.043-0.379 0.043-0.078 0.027-0.164 0.054-0.266 0.086-0.761 0.14-1.507 0.242-2.246 0.3v0.469c0.055 0.059 0.078 0.129 0.078 0.215 0.176 0.059 0.368 0.129 0.571 0.215s0.406 0.156 0.609 0.215c0.024-0.028 0.051-0.043 0.074-0.043 0.231-0.113 0.481-0.184 0.762-0.215l1.481-0.129c0.253-0.027 0.507-0.027 0.761 0h0.227c0.433 0 0.586 0.059 0.457 0.172h0.039c0.305 0.086 0.023 0.301-0.836 0.644-0.434 0.114-1.051 0.2-1.863 0.258-0.785 0.199-1.571 0.285-2.36 0.258v0.301c0.078 0.027 0.141 0.027 0.192 0l3.195-0.473c1.367-0.344 2.813-0.844 4.332-1.504 1.27-0.511 2.129-0.855 2.586-1.027zm-6.652 0.984c-0.457 0.086-0.547-0.011-0.266-0.3 0.227-0.227 0.531-0.286 0.91-0.168 0.383 0.086 0.457 0.168 0.231 0.253-0.102 0.032-0.395 0.102-0.875 0.215zm-3.082-0.043c0.382-0.172 0.761-0.226 1.14-0.172 0.332 0.086 0.422 0.215 0.27 0.387-0.231 0.145-0.547 0.203-0.953 0.172-0.684-0.086-0.836-0.215-0.457-0.387zm5.82-0.64c0.25-0.117 0.543-0.129 0.871-0.043 0.434 0.113 0.52 0.285 0.27 0.511-0.305 0.231-0.711 0.301-1.219 0.215-0.051-0.027-0.09-0.043-0.113-0.043-0.278 0.086-0.547 0.129-0.797 0.129-0.231 0.032-0.383-0.027-0.457-0.172-0.102-0.113-0.039-0.226 0.187-0.339 0.559-0.204 0.977-0.29 1.258-0.258z" inkscape:connector-curvature="0"/>
      <path id="path110" style="fill-rule:evenodd;fill:#f7f7f7" d="m24.195 10.6v1.375c0.789 0.027 1.575-0.059 2.36-0.258 0.633-0.113 1.265-0.301 1.902-0.558 0.43-0.145 0.684-0.258 0.758-0.344 0.129-0.113-0.024-0.172-0.457-0.172h-0.227c-0.176 0.031-0.406 0.086-0.683 0.172-0.407-0.141-0.965-0.07-1.672 0.215-0.203 0.086-0.446 0.086-0.723 0-0.203-0.059-0.406-0.129-0.609-0.215s-0.395-0.156-0.571-0.215h-0.078zm6.2-0.387c0.027 0 0.062 0.016 0.113 0.043 0.508 0.086 0.914 0.016 1.219-0.215 0.25-0.226 0.164-0.398-0.27-0.511-0.328-0.086-0.621-0.074-0.871 0.043-0.102 0.027-0.203 0.086-0.305 0.172-0.254 0.171-0.215 0.328 0.114 0.468z" inkscape:connector-curvature="0"/>
      <path id="path112" style="fill-rule:evenodd;fill:#737373" d="m29.215 10.815c-0.074 0.086-0.328 0.199-0.758 0.344-0.637 0.257-1.269 0.445-1.902 0.558 0.812-0.058 1.429-0.144 1.863-0.258 0.859-0.343 1.141-0.558 0.836-0.644h-0.039zm-3.762 0.215c0.277 0.086 0.52 0.086 0.723 0 0.707-0.285 1.265-0.356 1.672-0.215 0.277-0.086 0.507-0.141 0.683-0.172-0.254-0.027-0.508-0.027-0.761 0l-1.481 0.129c-0.281 0.031-0.531 0.102-0.762 0.215-0.023 0-0.05 0.015-0.074 0.043zm-1.258-0.645v0.215h0.078c0-0.086-0.023-0.156-0.078-0.215zm8.254-1.457c-0.23 0.055-0.422 0.184-0.57 0.387-0.305 0.258-0.152 0.387 0.453 0.387 0.383 0.027 0.637-0.102 0.762-0.387 0.051-0.086 0.09-0.16 0.113-0.215-0.277-0.031-0.531-0.086-0.758-0.172zm-0.422-0.172c-0.199-0.058-0.39-0.129-0.57-0.215-0.148 0.059-0.316 0.145-0.492 0.258-0.305 0.258-0.141 0.344 0.492 0.258 0.203 0 0.395-0.101 0.57-0.301zm-4.179 1.5c0.48-0.113 0.773-0.183 0.875-0.215 0.226-0.085 0.152-0.167-0.231-0.253-0.379-0.118-0.683-0.059-0.91 0.168-0.281 0.289-0.191 0.386 0.266 0.3zm-3.082-0.043c-0.379 0.172-0.227 0.301 0.457 0.387 0.406 0.031 0.722-0.027 0.953-0.172 0.152-0.172 0.062-0.301-0.27-0.387-0.379-0.054-0.758 0-1.14 0.172zm5.82-0.64c-0.281-0.032-0.699 0.054-1.258 0.258-0.226 0.113-0.289 0.226-0.187 0.339 0.074 0.145 0.226 0.204 0.457 0.172 0.25 0 0.519-0.043 0.797-0.129-0.329-0.14-0.368-0.297-0.114-0.468 0.102-0.086 0.203-0.145 0.305-0.172z" inkscape:connector-curvature="0"/>
      <g id="g114">
        <g id="g116">
          <g id="g122">
            <path id="path136" style="fill-rule:evenodd;fill:url(#linearGradient124)" d="m26.934 7.51c-0.329-0.086-0.418-0.199-0.266-0.344 0.129-0.14 0.332-0.183 0.609-0.128 0.203 0.058 0.254 0.171 0.153 0.343-0.129 0.145-0.293 0.188-0.496 0.129zm0 0.774c-0.051 0.054-0.153 0.086-0.305 0.086-0.301-0.086-0.379-0.188-0.227-0.301 0.102-0.145 0.254-0.156 0.457-0.043 0.176 0.086 0.203 0.172 0.075 0.258zm-2.739 0.257 1.028 0.129c0.66 0.172 1.281 0.215 1.863 0.129 0.762-0.086 1.016-0.015 0.762 0.215-0.231 0.227-0.61 0.399-1.141 0.516 0.125 0 0.254-0.016 0.379-0.043 0.66-0.172 1.293-0.344 1.902-0.516h-0.191c-0.457-0.086-0.52-0.199-0.188-0.344 0.301-0.171 0.594-0.23 0.871-0.171 0.254 0.027 0.293 0.144 0.118 0.343l-0.039 0.043c0.203-0.058 0.418-0.113 0.644-0.172l0.723-0.171c0.101-0.032 0.203-0.059 0.304-0.086-0.175-0.086-0.343-0.172-0.492-0.258-1.625-1-2.5-2.203-2.625-3.606-0.074-0.316-0.101-0.629-0.074-0.945 0.023-0.313 0.086-0.586 0.188-0.813l0.152-0.257 0.078-0.067c0.16-0.176 0.363-0.324 0.605-0.449-0.378-0.027-0.785-0.059-1.214-0.086-1.321-0.113-2.536-0.199-3.653-0.258v3.262c0.231-0.172 0.395-0.187 0.496-0.043 0.227 0.258 0.114 0.387-0.343 0.387-0.051 0-0.098-0.016-0.153-0.043v0.558c0.129-0.058 0.293-0.058 0.496 0 0.329 0.055 0.43 0.184 0.305 0.387-0.101 0.199-0.293 0.285-0.57 0.258-0.102-0.031-0.176-0.059-0.231-0.086v0.555c0.028 0.031 0.055 0.043 0.078 0.043 0.125 0.058 0.165 0.16 0.114 0.3-0.051 0.118-0.114 0.188-0.192 0.215v0.086c0.078 0.059 0.09 0.145 0.039 0.258 0 0.027-0.011 0.059-0.039 0.086v0.644zm4.489-0.515c-0.278-0.059-0.317-0.145-0.114-0.258 0.203-0.172 0.379-0.215 0.532-0.129 0.152 0.027 0.164 0.102 0.039 0.215-0.129 0.145-0.282 0.199-0.457 0.172zm-3.196-0.602c-0.152-0.027-0.136-0.113 0.039-0.258 0.176-0.113 0.344-0.128 0.496-0.042 0.176 0.117 0.188 0.214 0.036 0.3-0.125 0.028-0.317 0.028-0.571 0zm0.801-0.941c-0.078 0.254-0.215 0.371-0.418 0.34-0.355-0.086-0.496-0.242-0.418-0.469 0.074-0.203 0.266-0.289 0.57-0.258 0.278 0.028 0.368 0.156 0.266 0.387zm-2.094-6.399c2.235 0.032 4.426 0.29 6.578 0.774 3.473 0.746 6.071 1.719 7.797 2.918 0.051 0.031 0.086 0.058 0.114 0.086l0.074 0.043c0.508 0.371 0.926 0.703 1.254 0.988v-0.043c-0.352-0.371-0.809-0.758-1.367-1.16-1.723-1.199-4.321-2.188-7.793-2.961-2.18-0.457-4.399-0.699-6.657-0.73v0.085zm1.789 5.411c-0.328-0.114-0.496-0.231-0.496-0.344 0.028-0.172 0.192-0.231 0.496-0.172 0.278 0.027 0.379 0.129 0.305 0.301-0.078 0.172-0.18 0.242-0.305 0.215zm0.344-0.473c-0.152-0.113-0.191-0.199-0.117-0.258 0.203 0 0.434-0.027 0.687-0.086 0.278-0.027 0.43-0.172 0.454-0.429 0.05-0.114 0.062-0.215 0.039-0.301 0.226 0.375 0.254 0.703 0.078 0.988-0.055 0.086-0.219 0.145-0.496 0.172-0.254 0.058-0.469 0.027-0.645-0.086zm1.215 1.332c-0.102 0.027-0.242 0.027-0.418 0-0.305-0.031-0.367-0.129-0.191-0.301 0.179-0.144 0.355-0.16 0.535-0.043 0.176 0.114 0.199 0.227 0.074 0.344z" inkscape:connector-curvature="0"/>
          </g>
        </g>
      </g>
      <path id="path138" style="fill-rule:evenodd;fill:#f1fced" d="m24.195 8.541v1.375c0.739-0.058 1.485-0.16 2.246-0.3 0.102-0.032 0.188-0.059 0.266-0.086 0.531-0.117 0.91-0.289 1.141-0.516 0.254-0.23 0-0.301-0.762-0.215-0.582 0.086-1.203 0.043-1.863-0.129l-1.028-0.129zm2.739-0.257c0.128-0.086 0.101-0.172-0.075-0.258-0.203-0.113-0.355-0.102-0.457 0.043-0.152 0.113-0.074 0.215 0.227 0.301 0.152 0 0.254-0.028 0.305-0.086zm0-0.774c0.203 0.059 0.367 0.016 0.496-0.129 0.101-0.172 0.05-0.285-0.153-0.343-0.281-0.055-0.48-0.012-0.609 0.128-0.152 0.145-0.063 0.258 0.266 0.344zm2.054 1.461c0.176-0.027 0.367-0.07 0.571-0.129l0.039-0.043c0.175-0.199 0.136-0.316-0.118-0.343-0.277-0.059-0.57 0-0.871 0.171-0.332 0.145-0.269 0.258 0.188 0.344h0.191zm-0.304-0.945c0.175 0.027 0.328-0.027 0.457-0.172 0.125-0.113 0.113-0.188-0.039-0.215-0.153-0.086-0.329-0.043-0.532 0.129-0.203 0.113-0.164 0.199 0.114 0.258zm-4.489-0.473v0.344c0.028-0.027 0.039-0.059 0.039-0.086 0.051-0.113 0.039-0.199-0.039-0.258zm0-0.644v0.558c0.078-0.027 0.141-0.097 0.192-0.215 0.051-0.14 0.011-0.242-0.114-0.3-0.023 0-0.05-0.012-0.078-0.043zm0-1.114v0.559c0.055 0.027 0.129 0.055 0.231 0.086 0.277 0.027 0.469-0.059 0.57-0.258 0.125-0.203 0.024-0.332-0.305-0.387-0.203-0.058-0.367-0.058-0.496 0zm0-0.859c-0.125 0.145-0.125 0.242 0 0.301 0.055 0.027 0.102 0.043 0.153 0.043 0.457 0 0.57-0.129 0.343-0.387-0.101-0.144-0.265-0.129-0.496 0.043zm1.293 2.488c0.254 0.028 0.446 0.028 0.571 0 0.152-0.086 0.14-0.183-0.036-0.3-0.152-0.086-0.32-0.071-0.496 0.042-0.175 0.145-0.191 0.231-0.039 0.258zm0.801-0.941c0.102-0.231 0.012-0.359-0.266-0.387-0.304-0.031-0.496 0.055-0.57 0.258-0.078 0.227 0.063 0.383 0.418 0.469 0.203 0.031 0.34-0.086 0.418-0.34zm1.254-0.129c0.125-0.117 0.102-0.23-0.074-0.344-0.18-0.117-0.356-0.101-0.535 0.043-0.176 0.172-0.114 0.27 0.191 0.301 0.176 0.027 0.316 0.027 0.418 0zm-1.215-1.332c0.176 0.113 0.391 0.144 0.645 0.086 0.277-0.027 0.441-0.086 0.496-0.172 0.176-0.285 0.148-0.613-0.078-0.988 0.023 0.086 0.011 0.187-0.039 0.301-0.024 0.257-0.176 0.402-0.454 0.429-0.253 0.059-0.484 0.086-0.687 0.086-0.074 0.059-0.035 0.145 0.117 0.258zm-0.344 0.473c0.125 0.027 0.227-0.043 0.305-0.215 0.074-0.172-0.027-0.274-0.305-0.301-0.304-0.059-0.468 0-0.496 0.172 0 0.113 0.168 0.23 0.496 0.344z" inkscape:connector-curvature="0"/>
      <g id="g140">
        <g id="g142">
          <g id="g148">
            <path id="path164" style="fill-rule:evenodd;fill:url(#linearGradient150)" d="m41.648 6.866-0.152 0.386v0.043c0.078-0.113 0.129-0.257 0.152-0.429zm-1.597-2.059c0 0.059 0.051 0.156 0.152 0.301-0.027-0.113-0.062-0.231-0.113-0.344l-0.039-0.043-0.074-0.043c0.023 0.059 0.05 0.102 0.074 0.129z" inkscape:connector-curvature="0"/>
          </g>
        </g>
      </g>
      <path id="path166" style="fill-rule:evenodd;fill:#5c5c5c" d="m40.812 5.323-0.722-1.289c0 0.257-0.012 0.472-0.039 0.644l0.761 0.645z" inkscape:connector-curvature="0"/>
      <path id="path168" style="fill-rule:evenodd;fill:#c68484" d="m24.195 0.772c0.254 0.027 0.508 0.043 0.762 0.043 1.57 0.086 2.953 0.215 4.145 0.387 1.191 0.172 2.558 0.484 4.105 0.945 1.547 0.484 2.879 1.102 3.992 1.844 0.305 0.199 0.61 0.386 0.914 0.558 0.024-0.027 0.051-0.043 0.075-0.043 0.152 0.145 0.304 0.274 0.457 0.387 0.152 0.113 0.304 0.231 0.457 0.344 0.406 0.086 0.671 0.058 0.796-0.086 0.051-0.059 0.09-0.145 0.114-0.258-0.328-0.285-0.746-0.617-1.254-0.988l-0.074-0.043c-0.028-0.028-0.063-0.055-0.114-0.086-1.726-1.199-4.324-2.176-7.797-2.918-2.152-0.484-4.343-0.742-6.578-0.774v0.688z" inkscape:connector-curvature="0"/>
      <path id="path170" style="fill-rule:evenodd;fill:#cc9191" d="m29.062 2.018h0.079c0.507-0.199 1.191-0.258 2.05-0.172 1.575 0.231 3.157 0.785 4.754 1.672 1.395 0.973 2.282 1.52 2.66 1.633 0.18 0.058 0.344 0.086 0.497 0.086-0.153-0.113-0.305-0.231-0.457-0.344-0.153-0.113-0.305-0.242-0.457-0.387-0.024 0-0.051 0.016-0.075 0.043-0.304-0.172-0.609-0.359-0.914-0.558-1.113-0.742-2.445-1.36-3.992-1.844-1.547-0.457-2.914-0.773-4.105-0.945-1.192-0.172-2.575-0.301-4.145-0.387-0.254 0-0.508-0.016-0.762-0.043v0.902c1.117 0.059 2.332 0.145 3.653 0.258 0.429 0.027 0.836 0.059 1.214 0.086z" inkscape:connector-curvature="0"/>
      <g id="g172">
        <g id="g174">
          <g id="g180">
            <path id="path196" style="fill-rule:evenodd;fill:url(#linearGradient182)" d="m30.586 6.866c0.25 0.144 0.355 0.246 0.301 0.3-0.051 0.086-0.199 0.102-0.453 0.043-0.356-0.14-0.496-0.269-0.418-0.386 0.101-0.086 0.289-0.071 0.57 0.043zm0.379-3.903-0.531-0.086c-1.649-0.058-2.422 0.485-2.321 1.629v0.043c0.125 1.403 1 2.606 2.625 3.606 0.149 0.086 0.317 0.172 0.492 0.258 0.079 0.058 0.153 0.101 0.227 0.128 0.18 0.086 0.371 0.157 0.57 0.215 0.129 0.059 0.27 0.114 0.422 0.172 0.227 0.086 0.481 0.141 0.758 0.172 0.406 0.086 0.836 0.141 1.293 0.172 0.66 0 1.344-0.074 2.055-0.215 2.254-0.457 3.777-0.93 4.562-1.418-0.051 0-0.101 0.016-0.152 0.043-0.434 0.086-1.004-0.043-1.711-0.387-0.203-0.086-0.434-0.199-0.684-0.343-0.761-0.457-1.8-1.157-3.121-2.102-1.191-0.746-2.457-1.332-3.801-1.762l-0.761-0.125h0.078zm2.625 4.891c-0.332-0.172-0.52-0.473-0.57-0.902-0.051-0.457 0.05-0.844 0.3-1.157 0.305-0.343 0.75-0.414 1.332-0.214l-0.836 0.601c-0.406 0.313-0.48 0.871-0.226 1.672zm1.672 0.773c-0.481-0.285-0.801-0.515-0.953-0.687-0.024-0.027-0.051-0.07-0.075-0.129-0.277-0.316-0.316-0.699-0.113-1.16 0.125-0.371 0.441-0.598 0.949-0.684 0.559-0.058 1.18 0.141 1.864 0.598 0.507 0.344 0.851 0.66 1.027 0.945 0.227 0.43 0.152 0.817-0.231 1.16-0.175 0.172-0.554 0.243-1.14 0.215-0.531 0-0.973-0.086-1.328-0.258zm-5.742-2.789c0.175 0.086 0.265 0.184 0.265 0.301-0.023 0.113-0.113 0.141-0.265 0.086-0.254-0.086-0.368-0.203-0.34-0.344 0-0.117 0.113-0.129 0.34-0.043zm1.863 0.473c-0.559-0.086-0.813-0.332-0.762-0.73 0-0.372 0.203-0.489 0.609-0.344 0.332 0.113 0.469 0.328 0.418 0.644 0 0.313-0.089 0.457-0.265 0.43zm-0.762-1.719c-0.152 0.258-0.316 0.344-0.492 0.258-0.457-0.144-0.598-0.316-0.418-0.516 0.203-0.199 0.457-0.242 0.758-0.128 0.23 0.058 0.281 0.187 0.152 0.386zm2.016 0.473c0.152 0.172 0.113 0.258-0.114 0.258-0.277 0-0.468-0.102-0.57-0.301-0.125-0.199-0.074-0.273 0.152-0.215 0.204 0.027 0.379 0.113 0.532 0.258z" inkscape:connector-curvature="0"/>
          </g>
        </g>
      </g>
      <path id="path198" style="fill-rule:evenodd;fill:#f1fced" d="m30.586 6.866c-0.281-0.114-0.469-0.129-0.57-0.043-0.078 0.117 0.062 0.246 0.418 0.386 0.254 0.059 0.402 0.043 0.453-0.043 0.054-0.054-0.051-0.156-0.301-0.3zm2.051-1.801c-0.153-0.145-0.328-0.231-0.532-0.258-0.226-0.058-0.277 0.016-0.152 0.215 0.102 0.199 0.293 0.301 0.57 0.301 0.227 0 0.266-0.086 0.114-0.258zm-2.016-0.473c0.129-0.199 0.078-0.328-0.152-0.386-0.301-0.114-0.555-0.071-0.758 0.128-0.18 0.2-0.039 0.372 0.418 0.516 0.176 0.086 0.34 0 0.492-0.258zm0.762 1.719c0.176 0.027 0.265-0.117 0.265-0.43 0.051-0.316-0.089-0.531-0.418-0.644-0.406-0.145-0.609-0.028-0.609 0.344-0.051 0.398 0.203 0.644 0.762 0.73zm-1.863-0.473c-0.227-0.086-0.34-0.074-0.34 0.043-0.028 0.141 0.086 0.258 0.34 0.344 0.152 0.055 0.242 0.027 0.265-0.086 0-0.117-0.09-0.215-0.265-0.301z" inkscape:connector-curvature="0"/>
      <path id="path200" style="fill-rule:evenodd;fill:#9e9e9e" d="m33.59 7.854c-0.254-0.801-0.18-1.359 0.226-1.672l0.836-0.601c-0.582-0.2-1.027-0.129-1.332 0.214-0.25 0.313-0.351 0.7-0.3 1.157 0.05 0.429 0.238 0.73 0.57 0.902z" inkscape:connector-curvature="0"/>
      <g id="g202">
        <g id="g204">
          <g id="g210">
            <path id="path226" style="fill-rule:evenodd;fill:url(#linearGradient212)" d="m35.262 8.627c0.355 0.172 0.797 0.258 1.328 0.258 0.586 0.028 0.965-0.043 1.14-0.215 0.383-0.343 0.458-0.73 0.231-1.16-0.176-0.285-0.52-0.601-1.027-0.945-0.684-0.457-1.305-0.656-1.864-0.598-0.508 0.086-0.824 0.313-0.949 0.684-0.203 0.461-0.164 0.844 0.113 1.16 0.024 0.059 0.051 0.102 0.075 0.129 0.152 0.172 0.472 0.402 0.953 0.687zm-0.532-0.902c-0.203-0.601-0.066-0.973 0.418-1.117 0.407-0.086 0.747-0.113 1.024-0.086 0.355 0.086 0.75 0.316 1.18 0.687 0.101 0.086 0.191 0.172 0.265 0.258 0.203 0.258 0.219 0.5 0.039 0.731-0.226 0.258-0.57 0.402-1.027 0.429-0.988 0-1.609-0.3-1.863-0.902h-0.036z" inkscape:connector-curvature="0"/>
          </g>
        </g>
      </g>
      <path id="path228" style="fill-rule:evenodd;fill:#ffffff" d="m35.301 7.983c-0.055-0.113-0.09-0.215-0.117-0.301-0.024-0.144-0.012-0.285 0.039-0.43 0.101-0.199 0.316-0.328 0.648-0.386 0.352-0.055 0.695 0.058 1.024 0.343 0.101 0.086 0.191 0.172 0.265 0.258 0.152 0.199 0.18 0.414 0.078 0.645 0-0.258-0.164-0.414-0.496-0.473-0.379-0.058-0.582 0.059-0.605 0.344-0.028 0.23 0.101 0.387 0.379 0.473h-0.075c-0.535-0.028-0.914-0.188-1.14-0.473zm-0.571-0.258h0.036c0.254 0.602 0.875 0.902 1.863 0.902 0.457-0.027 0.801-0.171 1.027-0.429 0.176-0.231 0.164-0.473-0.039-0.731-0.074-0.086-0.164-0.172-0.265-0.258-0.43-0.371-0.825-0.601-1.18-0.687-0.277-0.027-0.617 0-1.024 0.086-0.484 0.144-0.621 0.516-0.418 1.117zm1.215-0.43c0-0.113-0.074-0.183-0.226-0.214-0.153-0.028-0.231 0.015-0.231 0.128-0.023 0.118 0.039 0.188 0.192 0.215 0.152 0.028 0.242-0.015 0.265-0.129z" inkscape:connector-curvature="0"/>
      <path id="path230" style="fill-rule:evenodd;fill:#454545" d="m35.301 7.983c0.226 0.285 0.605 0.445 1.14 0.473h0.075c-0.278-0.086-0.407-0.243-0.379-0.473 0.023-0.285 0.226-0.402 0.605-0.344 0.332 0.059 0.496 0.215 0.496 0.473 0.102-0.231 0.074-0.446-0.078-0.645-0.074-0.086-0.164-0.172-0.265-0.258-0.329-0.285-0.672-0.398-1.024-0.343-0.332 0.058-0.547 0.187-0.648 0.386-0.051 0.145-0.063 0.286-0.039 0.43 0.027 0.086 0.062 0.188 0.117 0.301zm0.644-0.688c-0.023 0.114-0.113 0.161-0.265 0.129-0.153-0.027-0.215-0.097-0.192-0.215 0-0.113 0.078-0.156 0.231-0.128 0.152 0.031 0.226 0.101 0.226 0.214z" inkscape:connector-curvature="0"/>
      <path id="path232" style="fill-rule:evenodd;fill:#707070" d="m40.203 5.108c0.027 0.199 0.039 0.402 0.039 0.601 0 0.227-0.051 0.399-0.152 0.516-0.129 0.172-0.356 0.227-0.684 0.172-0.101 0-0.215-0.031-0.344-0.086-0.48-0.145-1.062-0.445-1.75-0.902l-0.722-0.43c-0.051-0.027-0.098-0.07-0.149-0.129-0.863-0.543-1.523-0.887-1.98-1.031-0.707-0.371-1.418-0.586-2.129-0.645-0.504-0.113-0.961-0.183-1.367-0.211h-0.078l0.761 0.125c1.344 0.43 2.61 1.02 3.801 1.762 1.321 0.945 2.36 1.645 3.121 2.102 0.25 0.144 0.481 0.257 0.684 0.343 0.707 0.344 1.277 0.473 1.711 0.387 0.051-0.027 0.101-0.043 0.152-0.043 0.153-0.086 0.266-0.172 0.34-0.258l0.039-0.129 0.152-0.386 0.04-0.043c0-0.426-0.254-0.887-0.762-1.371l-0.875-0.774v0.043l0.039 0.043c0.051 0.113 0.09 0.231 0.113 0.344z" inkscape:connector-curvature="0"/>
      <path id="path234" style="fill-rule:evenodd;fill:#5c5c5c" d="m28.113 4.549v-0.043c-0.101-1.144 0.672-1.687 2.321-1.629l0.531 0.086c0.406 0.028 0.863 0.098 1.367 0.211 0.711 0.059 1.422 0.274 2.129 0.645 0.457 0.144 1.117 0.488 1.98 1.031 0.051 0.055 0.098 0.102 0.149 0.129l0.722 0.43c0.688 0.457 1.27 0.757 1.75 0.902 0.129 0.055 0.243 0.086 0.344 0.086 0.328 0.055 0.555 0 0.684-0.172 0.101-0.117 0.152-0.289 0.152-0.516 0-0.199-0.012-0.402-0.039-0.601-0.101-0.145-0.152-0.242-0.152-0.301l-0.039 0.043v0.043c-0.024 0.113-0.063 0.199-0.114 0.258-0.125 0.144-0.39 0.172-0.796 0.086-0.153 0-0.317-0.028-0.497-0.086-0.378-0.113-1.265-0.66-2.66-1.633-1.597-0.887-3.179-1.441-4.754-1.672-0.859-0.086-1.543-0.031-2.05 0.172-0.289 0.125-0.52 0.273-0.684 0.449l-0.078 0.067-0.152 0.257c-0.102 0.227-0.165 0.5-0.188 0.813-0.027 0.316 0 0.629 0.074 0.945z" inkscape:connector-curvature="0"/>
      <path id="path236" style="fill-rule:evenodd;fill:#000000;fill-opacity:.2" d="m26.82 3.389c0.203 0.059 0.266-0.027 0.192-0.258-0.051-0.226-0.18-0.484-0.383-0.769-0.176-0.258-0.543-0.531-1.102-0.817-0.429-0.23-0.797-0.371-1.101-0.429l-0.762-0.215c0.051 0.113 0.09 0.215 0.113 0.301 0.028 0.199-0.035 0.359-0.187 0.472-0.028 0.028-0.203 0.145-0.535 0.344-0.176 0.086-0.301 0.184-0.379 0.301-0.125 0.226-0.176 0.398-0.153 0.515 0.965-0.203 1.723-0.257 2.282-0.171 0.582 0.086 1.254 0.328 2.015 0.726z" inkscape:connector-curvature="0"/>
      <g id="g238">
        <g id="g240">
          <g id="g246">
            <path id="path254" style="fill-rule:evenodd;fill:url(#linearGradient248)" d="m25.375 3.389c0.531 0.086 0.875 0.16 1.027 0.215 0.328 0.086 0.532 0.031 0.61-0.172 0.074-0.226-0.063-0.516-0.418-0.855-0.762-0.774-1.547-1.219-2.36-1.332l-0.683-0.086c0.152 0.027 0.265 0.086 0.344 0.172 0.175 0.199 0.023 0.429-0.457 0.687-0.684 0.398-1.051 0.773-1.102 1.113 0.605-0.14 1.191-0.14 1.746 0 0.281 0.086 0.711 0.172 1.293 0.258z" inkscape:connector-curvature="0"/>
          </g>
        </g>
      </g>
      <path id="path256" style="fill-rule:evenodd;fill:#454545" d="m26.707 3.647c0.152-0.027 0.242-0.043 0.266-0.043 0-0.027 0.023-0.113 0.074-0.258 0.027-0.113-0.176-0.457-0.606-1.027l-0.265-0.301 0.265 0.43-0.535-0.344c-0.277-0.145-0.543-0.188-0.797-0.129 0.227 0.055 0.496 0.141 0.797 0.258 0.231 0.113 0.356 0.258 0.383 0.43l0.074 0.211-0.34-0.168c-0.253-0.118-0.496-0.215-0.722-0.301-0.406-0.086-0.836-0.102-1.293-0.043l0.34 0.043c0.609 0.086 1.09 0.215 1.445 0.386 0.18 0.114 0.305 0.211 0.383 0.297l0.035 0.086-1.176-0.3c-0.332-0.055-0.824-0.071-1.484-0.04 0.457 0.055 0.875 0.125 1.254 0.211 0.711 0.059 1.14 0.145 1.293 0.258 0.254 0.203 0.062 0.188-0.571-0.043-0.152 0-0.379 0.016-0.683 0.043 0.304 0.059 0.633 0.129 0.988 0.215 0.48 0.086 0.773 0.129 0.875 0.129z" inkscape:connector-curvature="0"/>
      <path id="path258" style="fill-rule:evenodd;fill:#969696" d="m8.758 7.459c-0.18 0.067-0.274 0.137-0.274 0.207 0 0.036 0.094 0.071 0.274 0.102v-0.309z" inkscape:connector-curvature="0"/>
      <path id="path260" style="fill-rule:evenodd;fill:#595959" d="m8.758 7.768c-0.18-0.031-0.274-0.066-0.274-0.102 0-0.07 0.094-0.136 0.274-0.207v-0.566h-0.039c-0.52 0.172-0.86 0.496-1.016 0.981-0.129 0.445-0.105 0.945 0.078 1.496 0.028 0.101 0.067 0.207 0.117 0.308 0.055-0.242 0.133-0.566 0.235-0.98 0.105-0.309 0.312-0.481 0.625-0.516v-0.414z" inkscape:connector-curvature="0"/>
      <g id="g262">
        <g id="g264">
          <g id="g270">
            <path id="path278" style="fill-rule:evenodd;fill:url(#linearGradient272)" d="m7.742 9.471h-0.469c-0.234 0.586-0.484 1.016-0.742 1.289-0.211 0.207-0.496 0.399-0.863 0.571l-0.742 0.257c0.758-0.308 1.238-0.687 1.449-1.136l0.273-0.723-0.039-0.309c-0.132-0.242-0.312-0.293-0.547-0.156-0.417 0.172-0.902 0.414-1.449 0.723 0.133-0.102 0.262-0.207 0.391-0.309 0.312-0.277 0.469-0.515 0.469-0.722 0.054-0.172 0.117-0.309 0.195-0.415 0.027-0.031-0.09-0.066-0.352-0.101l-0.664-0.156c0.313-0.032 0.547-0.188 0.703-0.465 0.184-0.34 0.235-0.617 0.157-0.824-0.051-0.207-0.219-0.274-0.508-0.207l-0.938 0.05c0.289-0.339 0.575-0.515 0.86-0.515l0.824 0.105 0.195-0.308c0.024-0.278-0.195-0.485-0.668-0.621-0.726-0.208-1.496-0.258-2.304-0.157 0.129-0.101 0.48-0.222 1.054-0.359 0.364-0.102 0.821-0.102 1.368 0l0.746 0.207-0.039-0.207c-0.157-0.137-0.473-0.344-0.942-0.621-0.519-0.274-1.094-0.461-1.719-0.567-0.496-0.035-0.859-0.035-1.093 0h-0.356c0.184-0.273 0.785-0.343 1.801-0.207 0.68 0.071 1.289 0.227 1.836 0.465l0.629 0.309-0.235-0.36c-0.261-0.277-0.746-0.566-1.449-0.878-0.832-0.309-1.328-0.497-1.484-0.567-0.156-0.035-0.574-0.07-1.254-0.101-0.703-0.106-1.316-0.086-1.836 0.05l0.508 0.102c0.183 0 0.574 0.414 1.172 1.238 0.652 1 1.136 1.617 1.449 1.86 0.363 0.343 0.574 0.687 0.625 1.031 0.051 0.414 0.117 0.793 0.195 1.137 0.156 0.41 0.168 1.218 0.039 2.425-0.05 0.582-0.105 1.117-0.156 1.598 0.363 0.07 0.797 0.07 1.289 0 0.992-0.137 1.774-0.586 2.348-1.34 0.129-0.176 0.222-0.344 0.273-0.519 0-0.137 0.028-0.309 0.078-0.516l-0.078-0.051z" inkscape:connector-curvature="0"/>
          </g>
        </g>
      </g>
      <path id="path280" style="fill-rule:evenodd;fill:#454545" d="m7.273 9.471v-0.051l-0.39-0.05c-1.149-0.996-1.293-2.305-0.43-3.922 0.156-0.344 0.481-0.621 0.977-0.828-0.051-0.032-0.09-0.067-0.118-0.102-1.148-0.961-2.152-1.598-3.011-1.91-1.121-0.445-2.164-0.617-3.129-0.516-0.52 0.106-0.91 0.242-1.172 0.414 0.52-0.136 1.133-0.156 1.836-0.05 0.68 0.031 1.098 0.066 1.254 0.101 0.156 0.07 0.652 0.258 1.484 0.567 0.703 0.312 1.188 0.601 1.449 0.878l0.235 0.36-0.629-0.309c-0.547-0.238-1.156-0.394-1.836-0.465-1.016-0.136-1.617-0.066-1.801 0.207h0.356c0.234-0.035 0.597-0.035 1.093 0 0.625 0.106 1.2 0.293 1.719 0.567 0.469 0.277 0.785 0.484 0.942 0.621l0.039 0.207-0.746-0.207c-0.547-0.102-1.004-0.102-1.368 0-0.574 0.137-0.925 0.258-1.054 0.359 0.808-0.101 1.578-0.051 2.304 0.157 0.473 0.136 0.692 0.343 0.668 0.621l-0.195 0.308-0.824-0.105c-0.285 0-0.571 0.176-0.86 0.515l0.938-0.05c0.289-0.067 0.457 0 0.508 0.207 0.078 0.207 0.027 0.484-0.157 0.824-0.156 0.277-0.39 0.433-0.703 0.465l0.664 0.156c0.262 0.035 0.379 0.07 0.352 0.101-0.078 0.106-0.141 0.243-0.195 0.415 0 0.207-0.157 0.449-0.469 0.722-0.129 0.102-0.258 0.207-0.391 0.309 0.547-0.309 1.032-0.551 1.449-0.723 0.235-0.137 0.418-0.086 0.547 0.156l0.039 0.309-0.273 0.723c-0.211 0.449-0.691 0.828-1.449 1.136l0.742-0.257c0.367-0.172 0.652-0.364 0.863-0.571 0.258-0.273 0.508-0.703 0.742-1.289z" inkscape:connector-curvature="0"/>
      <g id="g282">
        <g id="g284">
          <g id="g290">
            <path id="path304" style="fill-rule:evenodd;fill:url(#linearGradient292)" d="m7.781 9.37c-0.183-0.551-0.207-1.051-0.078-1.496 0.156-0.485 0.496-0.809 1.016-0.981h0.039v-1.445c-0.235 0.035-0.442-0.071-0.625-0.309-0.028-0.035-0.039-0.07-0.039-0.105-0.203-0.09-0.422-0.227-0.664-0.414-0.496 0.207-0.821 0.484-0.977 0.828-0.863 1.617-0.719 2.922 0.43 3.922l0.39 0.05v0.051h0.469c0.028 0 0.039-0.035 0.039-0.101z" inkscape:connector-curvature="0"/>
          </g>
        </g>
      </g>
    </g>
  </g>
<metadata><rdf:RDF><cc:Work><dc:format>image/svg+xml</dc:format><dc:type rdf:resource="http://purl.org/dc/dcmitype/StillImage"/><cc:license rdf:resource="http://creativecommons.org/licenses/publicdomain/"/><dc:publisher><cc:Agent rdf:about="http://openclipart.org/"><dc:title>Openclipart</dc:title></cc:Agent></dc:publisher></cc:Work><cc:License rdf:about="http://creativecommons.org/licenses/publicdomain/"><cc:permits rdf:resource="http://creativecommons.org/ns#Reproduction"/><cc:permits rdf:resource="http://creativecommons.org/ns#Distribution"/><cc:permits rdf:resource="http://creativecommons.org/ns#DerivativeWorks"/></cc:License></rdf:RDF></metadata></svg>
